2020-04-22 17:12:31 ERROR 20200422171231461:164 - AR-Debug:: Custom EZCommit properties are not available
2020-04-22 17:12:31 INFO  20200422171231461:101 - AR-Debug:: Found sfId for sfOrgId :: 4ED79DE333E8D75C12916823BF642857 in orgName :: autorabit.com-PmkSJi
2020-04-22 17:12:31 INFO  20200422171231461:96 - AR-Debug:: Fetching Credentials for userID:aSe3kkdDWf35X2Hw in orgName:autorabit.com-PmkSJi with accessKey:rj_bb_askme_repo
2020-04-22 17:12:31 INFO  20200422171231461:172 - Creating metadata connection.
2020-04-22 17:12:31 ERROR 20200422171231461:164 - AR-Debug:: Custom EZCommit properties are not available
2020-04-22 17:12:35 INFO  20200422171231461:494 - Looking for Search and Substitute Configuration.
2020-04-22 17:12:35 INFO  20200422171231461:362 - No ALM Mapping found
2020-04-22 17:12:35 INFO  20200422171231461:267 - AR-Debug::  Saving label to commit history
2020-04-22 17:12:35 INFO  20200422171231461:96 - AR-Debug:: Fetching Credentials for userID:aSe3kkdDWf35X2Hw in orgName:autorabit.com-PmkSJi with accessKey:rj_bb_askme_repo
2020-04-22 17:12:35 INFO  20200422171231461:2714 - Pull request is not enabled for Account / Repository.
2020-04-22 17:12:35 INFO  20200422171231461:282 - Creating metadata connection. Processing the 0052v00000ay4JaAAI changes.
2020-04-22 17:12:35 INFO  20200422171231461:96 - AR-Debug:: Fetching Credentials for userID:aSe3kkdDWf35X2Hw in orgName:autorabit.com-PmkSJi with accessKey:rj_bb_askme_repo
2020-04-22 17:12:35 INFO  20200422171231461:352 - Preparing package manifest file with selected metadata members.
2020-04-22 17:12:35 INFO  20200422171231461:383 - AR-Debug::  ***********************Commit initiation to metadata retrieval start*********************** : 4067
2020-04-22 17:12:35 INFO  20200422171231461:2440 - autorabit.com-PmkSJi_BBrepo1_branch3:rajashekar.j1@autorabit.comCreating metadata connection. Processing the 0052v00000ay4JaAAI changes.
2020-04-22 17:12:35 INFO  20200422171231461:2441 - Processing the 0052v00000ay4JaAAI changes.
2020-04-22 17:12:35 INFO  20200422171231461:2445 - Deleting Retrieval directory.
2020-04-22 17:12:35 INFO  20200422171231461:2450 - Creating metadata Retrieval directory.
2020-04-22 17:12:35 INFO  20200422171231461:187 - Preparing metadata retrieval request with selected metadata members.
2020-04-22 17:12:38 INFO  20200422171231461:204 - Metadata retrieval request sent with selected metadata members. Request Id : 09S2v000007DejVEAS
2020-04-22 17:12:49 INFO  20200422171231461:388 - AR-Debug:: Process meta data retrieval status : true
2020-04-22 17:12:49 INFO  20200422171231461:400 - AR-Debug::  ***********************Metadata retrieval completed in*********************** : 13964
2020-04-22 17:12:49 INFO  20200422171231461:416 - Creating version control connection...
2020-04-22 17:12:49 INFO  20200422171231461:196 - SCM URL : https://bitbucket.org/rajashekarj/myrepo1.git
2020-04-22 17:12:49 INFO  20200422171231461:435 - AR-Debug:: Name of the branch : branch3
2020-04-22 17:12:49 INFO  20200422171231461:438 - Configured Email: rajashekar.j1@autorabit.com
2020-04-22 17:12:49 INFO  20200422171231461:470 - Validating version control credentials.
2020-04-22 17:12:49 INFO  20200422171231461:727 - OrgName : autorabit.com-PmkSJi Executing custom API
2020-04-22 17:12:52 INFO  20200422171231461:60 - 2e43b0393389f83a0f998edca3ee0c7abf347461	HEAD
2020-04-22 17:12:52 INFO  20200422171231461:60 - f53a8772b0edc4a858a7523231b574c2a31711ea	refs/heads/22021Branch
2020-04-22 17:12:52 INFO  20200422171231461:60 - b32487907fe1846d95491f48a1476673a587277f	refs/heads/BBRepo1Branch1
2020-04-22 17:12:52 INFO  20200422171231461:60 - dea3bf48f9feeb3cbd2d75029e76d920dbe989e3	refs/heads/branch1
2020-04-22 17:12:52 INFO  20200422171231461:60 - fb8bba3862ace96c0bc71011c4036b932d3dbd42	refs/heads/branch2
2020-04-22 17:12:52 INFO  20200422171231461:60 - a5dd74ceb903e39d0c77171d4e21ec57e988e32d	refs/heads/branch3
2020-04-22 17:12:52 INFO  20200422171231461:60 - 2e43b0393389f83a0f998edca3ee0c7abf347461	refs/heads/master
2020-04-22 17:12:52 INFO  20200422171231461:60 - ffc0137f88940932bb25244c25006d9e71427454	refs/remotes/origin/branch1
2020-04-22 17:12:52 INFO  20200422171231461:60 - 38401e07bc369a9de5fba18d1c4df6c13dc2c857	refs/remotes/origin/branch2
2020-04-22 17:12:52 INFO  20200422171231461:60 - cb23789f3627f5ced288952cda3b52f2e63743a5	refs/remotes/origin/branch3
2020-04-22 17:12:52 INFO  20200422171231461:60 - aadbf6ad6c22eeeb5ba7043b32283d6359b67edc	refs/remotes/origin/master
2020-04-22 17:12:52 INFO  20200422171231461:1358 - OrgName : autorabit.com-PmkSJi Executing custom API
2020-04-22 17:12:52 INFO  20200422171231461:616 - Executing the following command : [Ljava.lang.String;@60de916b
2020-04-22 17:12:54 INFO  20200422171231461:196 - SCM URL : https://bitbucket.org/rajashekarj/myrepo1.git
2020-04-22 17:12:54 INFO  20200422171231461:727 - OrgName : autorabit.com-PmkSJi Executing custom API
2020-04-22 17:12:56 INFO  20200422171231461:60 - 2e43b0393389f83a0f998edca3ee0c7abf347461	HEAD
2020-04-22 17:12:56 INFO  20200422171231461:60 - f53a8772b0edc4a858a7523231b574c2a31711ea	refs/heads/22021Branch
2020-04-22 17:12:56 INFO  20200422171231461:60 - b32487907fe1846d95491f48a1476673a587277f	refs/heads/BBRepo1Branch1
2020-04-22 17:12:56 INFO  20200422171231461:60 - dea3bf48f9feeb3cbd2d75029e76d920dbe989e3	refs/heads/branch1
2020-04-22 17:12:56 INFO  20200422171231461:60 - fb8bba3862ace96c0bc71011c4036b932d3dbd42	refs/heads/branch2
2020-04-22 17:12:56 INFO  20200422171231461:60 - a5dd74ceb903e39d0c77171d4e21ec57e988e32d	refs/heads/branch3
2020-04-22 17:12:56 INFO  20200422171231461:60 - 2e43b0393389f83a0f998edca3ee0c7abf347461	refs/heads/master
2020-04-22 17:12:56 INFO  20200422171231461:60 - ffc0137f88940932bb25244c25006d9e71427454	refs/remotes/origin/branch1
2020-04-22 17:12:56 INFO  20200422171231461:60 - 38401e07bc369a9de5fba18d1c4df6c13dc2c857	refs/remotes/origin/branch2
2020-04-22 17:12:56 INFO  20200422171231461:60 - cb23789f3627f5ced288952cda3b52f2e63743a5	refs/remotes/origin/branch3
2020-04-22 17:12:56 INFO  20200422171231461:60 - aadbf6ad6c22eeeb5ba7043b32283d6359b67edc	refs/remotes/origin/master
2020-04-22 17:12:56 INFO  20200422171231461:1358 - OrgName : autorabit.com-PmkSJi Executing custom API
2020-04-22 17:12:56 INFO  20200422171231461:616 - Executing the following command : [Ljava.lang.String;@3577a5c6
2020-04-22 17:12:59 INFO  20200422171231461:1407 - Executing custom API
2020-04-22 17:12:59 INFO  20200422171231461:1036 - Working copy already exists. Updating the working copy
2020-04-22 17:12:59 INFO  20200422171231461:1241 - Executing custom API
2020-04-22 17:12:59 INFO  20200422171231461:1246 - OrgName : autorabit.com-PmkSJiSame remote url found. Updating working copy.
2020-04-22 17:12:59 INFO  20200422171231461:1315 - Fetching remote branches.
2020-04-22 17:12:59 INFO  20200422171231461:1317 - Executing custom API
2020-04-22 17:12:59 INFO  20200422171231461:60 - Fetching origin
2020-04-22 17:13:04 WARN  20200422171231461:60 - From https://bitbucket.org/rajashekarj/myrepo1
2020-04-22 17:13:04 WARN  20200422171231461:60 -    16d1c73..dea3bf4  branch1    -> origin/branch1
2020-04-22 17:13:04 INFO  20200422171231461:180 - Fetch result : 0
2020-04-22 17:13:04 INFO  20200422171231461:1269 - OrgName : autorabit.com-PmkSJiUpdating head refs
2020-04-22 17:13:04 INFO  20200422171231461:1274 - OrgName : autorabit.com-PmkSJi Executing custom API
2020-04-22 17:13:06 WARN  20200422171231461:60 - From https://bitbucket.org/rajashekarj/myrepo1
2020-04-22 17:13:06 WARN  20200422171231461:60 -  * branch            branch3    -> FETCH_HEAD
2020-04-22 17:13:06 INFO  20200422171231461:60 - Already up to date.
2020-04-22 17:13:06 INFO  20200422171231461:152 - pull result : 0
2020-04-22 17:13:06 INFO  20200422171231461:1407 - Executing custom API
2020-04-22 17:13:06 INFO  20200422171231461:488 - AR-Debug::  ***********************Checkout is completed in*********************** : 17234
2020-04-22 17:13:06 INFO  20200422171231461:1473 - AR-Debug:: File path to edit : D:\filesystem\193\rabit\.rabit\org\autorabit.com-PmkSJi\scm\ezcommit\20191030162343577\BBrepo1_branch3\objects\Lenovo__c.object
2020-04-22 17:13:06 INFO  20200422171231461:1473 - AR-Debug:: File path to edit : D:\filesystem\193\rabit\.rabit\org\autorabit.com-PmkSJi\scm\ezcommit\20191030162343577\BBrepo1_branch3\package.xml
2020-04-22 17:13:06 INFO  20200422171231461:545 - Retrieved files count : 2
2020-04-22 17:13:06 INFO  20200422171231461:554 - Appending retrieved metadata to SCM working copy.
2020-04-22 17:13:07 INFO  20200422171231461:573 - AR-Debug::  ***********************Appending is completed in*********************** : 958
2020-04-22 17:13:07 INFO  20200422171231461:638 - AR-Debug::  ***********************Profile refactor is completed in*********************** : 0
2020-04-22 17:13:07 INFO  20200422171231461:697 - AR-Debug::  ***********************Deletion is completed in*********************** : 0
2020-04-22 17:13:08 INFO  20200422171231461:742 - Adding new files
2020-04-22 17:13:08 INFO  20200422171231461:227 - [D:\filesystem\193\rabit\.rabit\org\autorabit.com-PmkSJi\scm\ezcommit\20191030162343577\BBrepo1_branch3\objects\Lenovo__c.object, D:\filesystem\193\rabit\.rabit\org\autorabit.com-PmkSJi\scm\ezcommit\20191030162343577\BBrepo1_branch3\package.xml]
2020-04-22 17:13:08 INFO  20200422171231461:745 - Committing changes to repository
2020-04-22 17:13:08 INFO  20200422171231461:227 - [D:\filesystem\193\rabit\.rabit\org\autorabit.com-PmkSJi\scm\ezcommit\20191030162343577\BBrepo1_branch3\objects\Lenovo__c.object, D:\filesystem\193\rabit\.rabit\org\autorabit.com-PmkSJi\scm\ezcommit\20191030162343577\BBrepo1_branch3\package.xml]
2020-04-22 17:13:08 INFO  20200422171231461:392 - <font color='blue'>Committed to LOCAL repository with revision number: c7900bc</font>
2020-04-22 17:13:08 INFO  20200422171231461:393 - <font color='blue'>Initiated push to remote repository.</font>
2020-04-22 17:13:08 INFO  20200422171231461:1156 - OrgName : autorabit.com-PmkSJi Executing custom API
2020-04-22 17:13:12 WARN  20200422171231461:60 - remote: 
2020-04-22 17:13:12 WARN  20200422171231461:60 - remote: Create pull request for branch3:        
2020-04-22 17:13:12 WARN  20200422171231461:60 - remote:   https://bitbucket.org/rajashekarj/myrepo1/pull-requests/new?source=branch3&t=1        
2020-04-22 17:13:12 WARN  20200422171231461:60 - remote: 
2020-04-22 17:13:12 WARN  20200422171231461:60 - To https://bitbucket.org/rajashekarj/myrepo1.git
2020-04-22 17:13:12 WARN  20200422171231461:60 -    a5dd74c..c7900bc  branch3 -> branch3
2020-04-22 17:13:12 INFO  20200422171231461:396 - <font color='blue'>Status of the GIT Push process: Success and Revisions Pushed : c7900bc</font>
2020-04-22 17:13:12 INFO  20200422171231461:748 - Committed 0052v00000ay4JaAAI changes to repository
2020-04-22 17:13:12 INFO  20200422171231461:751 - Setting From revision c7900bc
2020-04-22 17:13:12 INFO  20200422171231461:753 - Commit Process has been completed successfully.
2020-04-22 17:13:12 INFO  20200422171231461:758 - Auto Commit process has been completed successfully.New revision is : c7900bc
2020-04-22 17:13:12 INFO  20200422171231461:38 - AR-Debug:: Executing NORMAL EZCommit logic for autorabit.com-PmkSJi
2020-04-22 17:13:12 INFO  20200422171231461:767 - AR-Debug:: Json updated successfully.
2020-04-22 17:13:12 INFO  20200422171231461:96 - AR-Debug:: Fetching Credentials for userID:aSe3kkdDWf35X2Hw in orgName:autorabit.com-PmkSJi with accessKey:rj_bb_askme_repo
2020-04-22 17:13:12 INFO  20200422171231461:840 - Commit history updated successfully.
2020-04-22 17:13:12 INFO  20200422171231461:842 - AR-Debug::  ***********************Commit and status update is completed in*********************** : 4917
2020-04-22 17:13:12 INFO  20200422171231461:894 - Processing Committed/Uncommitted Files with revision c7900bc
2020-04-22 17:13:12 INFO  20200422171231461:86 - AR-Debug:: Submitting key is autorabit.com-PmkSJi_BBrepo1_branch3:rajashekar.j1@autorabit.com_20200422171312792
2020-04-22 17:13:12 INFO  20200422171231461:89 - AR-Debug:: Task does not exist in the queue. Putting new task into queue.autorabit.com-PmkSJi_BBrepo1_branch3:rajashekar.j1@autorabit.com_20200422171312792
2020-04-22 17:13:12 INFO  20200422171231461:90 - Task does not exist in the queue. Putting new task into queue.
2020-04-22 17:13:12 INFO  20200422171231461:119 - Submitting new task to execute method.
2020-04-22 17:13:12 INFO  20200422171231461:232 - =======createCheckoutPath process Inprogress =======
2020-04-22 17:13:12 INFO  20200422171231461:96 - AR-Debug:: Fetching Credentials for userID:aSe3kkdDWf35X2Hw in orgName:autorabit.com-PmkSJi with accessKey:rj_bb_askme_repo
2020-04-22 17:13:41 INFO  20200422171231461:85 - Listing of Committed/Uncommitted Files Started 20200422171341375
2020-04-22 17:13:41 INFO  20200422171231461:1407 - Executing custom API
2020-04-22 17:13:41 INFO  20200422171231461:1241 - Executing custom API
2020-04-22 17:13:41 INFO  20200422171231461:1246 - OrgName : autorabit.com-PmkSJiSame remote url found. Updating working copy.
2020-04-22 17:13:41 INFO  20200422171231461:1315 - Fetching remote branches.
2020-04-22 17:13:41 INFO  20200422171231461:1317 - Executing custom API
2020-04-22 17:13:41 INFO  20200422171231461:60 - Fetching origin
2020-04-22 17:13:46 INFO  20200422171231461:180 - Fetch result : 0
2020-04-22 17:13:46 INFO  20200422171231461:1269 - OrgName : autorabit.com-PmkSJiUpdating head refs
2020-04-22 17:13:46 INFO  20200422171231461:1274 - OrgName : autorabit.com-PmkSJi Executing custom API
2020-04-22 17:13:51 WARN  20200422171231461:60 - From https://bitbucket.org/rajashekarj/myrepo1
2020-04-22 17:13:51 WARN  20200422171231461:60 -  * branch            branch3    -> FETCH_HEAD
2020-04-22 17:13:51 INFO  20200422171231461:60 - Already up to date.
2020-04-22 17:13:51 INFO  20200422171231461:152 - pull result : 0
2020-04-22 17:13:51 INFO  20200422171231461:510 - OrgName : autorabit.com-PmkSJiFrom Revision : c7900bc To Revision : c7900bc
2020-04-22 17:13:51 INFO  20200422171231461:517 - OrgName : autorabit.com-PmkSJiRevision numbers are same so getting complete log and filtering.
2020-04-22 17:13:51 INFO  20200422171231461:1358 - OrgName : autorabit.com-PmkSJi Executing custom API
2020-04-22 17:13:51 INFO  20200422171231461:616 - Executing the following command : [Ljava.lang.String;@25c61825
2020-04-22 17:13:53 INFO  20200422171231461:105 - Committed/Uncommitted Files separtion started::: 20200422171353905
2020-04-22 17:13:53 INFO  20200422171231461:158 - Preparing files list for commit history, please wait...
2020-04-22 17:13:53 INFO  20200422171231461:950 - Total files exists in the revision c7900bc : 1
2020-04-22 17:13:53 INFO  20200422171231461:952 - Processing revision : c7900bc
2020-04-22 17:13:53 INFO  20200422171231461:953 - ========================Start=====================================
2020-04-22 17:13:53 INFO  20200422171231461:960 - Delta processing file : objects/Lenovo__c.object
2020-04-22 17:13:53 INFO  20200422171231461:196 - SCM URL : https://bitbucket.org/rajashekarj/myrepo1.git
2020-04-22 17:13:53 INFO  20200422171231461:727 - OrgName : autorabit.com-PmkSJi Executing custom API
2020-04-22 17:13:56 INFO  20200422171231461:60 - 2e43b0393389f83a0f998edca3ee0c7abf347461	HEAD
2020-04-22 17:13:56 INFO  20200422171231461:60 - f53a8772b0edc4a858a7523231b574c2a31711ea	refs/heads/22021Branch
2020-04-22 17:13:56 INFO  20200422171231461:60 - b32487907fe1846d95491f48a1476673a587277f	refs/heads/BBRepo1Branch1
2020-04-22 17:13:56 INFO  20200422171231461:60 - dea3bf48f9feeb3cbd2d75029e76d920dbe989e3	refs/heads/branch1
2020-04-22 17:13:56 INFO  20200422171231461:60 - fb8bba3862ace96c0bc71011c4036b932d3dbd42	refs/heads/branch2
2020-04-22 17:13:56 INFO  20200422171231461:60 - c7900bcd4012d99e7f7d3d4dd5a436a2cb8ed687	refs/heads/branch3
2020-04-22 17:13:56 INFO  20200422171231461:60 - 2e43b0393389f83a0f998edca3ee0c7abf347461	refs/heads/master
2020-04-22 17:13:56 INFO  20200422171231461:60 - ffc0137f88940932bb25244c25006d9e71427454	refs/remotes/origin/branch1
2020-04-22 17:13:56 INFO  20200422171231461:60 - 38401e07bc369a9de5fba18d1c4df6c13dc2c857	refs/remotes/origin/branch2
2020-04-22 17:13:56 INFO  20200422171231461:60 - cb23789f3627f5ced288952cda3b52f2e63743a5	refs/remotes/origin/branch3
2020-04-22 17:13:56 INFO  20200422171231461:60 - aadbf6ad6c22eeeb5ba7043b32283d6359b67edc	refs/remotes/origin/master
2020-04-22 17:13:56 INFO  20200422171231461:1358 - OrgName : autorabit.com-PmkSJi Executing custom API
2020-04-22 17:13:56 INFO  20200422171231461:616 - Executing the following command : [Ljava.lang.String;@6f664786
2020-04-22 17:13:58 INFO  20200422171231461:196 - SCM URL : https://bitbucket.org/rajashekarj/myrepo1.git
2020-04-22 17:13:58 INFO  20200422171231461:727 - OrgName : autorabit.com-PmkSJi Executing custom API
2020-04-22 17:14:01 INFO  20200422171231461:60 - 2e43b0393389f83a0f998edca3ee0c7abf347461	HEAD
2020-04-22 17:14:01 INFO  20200422171231461:60 - f53a8772b0edc4a858a7523231b574c2a31711ea	refs/heads/22021Branch
2020-04-22 17:14:01 INFO  20200422171231461:60 - b32487907fe1846d95491f48a1476673a587277f	refs/heads/BBRepo1Branch1
2020-04-22 17:14:01 INFO  20200422171231461:60 - dea3bf48f9feeb3cbd2d75029e76d920dbe989e3	refs/heads/branch1
2020-04-22 17:14:01 INFO  20200422171231461:60 - fb8bba3862ace96c0bc71011c4036b932d3dbd42	refs/heads/branch2
2020-04-22 17:14:01 INFO  20200422171231461:60 - c7900bcd4012d99e7f7d3d4dd5a436a2cb8ed687	refs/heads/branch3
2020-04-22 17:14:01 INFO  20200422171231461:60 - 2e43b0393389f83a0f998edca3ee0c7abf347461	refs/heads/master
2020-04-22 17:14:01 INFO  20200422171231461:60 - ffc0137f88940932bb25244c25006d9e71427454	refs/remotes/origin/branch1
2020-04-22 17:14:01 INFO  20200422171231461:60 - 38401e07bc369a9de5fba18d1c4df6c13dc2c857	refs/remotes/origin/branch2
2020-04-22 17:14:01 INFO  20200422171231461:60 - cb23789f3627f5ced288952cda3b52f2e63743a5	refs/remotes/origin/branch3
2020-04-22 17:14:01 INFO  20200422171231461:60 - aadbf6ad6c22eeeb5ba7043b32283d6359b67edc	refs/remotes/origin/master
2020-04-22 17:14:01 INFO  20200422171231461:1358 - OrgName : autorabit.com-PmkSJi Executing custom API
2020-04-22 17:14:01 INFO  20200422171231461:616 - Executing the following command : [Ljava.lang.String;@14a197ce
2020-04-22 17:14:04 INFO  20200422171231461:1407 - Executing custom API
2020-04-22 17:14:04 INFO  20200422171231461:1036 - Working copy already exists. Updating the working copy
2020-04-22 17:14:04 INFO  20200422171231461:1241 - Executing custom API
2020-04-22 17:14:04 INFO  20200422171231461:1246 - OrgName : autorabit.com-PmkSJiSame remote url found. Updating working copy.
2020-04-22 17:14:04 INFO  20200422171231461:1315 - Fetching remote branches.
2020-04-22 17:14:04 INFO  20200422171231461:1317 - Executing custom API
2020-04-22 17:14:04 INFO  20200422171231461:60 - Fetching origin
2020-04-22 17:14:10 INFO  20200422171231461:180 - Fetch result : 0
2020-04-22 17:14:10 INFO  20200422171231461:1269 - OrgName : autorabit.com-PmkSJiUpdating head refs
2020-04-22 17:14:10 INFO  20200422171231461:1274 - OrgName : autorabit.com-PmkSJi Executing custom API
2020-04-22 17:14:15 WARN  20200422171231461:60 - From https://bitbucket.org/rajashekarj/myrepo1
2020-04-22 17:14:15 WARN  20200422171231461:60 -  * branch            branch3    -> FETCH_HEAD
2020-04-22 17:14:15 INFO  20200422171231461:60 - Already up to date.
2020-04-22 17:14:15 INFO  20200422171231461:152 - pull result : 0
2020-04-22 17:14:15 INFO  20200422171231461:312 - Switching the revision: c7900bcd4012d99e7f7d3d4dd5a436a2cb8ed687
2020-04-22 17:14:15 INFO  20200422171231461:318 - Resetting the repository to head and switching it to specific revision.
2020-04-22 17:14:15 INFO  20200422171231461:312 - Switching the revision: a5dd74ceb903e39d0c77171d4e21ec57e988e32d
2020-04-22 17:14:15 INFO  20200422171231461:318 - Resetting the repository to head and switching it to specific revision.
2020-04-22 17:14:15 INFO  20200422171231461:990 - ========================End=====================================
2020-04-22 17:14:15 INFO  20200422171231461:1037 - All files in the revision c7900bc processed successfully.
2020-04-22 17:14:15 INFO  20200422171231461:160 - autorabit.com-PmkSJi_BBrepo1_branch3:rajashekar.j1@autorabit.com  Prepared files list for commit history. 
2020-04-22 17:14:15 INFO  20200422171231461:202 - autorabit.com-PmkSJi_BBrepo1_branch3:rajashekar.j1@autorabit.com Prepared LabelName to Save:::FiledToBranch3
2020-04-22 17:14:17 INFO  20200422171231461:210 - autorabit.com-PmkSJi_BBrepo1_branch3:rajashekar.j1@autorabit.com Label Saved Successfully ::FiledToBranch3at:20200422171417191
2020-04-22 17:14:17 INFO  20200422171231461:213 - autorabit.com-PmkSJi_BBrepo1_branch3:rajashekar.j1@autorabit.com  listing of Committed/Uncommitted Files completed 20200422171417191
