2020-04-06 14:18:09 ERROR 20200406141721036:164 - AR-Debug:: Custom EZCommit properties are not available
2020-04-06 14:18:09 INFO  20200406141721036:101 - AR-Debug:: Found sfId for sfOrgId :: 4ED79DE333E8D75C12916823BF642857 in orgName :: autorabit.com-PmkSJi
2020-04-06 14:18:09 INFO  20200406141721036:96 - AR-Debug:: Fetching Credentials for userID:aSe3kkdDWf35X2Hw in orgName:autorabit.com-PmkSJi with accessKey:rj_bb_askme_repo
2020-04-06 14:18:09 INFO  20200406141721036:173 - Creating metadata connection.
2020-04-06 14:18:09 ERROR 20200406141721036:164 - AR-Debug:: Custom EZCommit properties are not available
2020-04-06 14:18:12 INFO  20200406141721036:494 - Looking for Search and Substitute Configuration.
2020-04-06 14:18:12 INFO  20200406141721036:362 - No ALM Mapping found
2020-04-06 14:18:12 INFO  20200406141721036:268 - AR-Debug::  Saving label to commit history
2020-04-06 14:18:12 INFO  20200406141721036:96 - AR-Debug:: Fetching Credentials for userID:aSe3kkdDWf35X2Hw in orgName:autorabit.com-PmkSJi with accessKey:rj_bb_askme_repo
2020-04-06 14:18:12 INFO  20200406141721036:2773 - Pull request is not enabled for Account / Repository.
2020-04-06 14:18:12 INFO  20200406141721036:283 - Creating metadata connection. Processing the 0052v00000ay4JaAAI changes.
2020-04-06 14:18:12 INFO  20200406141721036:96 - AR-Debug:: Fetching Credentials for userID:aSe3kkdDWf35X2Hw in orgName:autorabit.com-PmkSJi with accessKey:rj_bb_askme_repo
2020-04-06 14:18:12 INFO  20200406141721036:353 - Preparing package manifest file with selected metadata members.
2020-04-06 14:18:12 INFO  20200406141721036:384 - AR-Debug::  ***********************Commit initiation to metadata retrieval start*********************** : 3370
2020-04-06 14:18:12 INFO  20200406141721036:2510 - autorabit.com-PmkSJi_BBrepo1_branch1:rajashekar.j1@autorabit.comCreating metadata connection. Processing the 0052v00000ay4JaAAI changes.
2020-04-06 14:18:12 INFO  20200406141721036:2511 - Processing the 0052v00000ay4JaAAI changes.
2020-04-06 14:18:12 INFO  20200406141721036:2515 - Deleting Retrieval directory.
2020-04-06 14:18:12 INFO  20200406141721036:2520 - Creating metadata Retrieval directory.
2020-04-06 14:18:12 INFO  20200406141721036:187 - Preparing metadata retrieval request with selected metadata members.
2020-04-06 14:18:15 INFO  20200406141721036:204 - Metadata retrieval request sent with selected metadata members. Request Id : 09S2v000007DcpPEAS
2020-04-06 14:21:48 INFO  20200406141721036:389 - AR-Debug:: Process meta data retrieval status : true
2020-04-06 14:21:48 INFO  20200406141721036:401 - AR-Debug::  ***********************Metadata retrieval completed in*********************** : 216106
2020-04-06 14:21:48 INFO  20200406141721036:417 - Creating version control connection...
2020-04-06 14:21:48 INFO  20200406141721036:196 - SCM URL : https://bitbucket.org/rajashekarj/myrepo1.git
2020-04-06 14:21:48 INFO  20200406141721036:436 - AR-Debug:: Name of the branch : branch1
2020-04-06 14:21:48 INFO  20200406141721036:439 - Configured Email: rajashekar.j1@autorabit.com
2020-04-06 14:21:48 INFO  20200406141721036:471 - Validating version control credentials.
2020-04-06 14:21:48 INFO  20200406141721036:727 - OrgName : autorabit.com-PmkSJi Executing custom API
2020-04-06 14:21:51 INFO  20200406141721036:60 - 2e43b0393389f83a0f998edca3ee0c7abf347461	HEAD
2020-04-06 14:21:51 INFO  20200406141721036:60 - f53a8772b0edc4a858a7523231b574c2a31711ea	refs/heads/22021Branch
2020-04-06 14:21:51 INFO  20200406141721036:60 - b32487907fe1846d95491f48a1476673a587277f	refs/heads/BBRepo1Branch1
2020-04-06 14:21:51 INFO  20200406141721036:60 - 2dee9caa40804097ce104f99989b89e04d61b4be	refs/heads/branch1
2020-04-06 14:21:51 INFO  20200406141721036:60 - fb8bba3862ace96c0bc71011c4036b932d3dbd42	refs/heads/branch2
2020-04-06 14:21:51 INFO  20200406141721036:60 - 57bf88b39d5a959b5a972fc536f057b05140d2df	refs/heads/branch3
2020-04-06 14:21:51 INFO  20200406141721036:60 - 2e43b0393389f83a0f998edca3ee0c7abf347461	refs/heads/master
2020-04-06 14:21:51 INFO  20200406141721036:60 - ffc0137f88940932bb25244c25006d9e71427454	refs/remotes/origin/branch1
2020-04-06 14:21:51 INFO  20200406141721036:60 - 38401e07bc369a9de5fba18d1c4df6c13dc2c857	refs/remotes/origin/branch2
2020-04-06 14:21:51 INFO  20200406141721036:60 - cb23789f3627f5ced288952cda3b52f2e63743a5	refs/remotes/origin/branch3
2020-04-06 14:21:51 INFO  20200406141721036:60 - aadbf6ad6c22eeeb5ba7043b32283d6359b67edc	refs/remotes/origin/master
2020-04-06 14:21:51 INFO  20200406141721036:1358 - OrgName : autorabit.com-PmkSJi Executing custom API
2020-04-06 14:21:51 INFO  20200406141721036:607 - Executing the following command : [Ljava.lang.String;@609cb91c
2020-04-06 14:21:54 INFO  20200406141721036:196 - SCM URL : https://bitbucket.org/rajashekarj/myrepo1.git
2020-04-06 14:21:54 INFO  20200406141721036:727 - OrgName : autorabit.com-PmkSJi Executing custom API
2020-04-06 14:21:56 INFO  20200406141721036:60 - 2e43b0393389f83a0f998edca3ee0c7abf347461	HEAD
2020-04-06 14:21:56 INFO  20200406141721036:60 - f53a8772b0edc4a858a7523231b574c2a31711ea	refs/heads/22021Branch
2020-04-06 14:21:56 INFO  20200406141721036:60 - b32487907fe1846d95491f48a1476673a587277f	refs/heads/BBRepo1Branch1
2020-04-06 14:21:56 INFO  20200406141721036:60 - 2dee9caa40804097ce104f99989b89e04d61b4be	refs/heads/branch1
2020-04-06 14:21:56 INFO  20200406141721036:60 - fb8bba3862ace96c0bc71011c4036b932d3dbd42	refs/heads/branch2
2020-04-06 14:21:56 INFO  20200406141721036:60 - 57bf88b39d5a959b5a972fc536f057b05140d2df	refs/heads/branch3
2020-04-06 14:21:56 INFO  20200406141721036:60 - 2e43b0393389f83a0f998edca3ee0c7abf347461	refs/heads/master
2020-04-06 14:21:56 INFO  20200406141721036:60 - ffc0137f88940932bb25244c25006d9e71427454	refs/remotes/origin/branch1
2020-04-06 14:21:56 INFO  20200406141721036:60 - 38401e07bc369a9de5fba18d1c4df6c13dc2c857	refs/remotes/origin/branch2
2020-04-06 14:21:56 INFO  20200406141721036:60 - cb23789f3627f5ced288952cda3b52f2e63743a5	refs/remotes/origin/branch3
2020-04-06 14:21:56 INFO  20200406141721036:60 - aadbf6ad6c22eeeb5ba7043b32283d6359b67edc	refs/remotes/origin/master
2020-04-06 14:21:56 INFO  20200406141721036:1358 - OrgName : autorabit.com-PmkSJi Executing custom API
2020-04-06 14:21:56 INFO  20200406141721036:607 - Executing the following command : [Ljava.lang.String;@6dadfb4f
2020-04-06 14:21:58 INFO  20200406141721036:1407 - Executing custom API
2020-04-06 14:21:58 INFO  20200406141721036:1036 - Working copy already exists. Updating the working copy
2020-04-06 14:21:58 INFO  20200406141721036:1241 - Executing custom API
2020-04-06 14:21:58 INFO  20200406141721036:1246 - OrgName : autorabit.com-PmkSJiSame remote url found. Updating working copy.
2020-04-06 14:21:58 INFO  20200406141721036:1315 - Fetching remote branches.
2020-04-06 14:21:58 INFO  20200406141721036:1317 - Executing custom API
2020-04-06 14:21:58 INFO  20200406141721036:60 - Fetching origin
2020-04-06 14:22:02 INFO  20200406141721036:180 - Fetch result : 0
2020-04-06 14:22:02 INFO  20200406141721036:1269 - OrgName : autorabit.com-PmkSJiUpdating head refs
2020-04-06 14:22:02 INFO  20200406141721036:1274 - OrgName : autorabit.com-PmkSJi Executing custom API
2020-04-06 14:22:08 WARN  20200406141721036:60 - From https://bitbucket.org/rajashekarj/myrepo1
2020-04-06 14:22:08 WARN  20200406141721036:60 -  * branch            branch1    -> FETCH_HEAD
2020-04-06 14:22:08 INFO  20200406141721036:60 - Already up to date.
2020-04-06 14:22:08 INFO  20200406141721036:152 - pull result : 0
2020-04-06 14:22:08 INFO  20200406141721036:1407 - Executing custom API
2020-04-06 14:22:08 INFO  20200406141721036:489 - AR-Debug::  ***********************Checkout is completed in*********************** : 19487
2020-04-06 14:22:08 INFO  20200406141721036:1470 - AR-Debug:: File path to edit : D:\filesystem\193\rabit\.rabit\org\autorabit.com-PmkSJi\scm\ezcommit\20191030162343577\BBrepo1_branch1\package.xml
2020-04-06 14:22:08 INFO  20200406141721036:1470 - AR-Debug:: File path to edit : D:\filesystem\193\rabit\.rabit\org\autorabit.com-PmkSJi\scm\ezcommit\20191030162343577\BBrepo1_branch1\reports\INReport-meta.xml
2020-04-06 14:22:08 INFO  20200406141721036:546 - Retrieved files count : 2
2020-04-06 14:22:08 INFO  20200406141721036:555 - Appending retrieved metadata to SCM working copy.
2020-04-06 14:22:09 INFO  20200406141721036:574 - AR-Debug::  ***********************Appending is completed in*********************** : 574
2020-04-06 14:22:09 INFO  20200406141721036:639 - AR-Debug::  ***********************Profile refactor is completed in*********************** : 0
2020-04-06 14:22:09 INFO  20200406141721036:698 - AR-Debug::  ***********************Deletion is completed in*********************** : 0
2020-04-06 14:22:09 INFO  20200406141721036:739 - Adding new files
2020-04-06 14:22:09 INFO  20200406141721036:227 - [D:\filesystem\193\rabit\.rabit\org\autorabit.com-PmkSJi\scm\ezcommit\20191030162343577\BBrepo1_branch1\package.xml, D:\filesystem\193\rabit\.rabit\org\autorabit.com-PmkSJi\scm\ezcommit\20191030162343577\BBrepo1_branch1\reports\INReport-meta.xml]
2020-04-06 14:22:12 INFO  20200406141721036:742 - Committing changes to repository
2020-04-06 14:22:12 INFO  20200406141721036:227 - [D:\filesystem\193\rabit\.rabit\org\autorabit.com-PmkSJi\scm\ezcommit\20191030162343577\BBrepo1_branch1\package.xml, D:\filesystem\193\rabit\.rabit\org\autorabit.com-PmkSJi\scm\ezcommit\20191030162343577\BBrepo1_branch1\reports\INReport-meta.xml]
2020-04-06 14:22:12 INFO  20200406141721036:416 - <font color='blue'>There are no local modifications to commit.</font>
2020-04-06 14:22:12 INFO  20200406141721036:745 - Committed 0052v00000ay4JaAAI changes to repository
2020-04-06 14:22:12 INFO  20200406141721036:748 - Setting From revision 
2020-04-06 14:22:12 INFO  20200406141721036:750 - Commit Process has been completed successfully.
2020-04-06 14:22:12 INFO  20200406141721036:752 - There are no modifications to commit.
2020-04-06 14:22:12 INFO  20200406141721036:839 - AR-Debug::  ***********************Commit and status update is completed in*********************** : 3307
