2020-04-06 13:57:02 INFO  1586161619013_586:251 - Preparing source org package manifest was started
2020-04-06 13:57:02 INFO  1586161619013_586:348 - Preparing source org package manifest was completed
2020-04-06 13:57:02 INFO  1586161619013_586:227 - Metadata retrieve request received for user name : rajashekar.j1@autorabit.com, destination org : RJ_SF_AR_BB, label name :kjsjdfkl
2020-04-06 13:57:02 INFO  1586161619013_586:235 - Source org package manifest has been prepared.
2020-04-06 13:57:02 INFO  1586161619013_586:416 - Preparing metada retrieve request for user name : rajashekar.j1@autorabit.com, destination org : RJ_SF_AR_BB,label name :kjsjdfkl
2020-04-06 13:57:11 INFO  1586161619013_586:199 - Retrieving destination org metadata was started.
2020-04-06 13:57:26 INFO  1586161619013_586:209 - Destination org metadata retrieval status: Successful
2020-04-06 13:57:26 INFO  1586161619013_586:212 - Retrieving destination org metadata was completed.
2020-04-06 13:57:28 INFO  1586161619013_586:613 - Comparing metadata type: Report
2020-04-06 13:57:28 INFO  1586161619013_586:731 - Compared metadata type: Report
2020-04-06 13:57:28 INFO  1586161619013_586:754 - Metadata comparison between source and destination orgs has been completed successfully.
