2020-04-10 08:53:46 INFO  1586488997688_201:342 - Package manifest on scm preparation started
2020-04-10 08:54:11 INFO  1586488997688_201:407 - Retrieving data from scm was started.
2020-04-10 08:54:26 INFO  1586488997688_201:196 - SCM URL : https://bitbucket.org/bitbucketrenuka/renuka-repo.git
2020-04-10 08:54:26 INFO  1586488997688_201:727 - OrgName : autorabit.com-PmkSJi Executing custom API
2020-04-10 08:54:29 INFO  1586488997688_201:60 - 20042c280a63607b627a45d2f5b1eec701756abe	HEAD
2020-04-10 08:54:29 INFO  1586488997688_201:60 - 60de9c2f0d89310e94a56254319d842b7525b729	refs/heads/ABC
2020-04-10 08:54:29 INFO  1586488997688_201:60 - 2d7f04a1f611120feb06c65c9e4a34626b99a856	refs/heads/Branch1
2020-04-10 08:54:29 INFO  1586488997688_201:60 - 2d417d8db8a0e1c90bbb8626647dff41589e4b1f	refs/heads/Branch2
2020-04-10 08:54:30 INFO  1586488997688_201:60 - 22a0e074309a53b38a6c4ad85f6f028192e7b284	refs/heads/Branch3
2020-04-10 08:54:30 INFO  1586488997688_201:60 - 9e03bf29e46d2776748b77fe864481990bef846e	refs/heads/Testbranch
2020-04-10 08:54:30 INFO  1586488997688_201:60 - f3f7c14b094461cef2f0016059f5b01f7671eb95	refs/heads/devclone
2020-04-10 08:54:30 INFO  1586488997688_201:60 - a50aa1764f2fb11c91c12b436c9f3ad25b11a4f1	refs/heads/development
2020-04-10 08:54:30 INFO  1586488997688_201:60 - 20042c280a63607b627a45d2f5b1eec701756abe	refs/heads/master
2020-04-10 08:54:30 INFO  1586488997688_201:60 - d0451764eceb802bdc53ac4fcb7ff96618f79e11	refs/remotes/origin/ABC
2020-04-10 08:54:30 INFO  1586488997688_201:60 - 0c2851c31ff0eee6e376ad76b22530917f6a0e73	refs/remotes/origin/Branch1
2020-04-10 08:54:30 INFO  1586488997688_201:60 - 7ff810fa60f95c3cfe16bd42324b99d87aeaa3f9	refs/remotes/origin/Branch2
2020-04-10 08:54:30 INFO  1586488997688_201:60 - c1d1ee5be7093496f44439f46944dd8a8a5a314d	refs/remotes/origin/Branch3
2020-04-10 08:54:30 INFO  1586488997688_201:60 - 5e6996714d00d938085a6eeb839a87288f06fcb5	refs/remotes/origin/Testbranch
2020-04-10 08:54:30 INFO  1586488997688_201:60 - 68fa3d17b009cef1d8e8dabbef5ca3d6b289e33a	refs/remotes/origin/devclone
2020-04-10 08:54:31 INFO  1586488997688_201:60 - 9c51360171e3700477bade584dc3a178e749f9e2	refs/remotes/origin/development
2020-04-10 08:54:31 INFO  1586488997688_201:60 - 70dad6490b2c0a61b4442e542520a88660cb1fbd	refs/remotes/origin/master
2020-04-10 08:54:31 INFO  1586488997688_201:1358 - OrgName : autorabit.com-PmkSJi Executing custom API
2020-04-10 08:54:31 INFO  1586488997688_201:617 - Executing the following command : [Ljava.lang.String;@61305072
2020-04-10 08:54:34 INFO  1586488997688_201:511 - Started the checkout.
2020-04-10 08:54:34 INFO  1586488997688_201:513 - AR-Debug::  Checkout start time: Fri Apr 10 08:54:34 IST 2020
2020-04-10 08:54:34 INFO  1586488997688_201:196 - SCM URL : https://bitbucket.org/bitbucketrenuka/renuka-repo.git
2020-04-10 08:54:34 INFO  1586488997688_201:727 - OrgName : autorabit.com-PmkSJi Executing custom API
2020-04-10 08:54:36 INFO  1586488997688_201:60 - 20042c280a63607b627a45d2f5b1eec701756abe	HEAD
2020-04-10 08:54:36 INFO  1586488997688_201:60 - 60de9c2f0d89310e94a56254319d842b7525b729	refs/heads/ABC
2020-04-10 08:54:36 INFO  1586488997688_201:60 - 2d7f04a1f611120feb06c65c9e4a34626b99a856	refs/heads/Branch1
2020-04-10 08:54:36 INFO  1586488997688_201:60 - 2d417d8db8a0e1c90bbb8626647dff41589e4b1f	refs/heads/Branch2
2020-04-10 08:54:36 INFO  1586488997688_201:60 - 22a0e074309a53b38a6c4ad85f6f028192e7b284	refs/heads/Branch3
2020-04-10 08:54:36 INFO  1586488997688_201:60 - 9e03bf29e46d2776748b77fe864481990bef846e	refs/heads/Testbranch
2020-04-10 08:54:36 INFO  1586488997688_201:60 - f3f7c14b094461cef2f0016059f5b01f7671eb95	refs/heads/devclone
2020-04-10 08:54:36 INFO  1586488997688_201:60 - a50aa1764f2fb11c91c12b436c9f3ad25b11a4f1	refs/heads/development
2020-04-10 08:54:36 INFO  1586488997688_201:60 - 20042c280a63607b627a45d2f5b1eec701756abe	refs/heads/master
2020-04-10 08:54:36 INFO  1586488997688_201:60 - d0451764eceb802bdc53ac4fcb7ff96618f79e11	refs/remotes/origin/ABC
2020-04-10 08:54:36 INFO  1586488997688_201:60 - 0c2851c31ff0eee6e376ad76b22530917f6a0e73	refs/remotes/origin/Branch1
2020-04-10 08:54:36 INFO  1586488997688_201:60 - 7ff810fa60f95c3cfe16bd42324b99d87aeaa3f9	refs/remotes/origin/Branch2
2020-04-10 08:54:36 INFO  1586488997688_201:60 - c1d1ee5be7093496f44439f46944dd8a8a5a314d	refs/remotes/origin/Branch3
2020-04-10 08:54:36 INFO  1586488997688_201:60 - 5e6996714d00d938085a6eeb839a87288f06fcb5	refs/remotes/origin/Testbranch
2020-04-10 08:54:36 INFO  1586488997688_201:60 - 68fa3d17b009cef1d8e8dabbef5ca3d6b289e33a	refs/remotes/origin/devclone
2020-04-10 08:54:36 INFO  1586488997688_201:60 - 9c51360171e3700477bade584dc3a178e749f9e2	refs/remotes/origin/development
2020-04-10 08:54:36 INFO  1586488997688_201:60 - 70dad6490b2c0a61b4442e542520a88660cb1fbd	refs/remotes/origin/master
2020-04-10 08:54:36 INFO  1586488997688_201:1358 - OrgName : autorabit.com-PmkSJi Executing custom API
2020-04-10 08:54:36 INFO  1586488997688_201:617 - Executing the following command : [Ljava.lang.String;@a5c7e35
2020-04-10 08:54:39 INFO  1586488997688_201:1407 - Executing custom API
2020-04-10 08:54:39 INFO  1586488997688_201:1000 - AR-Debug::  Checkout dir deletion started.
2020-04-10 08:54:39 INFO  1586488997688_201:1002 - AR-Debug::  Checkout dir deletion completed.
2020-04-10 08:54:39 INFO  1586488997688_201:1004 - AR-Debug::  Master checkout started copying.
2020-04-10 08:54:39 INFO  1586488997688_201:1006 - AR-Debug::  Master checkout successfully completed.
2020-04-10 08:54:39 INFO  1586488997688_201:1407 - Executing custom API
2020-04-10 08:54:39 INFO  1586488997688_201:1241 - Executing custom API
2020-04-10 08:54:39 INFO  1586488997688_201:1246 - OrgName : autorabit.com-PmkSJiSame remote url found. Updating working copy.
2020-04-10 08:54:39 INFO  1586488997688_201:1315 - Fetching remote branches.
2020-04-10 08:54:39 INFO  1586488997688_201:1317 - Executing custom API
2020-04-10 08:54:39 INFO  1586488997688_201:60 - Fetching origin
2020-04-10 08:54:41 INFO  1586488997688_201:180 - Fetch result : 0
2020-04-10 08:54:41 INFO  1586488997688_201:1269 - OrgName : autorabit.com-PmkSJiUpdating head refs
2020-04-10 08:54:42 INFO  1586488997688_201:1274 - OrgName : autorabit.com-PmkSJi Executing custom API
2020-04-10 08:54:45 WARN  1586488997688_201:60 - From https://bitbucket.org/bitbucketrenuka/renuka-repo
2020-04-10 08:54:45 WARN  1586488997688_201:60 -  * branch            master     -> FETCH_HEAD
2020-04-10 08:54:45 INFO  1586488997688_201:60 - Already up to date.
2020-04-10 08:54:45 INFO  1586488997688_201:152 - pull result : 0
2020-04-10 08:54:45 INFO  1586488997688_201:1013 - AR-Debug::  Checkout to specific revision started.
2020-04-10 08:54:45 INFO  1586488997688_201:312 - Switching the revision: Branch1
2020-04-10 08:54:46 INFO  1586488997688_201:324 - Orgname : autorabit.com-PmkSJiCheckout Revision is : AbbreviatedObjectId[20042c2]
2020-04-10 08:54:46 INFO  1586488997688_201:1017 - AR-Debug::  Checkout to specific revision completed.
2020-04-10 08:54:46 INFO  1586488997688_201:1407 - Executing custom API
2020-04-10 08:54:46 INFO  1586488997688_201:1036 - Working copy already exists. Updating the working copy
2020-04-10 08:54:46 INFO  1586488997688_201:1241 - Executing custom API
2020-04-10 08:54:46 INFO  1586488997688_201:1246 - OrgName : autorabit.com-PmkSJiSame remote url found. Updating working copy.
2020-04-10 08:54:46 INFO  1586488997688_201:1315 - Fetching remote branches.
2020-04-10 08:54:46 INFO  1586488997688_201:1317 - Executing custom API
2020-04-10 08:54:46 INFO  1586488997688_201:60 - Fetching origin
2020-04-10 08:54:49 INFO  1586488997688_201:180 - Fetch result : 0
2020-04-10 08:54:49 INFO  1586488997688_201:1269 - OrgName : autorabit.com-PmkSJiUpdating head refs
2020-04-10 08:54:54 INFO  1586488997688_201:1274 - OrgName : autorabit.com-PmkSJi Executing custom API
2020-04-10 08:54:57 WARN  1586488997688_201:60 - From https://bitbucket.org/bitbucketrenuka/renuka-repo
2020-04-10 08:54:57 WARN  1586488997688_201:60 -  * branch            Branch1    -> FETCH_HEAD
2020-04-10 08:54:57 INFO  1586488997688_201:60 - Already up to date.
2020-04-10 08:54:57 INFO  1586488997688_201:152 - pull result : 0
2020-04-10 08:54:57 INFO  1586488997688_201:517 - AR-Debug::  Checkout end time: Fri Apr 10 08:54:57 IST 2020
2020-04-10 08:54:57 INFO  1586488997688_201:518 - Total checkout time in sec: 23
2020-04-10 08:54:57 INFO  1586488997688_201:523 - Checkout process has been completed.
2020-04-10 08:54:57 INFO  1586488997688_201:536 - Generating the change list.
2020-04-10 08:54:57 INFO  1586488997688_201:510 - OrgName : autorabit.com-PmkSJiFrom Revision : 0c2851c To Revision : 0c2851c
2020-04-10 08:54:57 INFO  1586488997688_201:517 - OrgName : autorabit.com-PmkSJiRevision numbers are same so getting complete log and filtering.
2020-04-10 08:54:57 INFO  1586488997688_201:1358 - OrgName : autorabit.com-PmkSJi Executing custom API
2020-04-10 08:54:57 INFO  1586488997688_201:617 - Executing the following command : [Ljava.lang.String;@71ba2471
2020-04-10 08:55:00 INFO  1586488997688_201:3420 - SCM log generated for processing changes.
2020-04-10 08:55:00 INFO  1586488997688_201:538 - Generated the change list.
2020-04-10 08:55:00 INFO  1586488997688_201:540 - AR-Debug::  Total change list preparation time: 2
2020-04-10 08:55:00 INFO  1586488997688_201:541 - Switching to revision 0c2851c
2020-04-10 08:55:00 INFO  1586488997688_201:312 - Switching the revision: 0c2851c
2020-04-10 08:55:00 INFO  1586488997688_201:318 - Resetting the repository to head and switching it to specific revision.
2020-04-10 08:55:04 INFO  1586488997688_201:543 - Switched to revision 0c2851c
2020-04-10 08:55:04 INFO  1586488997688_201:2811 - Copying files to custom deploy
2020-04-10 08:55:04 INFO  1586488997688_201:2819 - AR-Debug::  package filename: objects/Track__c.object
2020-04-10 08:55:04 INFO  1586488997688_201:2821 - AR-Debug::  package cpFile: D:\filesystem\193\rabit\.rabit\org\autorabit.com-PmkSJi\metadatatemp\rajashekar.j1@autorabit.com\s4\source\checkout\objects\Track__c.object
2020-04-10 08:55:04 INFO  1586488997688_201:312 - Switching the revision: 3524b5e0f63f1ffdc27d64b04dd62598053af9f8
2020-04-10 08:55:04 INFO  1586488997688_201:318 - Resetting the repository to head and switching it to specific revision.
2020-04-10 08:55:06 INFO  1586488997688_201:693 - Changed files count : 1
2020-04-10 08:55:10 INFO  1586488997688_201:779 - Destructive Members count : 2
2020-04-10 08:55:10 INFO  1586488997688_201:781 - Adding 0 CustomField for destructive
2020-04-10 08:55:10 INFO  1586488997688_201:781 - Adding 0 ListView for destructive
2020-04-10 08:55:11 INFO  1586488997688_201:572 - Destructive members : 2
2020-04-10 08:55:11 INFO  1586488997688_201:550 - Package manifest prepared successfully.
2020-04-10 08:56:17 INFO  1586488997688_201:196 - SCM URL : https://bitbucket.org/bitbucketrenuka/renuka-repo.git
2020-04-10 08:56:28 INFO  1586488997688_201:727 - OrgName : autorabit.com-PmkSJi Executing custom API
2020-04-10 08:56:31 INFO  1586488997688_201:60 - 20042c280a63607b627a45d2f5b1eec701756abe	HEAD
2020-04-10 08:56:31 INFO  1586488997688_201:60 - 60de9c2f0d89310e94a56254319d842b7525b729	refs/heads/ABC
2020-04-10 08:56:31 INFO  1586488997688_201:60 - 2d7f04a1f611120feb06c65c9e4a34626b99a856	refs/heads/Branch1
2020-04-10 08:56:31 INFO  1586488997688_201:60 - 2d417d8db8a0e1c90bbb8626647dff41589e4b1f	refs/heads/Branch2
2020-04-10 08:56:31 INFO  1586488997688_201:60 - 22a0e074309a53b38a6c4ad85f6f028192e7b284	refs/heads/Branch3
2020-04-10 08:56:31 INFO  1586488997688_201:60 - 9e03bf29e46d2776748b77fe864481990bef846e	refs/heads/Testbranch
2020-04-10 08:56:31 INFO  1586488997688_201:60 - f3f7c14b094461cef2f0016059f5b01f7671eb95	refs/heads/devclone
2020-04-10 08:56:31 INFO  1586488997688_201:60 - a50aa1764f2fb11c91c12b436c9f3ad25b11a4f1	refs/heads/development
2020-04-10 08:56:31 INFO  1586488997688_201:60 - 20042c280a63607b627a45d2f5b1eec701756abe	refs/heads/master
2020-04-10 08:56:31 INFO  1586488997688_201:60 - d0451764eceb802bdc53ac4fcb7ff96618f79e11	refs/remotes/origin/ABC
2020-04-10 08:56:31 INFO  1586488997688_201:60 - 0c2851c31ff0eee6e376ad76b22530917f6a0e73	refs/remotes/origin/Branch1
2020-04-10 08:56:31 INFO  1586488997688_201:60 - 7ff810fa60f95c3cfe16bd42324b99d87aeaa3f9	refs/remotes/origin/Branch2
2020-04-10 08:56:31 INFO  1586488997688_201:60 - c1d1ee5be7093496f44439f46944dd8a8a5a314d	refs/remotes/origin/Branch3
2020-04-10 08:56:31 INFO  1586488997688_201:60 - 5e6996714d00d938085a6eeb839a87288f06fcb5	refs/remotes/origin/Testbranch
2020-04-10 08:56:31 INFO  1586488997688_201:60 - 68fa3d17b009cef1d8e8dabbef5ca3d6b289e33a	refs/remotes/origin/devclone
2020-04-10 08:56:31 INFO  1586488997688_201:60 - 9c51360171e3700477bade584dc3a178e749f9e2	refs/remotes/origin/development
2020-04-10 08:56:31 INFO  1586488997688_201:60 - 70dad6490b2c0a61b4442e542520a88660cb1fbd	refs/remotes/origin/master
2020-04-10 08:56:31 INFO  1586488997688_201:1358 - OrgName : autorabit.com-PmkSJi Executing custom API
2020-04-10 08:56:31 INFO  1586488997688_201:617 - Executing the following command : [Ljava.lang.String;@28d88069
2020-04-10 08:56:34 INFO  1586488997688_201:511 - Started the checkout.
2020-04-10 08:56:34 INFO  1586488997688_201:513 - AR-Debug::  Checkout start time: Fri Apr 10 08:56:34 IST 2020
2020-04-10 08:56:34 INFO  1586488997688_201:196 - SCM URL : https://bitbucket.org/bitbucketrenuka/renuka-repo.git
2020-04-10 08:56:34 INFO  1586488997688_201:727 - OrgName : autorabit.com-PmkSJi Executing custom API
2020-04-10 08:56:36 INFO  1586488997688_201:60 - 20042c280a63607b627a45d2f5b1eec701756abe	HEAD
2020-04-10 08:56:36 INFO  1586488997688_201:60 - 60de9c2f0d89310e94a56254319d842b7525b729	refs/heads/ABC
2020-04-10 08:56:36 INFO  1586488997688_201:60 - 2d7f04a1f611120feb06c65c9e4a34626b99a856	refs/heads/Branch1
2020-04-10 08:56:36 INFO  1586488997688_201:60 - 2d417d8db8a0e1c90bbb8626647dff41589e4b1f	refs/heads/Branch2
2020-04-10 08:56:36 INFO  1586488997688_201:60 - 22a0e074309a53b38a6c4ad85f6f028192e7b284	refs/heads/Branch3
2020-04-10 08:56:36 INFO  1586488997688_201:60 - 9e03bf29e46d2776748b77fe864481990bef846e	refs/heads/Testbranch
2020-04-10 08:56:36 INFO  1586488997688_201:60 - f3f7c14b094461cef2f0016059f5b01f7671eb95	refs/heads/devclone
2020-04-10 08:56:36 INFO  1586488997688_201:60 - a50aa1764f2fb11c91c12b436c9f3ad25b11a4f1	refs/heads/development
2020-04-10 08:56:36 INFO  1586488997688_201:60 - 20042c280a63607b627a45d2f5b1eec701756abe	refs/heads/master
2020-04-10 08:56:36 INFO  1586488997688_201:60 - d0451764eceb802bdc53ac4fcb7ff96618f79e11	refs/remotes/origin/ABC
2020-04-10 08:56:36 INFO  1586488997688_201:60 - 0c2851c31ff0eee6e376ad76b22530917f6a0e73	refs/remotes/origin/Branch1
2020-04-10 08:56:36 INFO  1586488997688_201:60 - 7ff810fa60f95c3cfe16bd42324b99d87aeaa3f9	refs/remotes/origin/Branch2
2020-04-10 08:56:36 INFO  1586488997688_201:60 - c1d1ee5be7093496f44439f46944dd8a8a5a314d	refs/remotes/origin/Branch3
2020-04-10 08:56:36 INFO  1586488997688_201:60 - 5e6996714d00d938085a6eeb839a87288f06fcb5	refs/remotes/origin/Testbranch
2020-04-10 08:56:36 INFO  1586488997688_201:60 - 68fa3d17b009cef1d8e8dabbef5ca3d6b289e33a	refs/remotes/origin/devclone
2020-04-10 08:56:36 INFO  1586488997688_201:60 - 9c51360171e3700477bade584dc3a178e749f9e2	refs/remotes/origin/development
2020-04-10 08:56:36 INFO  1586488997688_201:60 - 70dad6490b2c0a61b4442e542520a88660cb1fbd	refs/remotes/origin/master
2020-04-10 08:56:36 INFO  1586488997688_201:1358 - OrgName : autorabit.com-PmkSJi Executing custom API
2020-04-10 08:56:36 INFO  1586488997688_201:617 - Executing the following command : [Ljava.lang.String;@3d30f152
2020-04-10 08:56:38 INFO  1586488997688_201:1407 - Executing custom API
2020-04-10 08:56:38 INFO  1586488997688_201:1000 - AR-Debug::  Checkout dir deletion started.
2020-04-10 08:56:38 INFO  1586488997688_201:1002 - AR-Debug::  Checkout dir deletion completed.
2020-04-10 08:56:38 INFO  1586488997688_201:1004 - AR-Debug::  Master checkout started copying.
2020-04-10 08:56:38 INFO  1586488997688_201:1042 - Working copy not exists. Taking checkout
2020-04-10 08:56:38 INFO  1586488997688_201:1071 - Cloning the target branch.
2020-04-10 08:56:38 INFO  1586488997688_201:1080 - OrgName : autorabit.com-PmkSJi Executing custom API
2020-04-10 08:56:38 WARN  1586488997688_201:60 - fatal: could not create work tree dir 'D:\filesystem\193\rabit\.rabit\org\autorabit.com-PmkSJi\metadatatemp\rajashekar.j1@autorabit.com\s4\source\checkout': Permission denied
2020-04-10 08:56:38 INFO  1586488997688_201:214 - clone result : 128
2020-04-10 08:56:38 ERROR 1586488997688_201:1084 - Clone operation is failed due to some runtime exceptions from Git
2020-04-10 08:56:38 ERROR 1586488997688_201:1129 - <font color='red'> : 'Clone operation is failed due to some runtime exceptions from Git'. Stackstrace : 'com.rabit.service.ws.exception.RabitServicesException: Clone operation is failed due to some runtime exceptions from Git'</font>
2020-04-10 08:57:38 INFO  1586488997688_201:1071 - Cloning the target branch.
2020-04-10 08:57:38 INFO  1586488997688_201:1080 - OrgName : autorabit.com-PmkSJi Executing custom API
2020-04-10 08:57:38 WARN  1586488997688_201:60 - fatal: could not create work tree dir 'D:\filesystem\193\rabit\.rabit\org\autorabit.com-PmkSJi\metadatatemp\rajashekar.j1@autorabit.com\s4\source\checkout': Permission denied
2020-04-10 08:57:38 INFO  1586488997688_201:214 - clone result : 128
2020-04-10 08:57:38 ERROR 1586488997688_201:1084 - Clone operation is failed due to some runtime exceptions from Git
2020-04-10 08:57:38 ERROR 1586488997688_201:1129 - <font color='red'> : 'Clone operation is failed due to some runtime exceptions from Git'. Stackstrace : 'com.rabit.service.ws.exception.RabitServicesException: Clone operation is failed due to some runtime exceptions from Git'</font>
2020-04-10 08:57:38 ERROR 1586488997688_201:1136 - <font color='red'> : 'Clone operation is failed due to some runtime exceptions from Git'. Stackstrace : 'com.rabit.service.ws.exception.RabitServicesException: Clone operation is failed due to some runtime exceptions from Git'</font>
2020-04-10 08:58:56 INFO  1586488997688_201:417 - Retrieving data from scm completed.
