2020-02-25 20:50:00 INFO  delete_395752ea-e751-450a-dbe5-b67f710b1f27_669:1302 - Updating password in process bean for the process : Deleting PriceBookEntries
2020-02-25 20:50:00 INFO  delete_395752ea-e751-450a-dbe5-b67f710b1f27_669:1339 -  executing <font color='blue'>delete </font> operation
2020-02-25 20:50:00 INFO  delete_395752ea-e751-450a-dbe5-b67f710b1f27_669:1340 -  Selected Object Name: <font color='blue'>PricebookEntry </font>
2020-02-25 20:50:17 INFO  delete_395752ea-e751-450a-dbe5-b67f710b1f27_669:1473 - Dataloader process completed on object:PricebookEntry
2020-02-25 20:50:17 INFO  delete_395752ea-e751-450a-dbe5-b67f710b1f27_669:1555 - Success: 0 Errors: 51
2020-02-25 20:50:17 INFO  delete_395752ea-e751-450a-dbe5-b67f710b1f27_669:1558 -  process execution completed.
