2020.01.16.16.20.30--Updated build properties.
2020.01.16.16.20.30--Starting the Build Process
2020.01.16.17.09.11--AR-Debug:: in CIJObHandler>abort , thread name to kill : 0BUILD_autorabit.com-PmkSJi_ASDAFDas_2
