2020-02-25 16:49:37 INFO  82f7359b-d24c-4b41-fcc5-0d76a7356b89_171:1446 - Getting related records and dependenices with selected crieteria
2020-02-25 16:52:31 ERROR 82f7359b-d24c-4b41-fcc5-0d76a7356b89_171:1213 - The file can't be loaded.
com.rabit.service.ws.exception.RabitServicesException: The file can't be loaded.
	at com.rabit.salesforce.oauth.GetOauthLoginFromSf.getAccessTokenFromRefreshToken(GetOauthLoginFromSf.java:375)
	at com.rabit.salesforce.connection.SalesforceConnectionUtill.getPartnerConnection(SalesforceConnectionUtill.java:178)
	at com.rabit.deployment.sf.dataloader.DataLoaderProConfig.getAllSFObjects(DataLoaderProConfig.java:293)
	at com.rabit.deployment.sf.dataloader.DataLoaderProConfig.getSfObjects(DataLoaderProConfig.java:264)
	at com.rabit.deployment.sf.dataloader.DataLoaderProConfig.startProcessExecution(DataLoaderProConfig.java:1462)
	at com.rabit.deployment.sf.dataloader.DataLoaderProConfig.runProcess(DataLoaderProConfig.java:1197)
	at com.rabit.service.ws.RabitServices.runDataloaderProProcess(RabitServices.java:4439)
	at java.base/jdk.internal.reflect.NativeMethodAccessorImpl.invoke0(Native Method)
	at java.base/jdk.internal.reflect.NativeMethodAccessorImpl.invoke(NativeMethodAccessorImpl.java:62)
	at java.base/jdk.internal.reflect.DelegatingMethodAccessorImpl.invoke(DelegatingMethodAccessorImpl.java:43)
	at java.base/java.lang.reflect.Method.invoke(Method.java:566)
	at com.sun.xml.ws.util.Trampoline.invoke(MethodUtil.java:52)
	at jdk.internal.reflect.GeneratedMethodAccessor2354.invoke(Unknown Source)
	at java.base/jdk.internal.reflect.DelegatingMethodAccessorImpl.invoke(DelegatingMethodAccessorImpl.java:43)
	at java.base/java.lang.reflect.Method.invoke(Method.java:566)
	at com.sun.xml.ws.util.MethodUtil.invoke(MethodUtil.java:77)
	at com.sun.xml.ws.api.server.MethodUtil.invoke(MethodUtil.java:34)
	at com.sun.xml.ws.api.server.InstanceResolver$1.invoke(InstanceResolver.java:220)
	at com.sun.xml.ws.server.InvokerTube$2.invoke(InvokerTube.java:119)
	at com.sun.xml.ws.server.sei.SEIInvokerTube.processRequest(SEIInvokerTube.java:58)
	at com.sun.xml.ws.api.pipe.Fiber.__doRun(Fiber.java:1106)
	at com.sun.xml.ws.api.pipe.Fiber._doRun(Fiber.java:1020)
	at com.sun.xml.ws.api.pipe.Fiber.doRun(Fiber.java:989)
	at com.sun.xml.ws.api.pipe.Fiber.runSync(Fiber.java:847)
	at com.sun.xml.ws.server.WSEndpointImpl$2.process(WSEndpointImpl.java:389)
	at com.sun.xml.ws.transport.http.HttpAdapter$HttpToolkit.handle(HttpAdapter.java:838)
	at com.sun.xml.ws.transport.http.HttpAdapter.handle(HttpAdapter.java:392)
	at com.sun.xml.ws.transport.http.servlet.ServletAdapter.invokeAsync(ServletAdapter.java:195)
	at com.sun.xml.ws.transport.http.servlet.WSServletDelegate.doGet(WSServletDelegate.java:131)
	at com.sun.xml.ws.transport.http.servlet.WSServletDelegate.doPost(WSServletDelegate.java:167)
	at com.sun.xml.ws.transport.http.servlet.WSServlet.doPost(WSServlet.java:51)
	at javax.servlet.http.HttpServlet.service(HttpServlet.java:661)
	at javax.servlet.http.HttpServlet.service(HttpServlet.java:742)
	at org.apache.catalina.core.ApplicationFilterChain.internalDoFilter(ApplicationFilterChain.java:231)
	at org.apache.catalina.core.ApplicationFilterChain.doFilter(ApplicationFilterChain.java:166)
	at org.springframework.security.web.FilterChainProxy.doFilterInternal(FilterChainProxy.java:186)
	at org.springframework.security.web.FilterChainProxy.doFilter(FilterChainProxy.java:160)
	at org.springframework.web.filter.DelegatingFilterProxy.invokeDelegate(DelegatingFilterProxy.java:358)
	at org.springframework.web.filter.DelegatingFilterProxy.doFilter(DelegatingFilterProxy.java:271)
	at org.apache.catalina.core.ApplicationFilterChain.internalDoFilter(ApplicationFilterChain.java:193)
	at org.apache.catalina.core.ApplicationFilterChain.doFilter(ApplicationFilterChain.java:166)
	at org.apache.tomcat.websocket.server.WsFilter.doFilter(WsFilter.java:52)
	at org.apache.catalina.core.ApplicationFilterChain.internalDoFilter(ApplicationFilterChain.java:193)
	at org.apache.catalina.core.ApplicationFilterChain.doFilter(ApplicationFilterChain.java:166)
	at net.bull.javamelody.MonitoringFilter.doFilter(MonitoringFilter.java:239)
	at net.bull.javamelody.MonitoringFilter.doFilter(MonitoringFilter.java:215)
	at org.apache.catalina.core.ApplicationFilterChain.internalDoFilter(ApplicationFilterChain.java:193)
	at org.apache.catalina.core.ApplicationFilterChain.doFilter(ApplicationFilterChain.java:166)
	at com.rabit.testgen.services.rest.CORSFilter.doFilterInternal(CORSFilter.java:38)
	at org.springframework.web.filter.OncePerRequestFilter.doFilter(OncePerRequestFilter.java:119)
	at org.apache.catalina.core.ApplicationFilterChain.internalDoFilter(ApplicationFilterChain.java:193)
	at org.apache.catalina.core.ApplicationFilterChain.doFilter(ApplicationFilterChain.java:166)
	at com.rabit.service.ws.RabitServicesWebFilter.doFilter(RabitServicesWebFilter.java:54)
	at org.apache.catalina.core.ApplicationFilterChain.internalDoFilter(ApplicationFilterChain.java:193)
	at org.apache.catalina.core.ApplicationFilterChain.doFilter(ApplicationFilterChain.java:166)
	at com.rabit.service.ws.RabitServicesFilter.doFilter(RabitServicesFilter.java:340)
	at org.apache.catalina.core.ApplicationFilterChain.internalDoFilter(ApplicationFilterChain.java:193)
	at org.apache.catalina.core.ApplicationFilterChain.doFilter(ApplicationFilterChain.java:166)
	at org.apache.catalina.core.StandardWrapperValve.invoke(StandardWrapperValve.java:198)
	at org.apache.catalina.core.StandardContextValve.invoke(StandardContextValve.java:96)
	at org.apache.catalina.authenticator.AuthenticatorBase.invoke(AuthenticatorBase.java:478)
	at org.apache.catalina.core.StandardHostValve.invoke(StandardHostValve.java:140)
	at org.apache.catalina.valves.ErrorReportValve.invoke(ErrorReportValve.java:80)
	at org.apache.catalina.valves.AbstractAccessLogValve.invoke(AbstractAccessLogValve.java:624)
	at org.apache.catalina.core.StandardEngineValve.invoke(StandardEngineValve.java:87)
	at org.apache.catalina.connector.CoyoteAdapter.service(CoyoteAdapter.java:342)
	at org.apache.coyote.http11.Http11Processor.service(Http11Processor.java:799)
	at org.apache.coyote.AbstractProcessorLight.process(AbstractProcessorLight.java:66)
	at org.apache.coyote.AbstractProtocol$ConnectionHandler.process(AbstractProtocol.java:861)
	at org.apache.tomcat.util.net.NioEndpoint$SocketProcessor.doRun(NioEndpoint.java:1455)
	at org.apache.tomcat.util.net.SocketProcessorBase.run(SocketProcessorBase.java:49)
	at java.base/java.util.concurrent.ThreadPoolExecutor.runWorker(ThreadPoolExecutor.java:1128)
	at java.base/java.util.concurrent.ThreadPoolExecutor$Worker.run(ThreadPoolExecutor.java:628)
	at org.apache.tomcat.util.threads.TaskThread$WrappingRunnable.run(TaskThread.java:61)
	at java.base/java.lang.Thread.run(Thread.java:834)
2020-02-25 16:52:32 INFO  82f7359b-d24c-4b41-fcc5-0d76a7356b89_171:1295 - Process execution completed.
2020-02-25 16:52:32 INFO  82f7359b-d24c-4b41-fcc5-0d76a7356b89_171:1362 -  Process data files has been deleted .
