2020-02-25 21:37:24 INFO  82f7359b-d24c-4b41-fcc5-0d76a7356b89_434:1446 - Getting related records and dependenices with selected crieteria
2020-02-25 21:37:30 INFO  82f7359b-d24c-4b41-fcc5-0d76a7356b89_434:1477 - Identifying users for User-lookup mapping
2020-02-25 21:37:32 INFO  82f7359b-d24c-4b41-fcc5-0d76a7356b89_434:4667 - GetParents: Getting parents of Pricebook2
2020-02-25 21:37:33 INFO  82f7359b-d24c-4b41-fcc5-0d76a7356b89_434:4716 - <font color='blue'>Pricebook2 has 1 retrievable records</font>
2020-02-25 21:37:33 INFO  82f7359b-d24c-4b41-fcc5-0d76a7356b89_434:1579 - ExtractData: Get Parents for PricebookEntry
2020-02-25 21:37:33 INFO  82f7359b-d24c-4b41-fcc5-0d76a7356b89_434:4667 - GetParents: Getting parents of PricebookEntry
2020-02-25 21:37:33 INFO  82f7359b-d24c-4b41-fcc5-0d76a7356b89_434:4716 - <font color='blue'>PricebookEntry has 17 retrievable records</font>
2020-02-25 21:37:34 INFO  82f7359b-d24c-4b41-fcc5-0d76a7356b89_434:4812 - PricebookEntry has 1 parent record(s) in Pricebook2 with the field Pricebook2Id as reference
2020-02-25 21:37:34 INFO  82f7359b-d24c-4b41-fcc5-0d76a7356b89_434:4889 - Object detected again: Pricebook2
2020-02-25 21:37:34 INFO  82f7359b-d24c-4b41-fcc5-0d76a7356b89_434:4948 - <font color='blue'>Pricebook2 has 1 retrievable records</font>
2020-02-25 21:37:34 INFO  82f7359b-d24c-4b41-fcc5-0d76a7356b89_434:6194 - Updating level of Pricebook2 from 0 to 0
2020-02-25 21:37:34 INFO  82f7359b-d24c-4b41-fcc5-0d76a7356b89_434:4812 - PricebookEntry has 17 parent record(s) in Product2 with the field Product2Id as reference
2020-02-25 21:37:34 INFO  82f7359b-d24c-4b41-fcc5-0d76a7356b89_434:4865 - Creating parent SFobject for Product2
2020-02-25 21:37:34 INFO  82f7359b-d24c-4b41-fcc5-0d76a7356b89_434:4870 - <font color='blue'>Product2 has 17 retrievable records</font>
2020-02-25 21:37:34 INFO  82f7359b-d24c-4b41-fcc5-0d76a7356b89_434:6194 - Updating level of Product2 from 0 to 0
2020-02-25 21:37:34 INFO  82f7359b-d24c-4b41-fcc5-0d76a7356b89_434:4667 - GetParents: Getting parents of Product2
2020-02-25 21:37:34 INFO  82f7359b-d24c-4b41-fcc5-0d76a7356b89_434:4716 - <font color='blue'>Product2 has 17 retrievable records</font>
2020-02-25 21:37:35 INFO  82f7359b-d24c-4b41-fcc5-0d76a7356b89_434:4762 - Product2 has no new parent record(s) in [ExternalDataSource] with the field ExternalDataSourceId as reference
2020-02-25 21:37:36 INFO  82f7359b-d24c-4b41-fcc5-0d76a7356b89_434:4781 - Creating parent SFobject for ExternalDataSource
2020-02-25 21:37:36 INFO  82f7359b-d24c-4b41-fcc5-0d76a7356b89_434:6194 - Updating level of ExternalDataSource from 1 to 1
2020-02-25 21:37:36 INFO  82f7359b-d24c-4b41-fcc5-0d76a7356b89_434:1593 - Object-level map based on the object dependencies
2020-02-25 21:42:33 INFO  82f7359b-d24c-4b41-fcc5-0d76a7356b89_434:5137 - ExternalDataSource   :  '1'
2020-02-25 21:42:33 INFO  82f7359b-d24c-4b41-fcc5-0d76a7356b89_434:5137 - Pricebook2   :  '0'
2020-02-25 21:42:33 INFO  82f7359b-d24c-4b41-fcc5-0d76a7356b89_434:5137 - Product2   :  '0'
2020-02-25 21:42:33 INFO  82f7359b-d24c-4b41-fcc5-0d76a7356b89_434:5137 - PricebookEntry   :  '-1'
2020-02-25 21:42:36 INFO  82f7359b-d24c-4b41-fcc5-0d76a7356b89_434:4050 - No required records found in object: ExternalDataSource
2020-02-25 21:42:36 INFO  82f7359b-d24c-4b41-fcc5-0d76a7356b89_434:4243 - No masking rules applied on Pricebook2
2020-02-25 21:42:37 INFO  82f7359b-d24c-4b41-fcc5-0d76a7356b89_434:4439 - Pricebook2 has 1 Record(s)
2020-02-25 21:42:37 INFO  82f7359b-d24c-4b41-fcc5-0d76a7356b89_434:4243 - No masking rules applied on Product2
2020-02-25 21:42:38 INFO  82f7359b-d24c-4b41-fcc5-0d76a7356b89_434:4439 - Product2 has 17 Record(s)
2020-02-25 21:42:39 INFO  82f7359b-d24c-4b41-fcc5-0d76a7356b89_434:4243 - No masking rules applied on PricebookEntry
2020-02-25 21:42:40 INFO  82f7359b-d24c-4b41-fcc5-0d76a7356b89_434:4439 - PricebookEntry has 34 Record(s)
2020-02-25 21:42:40 INFO  82f7359b-d24c-4b41-fcc5-0d76a7356b89_434:1509 - Inserting data from org 'RJ_SF_IN_BB_Repo1' to org 'RJ_SF_AR_BB'
2020-02-25 21:43:37 INFO  82f7359b-d24c-4b41-fcc5-0d76a7356b89_434:3559 - Updating ExternalDataSource id's in Product2.
2020-02-25 21:52:41 INFO  82f7359b-d24c-4b41-fcc5-0d76a7356b89_434:2006 - Upsert started on object: Pricebook2
2020-02-25 21:54:11 INFO  82f7359b-d24c-4b41-fcc5-0d76a7356b89_434:2096 - Upsert completed for object : Pricebook2
2020-02-25 21:57:44 INFO  82f7359b-d24c-4b41-fcc5-0d76a7356b89_434:2100 - Success:1 Errors:0
2020-02-25 21:58:25 INFO  82f7359b-d24c-4b41-fcc5-0d76a7356b89_434:3296 - Checking for self reference id's on object: Pricebook2
2020-02-25 22:00:48 INFO  82f7359b-d24c-4b41-fcc5-0d76a7356b89_434:3559 - Updating Pricebook2 id's in PricebookEntry.
2020-02-25 22:12:58 INFO  82f7359b-d24c-4b41-fcc5-0d76a7356b89_434:2372 - Removing unnecessary fields from success csv file for the object: Pricebook2
2020-02-25 22:12:58 INFO  82f7359b-d24c-4b41-fcc5-0d76a7356b89_434:2415 - Removing unnecessary fields from error csv file for the object: Pricebook2
2020-02-25 22:13:14 INFO  82f7359b-d24c-4b41-fcc5-0d76a7356b89_434:2006 - Upsert started on object: Product2
2020-02-25 22:13:36 INFO  82f7359b-d24c-4b41-fcc5-0d76a7356b89_434:2096 - Upsert completed for object : Product2
2020-02-25 22:13:36 INFO  82f7359b-d24c-4b41-fcc5-0d76a7356b89_434:2100 - Success:17 Errors:0
2020-02-25 22:13:56 INFO  82f7359b-d24c-4b41-fcc5-0d76a7356b89_434:3296 - Checking for self reference id's on object: Product2
2020-02-25 22:14:15 INFO  82f7359b-d24c-4b41-fcc5-0d76a7356b89_434:3559 - Updating Product2 id's in PricebookEntry.
2020-02-25 22:14:15 INFO  82f7359b-d24c-4b41-fcc5-0d76a7356b89_434:2372 - Removing unnecessary fields from success csv file for the object: Product2
2020-02-25 22:14:15 INFO  82f7359b-d24c-4b41-fcc5-0d76a7356b89_434:2415 - Removing unnecessary fields from error csv file for the object: Product2
2020-02-25 22:14:31 INFO  82f7359b-d24c-4b41-fcc5-0d76a7356b89_434:2006 - Upsert started on object: PricebookEntry
2020-02-25 22:15:05 INFO  82f7359b-d24c-4b41-fcc5-0d76a7356b89_434:2096 - Upsert completed for object : PricebookEntry
2020-02-25 22:15:05 INFO  82f7359b-d24c-4b41-fcc5-0d76a7356b89_434:2100 - Success:0 Errors:34
2020-02-25 22:15:06 INFO  82f7359b-d24c-4b41-fcc5-0d76a7356b89_434:2372 - Removing unnecessary fields from success csv file for the object: PricebookEntry
2020-02-25 22:15:06 INFO  82f7359b-d24c-4b41-fcc5-0d76a7356b89_434:2415 - Removing unnecessary fields from error csv file for the object: PricebookEntry
2020-02-25 22:15:07 INFO  82f7359b-d24c-4b41-fcc5-0d76a7356b89_434:1295 - Process execution completed.
2020-02-25 22:15:12 INFO  82f7359b-d24c-4b41-fcc5-0d76a7356b89_434:1362 -  Process data files has been deleted .
