2020.04.07.13.01.14--Updated build properties.
2020.04.07.13.01.14--Starting the Build Process
2020.04.07.13.01.14--AR-Debug:: orgname : autorabit.com-PmkSJi projectname : WaveComponents buildnumber : 4 buildforced : true agentname : ArAgent status : Inprogress
2020.04.07.13.01.15--AR-Debug:: update build status : Success
2020.04.07.13.01.15--Step1 : Checking for modifications to continue the build.
2020.04.07.13.01.15--::::::In getUserCredential ::
2020.04.07.13.01.15--Org Name: autorabit.com-PmkSJi, Project Name: WaveComponents,getUserCredentials initated to AgentService.
2020.04.07.13.01.15--Org Name: autorabit.com-PmkSJi, Project Name: WaveComponents, getUserCredentials completed.
2020.04.07.13.01.15--SCM URL : https://bitbucket.org/rajashekarj/myrepo1.git
2020.04.07.13.01.15--Updating working copy.
2020.04.07.13.01.15--Same remote url found. Updating working copy.
2020.04.07.13.01.15--AR-Debug:: OrgName : autorabit.com-PmkSJi Executing custom API
2020.04.07.13.01.15--Executing custom API
2020.04.07.13.01.18--orgName : autorabit.com-PmkSJi Executing custom API
2020.04.07.13.01.21--Checkout completed.
2020.04.07.13.01.21--Step1 : Modifications exist, Proceeding for next steps...
2020.04.07.13.01.21--Step2 : Cleaning the directories and creating.
2020.04.07.13.01.21--Step2 : Directories creation completed proceeding for next steps...
2020.04.07.13.01.21--Step3 : Checkout / Data retrieval process started.
2020.04.07.13.01.21--Project checkout path : D:\filesystem\193\agent\projects\autorabit.com-PmkSJi_WaveComponents
2020.04.07.13.01.21--Fetching all changed files.
2020.04.07.13.01.21--SCM URL : https://bitbucket.org/rajashekarj/myrepo1.git
2020.04.07.13.01.21--::generateChangeList - scm.getLog:: StartTimeTue Apr 07 18:31:21 IST 2020
2020.04.07.13.01.21--Same remote url found. Updating working copy.
2020.04.07.13.01.21--AR-Debug:: OrgName : autorabit.com-PmkSJi Executing custom API
2020.04.07.13.01.21--Executing custom API
2020.04.07.13.01.24--From Revision : 46107b5 To Revision : bbdbffd
2020.04.07.13.01.24--Validating revision : 46107b5 in the branch  : branch1
2020.04.07.13.01.24--From Revision : 46107b5 found in the branch  : branch1
2020.04.07.13.01.24--AR-Debug:: Total time taken for revision validate in sec: 0
2020.04.07.13.01.24--From Revision :46107b5 validated and proceeding to get logs
2020.04.07.13.01.24--AR-Debug::  isSame: false
2020.04.07.13.01.24--AR-Debug::  fromRev: 46107b5
2020.04.07.13.01.24--AR-Debug::  gitshaLength: 7
2020.04.07.13.01.24--
 Generated log entries and finished all threads - 
2020.04.07.13.01.24--AR-Debug::  allRevisions: [bbdbffd, 46107b5]
2020.04.07.13.01.24--AR-Debug::  allRevisions size: 2
2020.04.07.13.01.24--AR-Debug::  logsMap size: 2
2020.04.07.13.01.24--AR-Debug::  logsMap revisions: [bbdbffd, 46107b5]
2020.04.07.13.01.24--generateChangeList - scm.getLog:: EndTime : Tue Apr 07 18:31:24 IST 2020
2020.04.07.13.01.24--Total scm.getLog time in sec: 3
2020.04.07.13.01.24--logEntries size is 2
2020.04.07.13.01.24--logEntries size is 1
2020.04.07.13.01.24--SCM log generated for processing changes.
2020.04.07.13.01.24--Writing scmlog to file.
2020.04.07.13.01.24--Changelist generated.
2020.04.07.13.01.24--prepareDestructive is : false
2020.04.07.13.01.24--AR-Debug:: revisionbbdbffd
2020.04.07.13.01.24--AR-Debug:: FileName: wave/SalesEdgeEltWorkflow.wdf-meta.xml Action: A
2020.04.07.13.01.24--AR-Debug:: FileName: wave/The_Motivator.wdf Action: A
2020.04.07.13.01.24--AR-Debug:: FileName: package.xml Action: M
2020.04.07.13.01.24--AR-Debug:: FileName: wave/SalesEdgeEltWorkflow.wdf Action: A
2020.04.07.13.01.24--AR-Debug:: FileName: wave/The_Motivator.wdf-meta.xml Action: A
2020.04.07.13.01.24--Process Start Time : Tue Apr 07 18:31:24 IST 2020
2020.04.07.13.01.24--Copying files to custom deploy
2020.04.07.13.01.24--AR-Debug:: package filename: wave/SalesEdgeEltWorkflow.wdf-meta.xml
2020.04.07.13.01.24--AR-Debug:: package cpFile: D:\filesystem\193\agent\projects\autorabit.com-PmkSJi_WaveComponents\wave\SalesEdgeEltWorkflow.wdf-meta.xml
2020.04.07.13.01.24--AR-Debug:: package filename: wave/The_Motivator.wdf
2020.04.07.13.01.24--AR-Debug:: package cpFile: D:\filesystem\193\agent\projects\autorabit.com-PmkSJi_WaveComponents\wave\The_Motivator.wdf
2020.04.07.13.01.24--AR-Debug:: package filename: package.xml
2020.04.07.13.01.24--AR-Debug:: package cpFile: D:\filesystem\193\agent\projects\autorabit.com-PmkSJi_WaveComponents\package.xml
2020.04.07.13.01.24--AR-Debug:: package filename: wave/SalesEdgeEltWorkflow.wdf
2020.04.07.13.01.24--AR-Debug:: package cpFile: D:\filesystem\193\agent\projects\autorabit.com-PmkSJi_WaveComponents\wave\SalesEdgeEltWorkflow.wdf
2020.04.07.13.01.24--AR-Debug:: package filename: wave/The_Motivator.wdf-meta.xml
2020.04.07.13.01.24--AR-Debug:: package cpFile: D:\filesystem\193\agent\projects\autorabit.com-PmkSJi_WaveComponents\wave\The_Motivator.wdf-meta.xml
2020.04.07.13.01.24--Changed files count : 5
2020.04.07.13.01.24--::::::::ValidateDeployablemetadataSchemaCalled::::::::::-With REVISION
2020.04.07.13.01.24--In validateDeployableMetaDataSchema:::::::startTime::Tue Apr 07 18:31:24 IST 2020 directoryPath::D:\filesystem\193\agent\projects\autorabit.com-PmkSJi_WaveComponents lastCall::false
2020.04.07.13.01.24--In validateDeployableMetaDataSchema:::::::startTime::Tue Apr 07 18:31:24 IST 2020 directoryPath::D:\filesystem\193\agent\projects\autorabit.com-PmkSJi_WaveComponents\customDeploy lastCall::true
2020.04.07.13.01.25--Diff found between package.xml and package.xml at line number : 1112
2020.04.07.13.01.25--AR-Debug:: Source line is :         <members>CampaignMember.wbsendit__Send_to_Email_List</members>
2020.04.07.13.01.25--AR-Debug:: Target line is :         <members>SalesEdgeEltWorkflow</members>
2020.04.07.13.01.25--
Finished all threads
2020.04.07.13.01.25--Total Build Time : 253
2020.04.07.13.01.25--Prepared package manifest.
2020.04.07.13.01.25--Package xml file path : D:\filesystem\193\agent\projects\autorabit.com-PmkSJi_WaveComponents\customDeploy\package.xml
2020.04.07.13.01.25--Preparing the dynamic package.xml file.
2020.04.07.13.01.25--Saved package manifest.
2020.04.07.13.01.25--Validating the empty metadata files exist or not.
2020.04.07.13.01.25--AR-Debug:: Parsing package file. Package file path : D:\filesystem\193\agent\projects\autorabit.com-PmkSJi_WaveComponents\customDeploy\package.xml
2020.04.07.13.01.25--Preparing Metadata members map.
2020.04.07.13.01.25--Prepared Metadata members map.
2020.04.07.13.01.25--Preparing the dynamic package.xml file.
2020.04.07.13.01.25--Validated the empty metadata files exist or not.
2020.04.07.13.01.25--Step3 : Checkout / Data retrieval completed proceeding for next steps...
2020.04.07.13.01.25--Step4 : Pre-Package steps started.
2020.04.07.13.01.25--Profiles refactoring started.
2020.04.07.13.01.25--AR-Debug:: Parsing package file. Package file path : D:\filesystem\193\agent\projects\autorabit.com-PmkSJi_WaveComponents\customDeploy\package.xml
2020.04.07.13.01.25--Preparing Metadata members map.
2020.04.07.13.01.25--Prepared Metadata members map.
2020.04.07.13.01.25--Profiles refactoring completed.
2020.04.07.13.01.25--AR-Debug:: <font color='orange'>request parameters received as empty/null for update namespace</font>
2020.04.07.13.01.25--RSS fields update started.
2020.04.07.13.01.25--RSS fields update completed.
2020.04.07.13.01.25--AR-Debug:: no configuration to empty -meta files.
2020.04.07.13.01.25--Step4 : Pre-Package steps completed proceeding for next steps...
2020.04.07.13.01.25--Step5 : Package steps started
2020.04.07.13.01.25--Packaging completed successfully.
2020.04.07.13.01.25--SCM URL : https://bitbucket.org/rajashekarj/myrepo1.git
2020.04.07.13.01.25--Checkout completed.
2020.04.07.13.01.25--Step5 : Package steps completed proceeding for next steps...
2020.04.07.13.01.25--Step6 : Post package steps started.
2020.04.07.13.01.25--AR-Debug::  Static code analysis was not chosen
2020.04.07.13.01.25--Step6 : Post package steps completed
2020.04.07.13.01.25--AR-Debug:: orgname : autorabit.com-PmkSJi projectname : WaveComponents buildnumber : 4 buildforced : true agentname : ArAgent status : Completed
2020-04-07 18:31:26 INFO  com-PmkSJi_WaveComponents_4:838 - autorabit.com-PmkSJi_WaveComponents Post build steps started.
2020-04-07 18:31:26 INFO  com-PmkSJi_WaveComponents_4:1409 - Metadata changes present for project :autorabit.com-PmkSJi_WaveComponents_4
2020-04-07 18:31:26 INFO  com-PmkSJi_WaveComponents_4:1018 - <br /> BUILD SUCCESSFUL
2020-04-07 18:31:26 INFO  com-PmkSJi_WaveComponents_4:1019 - Total time: 13 Seconds
2020-04-07 18:31:26 INFO  com-PmkSJi_WaveComponents_4:1020 - Build Completed
2020-04-07 18:31:26 INFO  com-PmkSJi_WaveComponents_4:884 - AR-Debug::  Changes are available
2020-04-07 18:31:26 INFO  com-PmkSJi_WaveComponents_4:894 - Triggering Deployment Agent from force build with org nameautorabit.com-PmkSJiBuildProject name :WaveComponentscurrent Build number :4
2020-04-07 18:31:26 INFO  com-PmkSJi_WaveComponents_4:216 - AR-Debug::  Build process completed. Preparing deployment properties.
2020-04-07 18:31:26 INFO  com-PmkSJi_WaveComponents_4:348 - AR-Debug::  sfpackage : null
2020-04-07 18:31:26 INFO  com-PmkSJi_WaveComponents_4:349 - AR-Debug::  servertype : Dev
2020-04-07 18:31:26 INFO  com-PmkSJi_WaveComponents_4:350 - AR-Debug::  label : RJ_SF_AR_BB
2020-04-07 18:31:26 INFO  com-PmkSJi_WaveComponents_4:391 - AR-Debug::  Invoking deployment service for autorabit.com-PmkSJi_WaveComponents_4
2020-04-07 18:31:26 INFO  com-PmkSJi_WaveComponents_4:392 - AR-Debug::  Invoking deployment with CIJobInfo CIJobInfo [orgName=autorabit.com-PmkSJi, projectName=WaveComponents, deployRevision=null, lastsuccessfulbuild=4, lastsuccessfuldeployment=null, buildNumber=4, fromRevision=46107b5, toRevision=bbdbffd, triggeredBy=rajashekar.j1@autorabit.com, title=EnableAnalytics, isBuildForced=true, isDeploy=true, isTest=false, isBackUp=false, isPMD=false, pmdType=null, comment=null, timeOfBuild=2020-04-07 13:01:14, projectType=SalesForce, buildAgentName=ArAgent, buildLogId=null, buildStatus=Completed, deployAgentName=null, isValidate=true, sourceSFOrg=null, repoName=BBrepo1, branchName=branch1, sourceFolder=null, deployedSFOrg=RJ_SF_AR_BB, deployedTime=null, deployStatus=null, deployID=null, runCodeCoverage=D, sourceCodeCoverage=0.0, destCodeCoverage=0.0, testStatus=null, totalTests=null, totalFailures=null, totalSuccess=null, totalNotRun=null, backupStatus=null, backupTime=null, revertStatus=null, buildID=null, almCommitLabels=null, almType=null, status=Completed, testTypes=null, browsers=null, from=versioncontrol, autoCommit=false, dateTimeId=20200407130114, vlocity=false, cancelDeploy=null, quickdeployStatus=null, quickDeployId=null, destructiveType=null, validateRollBack=false, testlevel=null, postAct=null, overAllStatus=Inprogress, isEnableSearchSubstitute=false, searchSubstituteRules=null, accelqProjectCode=null, accelqProjectName=null, accelqJobId=null, accelqJobName=null, accelqProcessId=null, accelqProcessstatus=null, preventDeployment=null]
2020-04-07 18:31:26 ERROR com-PmkSJi_WaveComponents_4:402 - AR-Debug:: sending request to poolName : Default agentName : ArAgent and agentURL : http://localhost:5000/
2020-04-07 18:31:26 INFO  com-PmkSJi_WaveComponents_4:143 - AR-Debug::  agent url is http://localhost:5000/
2020.04.07.13.01.26--BUILD_DEPLOY_SEPERATOR
2020.04.07.13.01.26--AR-Debug:: Deployment request for  DestSfId::00D2v000001fQimEAE initiating deployment
2020.04.07.13.01.26--Trigger Deployment service invoked!!! for project: WaveComponents and buildNumber: 4
2020.04.07.13.01.26--Rabit regression properties file updated successfully
2020.04.07.13.01.26--isTest::false::isInstall::true::isValidateDeployment::true
2020.04.07.13.01.26--AR-Debug:: Project Type is: SalesForce
2020.04.07.13.01.26--AR-Debug:: Saved SuccessFully: cijobsettings.properties
2020.04.07.13.01.26--AR-Debug:: WaveComponents : 4
2020-04-07 18:31:26 INFO  com-PmkSJi_WaveComponents_4:147 - Deployment Status::Deployment invoked successfully
2020-04-07 18:31:26 INFO  com-PmkSJi_WaveComponents_4:917 - AR-Debug::  Invoking Metadata updater ..
2020-04-07 18:31:26 INFO  com-PmkSJi_WaveComponents_4:86 - AR-Debug:: Submitting key is 20200407183126782_autorabit.com-PmkSJi_WaveComponents_4_metadataupdate
2020-04-07 18:31:26 INFO  com-PmkSJi_WaveComponents_4:89 - AR-Debug:: Task does not exist in the queue. Putting new task into queue.20200407183126782_autorabit.com-PmkSJi_WaveComponents_4_metadataupdate
2020-04-07 18:31:26 INFO  com-PmkSJi_WaveComponents_4:90 - Task does not exist in the queue. Putting new task into queue.
2020-04-07 18:31:26 INFO  com-PmkSJi_WaveComponents_4:119 - Submitting new task to execute method.
2020.04.07.13.01.26--AR-Debug:: update build status : Success
2020.04.07.13.01.26--AR-Debug:: Agent Side : Total time taken to complete build process: 12 Seconds
2020.04.07.13.01.26--AR-Debug:: deployment status is inprogressInprogress
2020.04.07.13.01.26--AR-Debug:: processDeployAgentActiveJob : Inprogress
2020.04.07.13.01.27--AR-Debug:: update deploy status : Success
2020.04.07.13.01.27--================Deployment process started.=========================
2020.04.07.13.01.27--Preparing zip File with metadata API supported format start.
2020.04.07.13.01.27--profRefact configured. starting the process.
2020.04.07.13.01.27--AR-Debug:: Parsing package file. Package file path : D:\filesystem\193\agent\sfoper\autorabit.com-PmkSJi_WaveComponents\unpackaged\package.xml
2020.04.07.13.01.27--Preparing Metadata members map.
2020.04.07.13.01.27--Prepared Metadata members map.
2020.04.07.13.01.27--profRefact process completed.
2020.04.07.13.01.27--AR-Debug:: Parsing package file. Package file path : D:\filesystem\193\agent\sfoper\autorabit.com-PmkSJi_WaveComponents\unpackaged\package.xml
2020.04.07.13.01.27--Preparing Metadata members map.
2020.04.07.13.01.27--Prepared Metadata members map.
2020.04.07.13.01.27--Preparing zip File with Metadata API supported format completed successfully.
2020.04.07.13.01.27--Deployment process started using Metadata API.WaveComponents
2020.04.07.13.01.27--Preparing the deployment options stated.
2020.04.07.13.01.27--deployment options preparation completed.
2020.04.07.13.01.27--AR-Debug:: Generating access token from refresh token for salesforce org...
2020.04.07.13.01.29--Response Statusline:HTTP/1.1 200 OK
2020.04.07.13.01.30--AR-Debug:: AsyncResultID::0Af2v00000pCwGyCAK
2020.04.07.13.01.30--AR-Debug:: AsyncResultState::Queued
2020.04.07.13.01.30--<font color='blue'>Deployment has been initiated with Async Id::0Af2v00000pCwGyCAK</font>
2020.04.07.13.01.30--AR-Debug:: DeployID : 0Af2v00000pCwGyCAK
2020.04.07.13.01.30--AR-Debug:: deployment status is inprogressInprogress
2020.04.07.13.01.30--AR-Debug:: processDeployAgentActiveJob : Inprogress
2020.04.07.13.01.31--AR-Debug:: update deploy status : Success
2020.04.07.13.01.43--<font color='green'>Component successes count : 0</font>
2020.04.07.13.01.43--<font color='red'>Component failures count : 4</font>
2020.04.07.13.01.43--<font color='red'>All Component Failures:</font>
2020.04.07.13.01.43--1.unpackaged/wave/The_Motivator.wdf-meta.xml -- Error: Not available for deploy for this organization (line 0, column 0)
2.unpackaged/wave/SalesEdgeEltWorkflow.wdf-meta.xml -- Error: Not available for deploy for this organization (line 0, column 0)
3.unpackaged/wave/The_Motivator.wdf -- Error: Not available for deploy for this organization (line 0, column 0)
4.unpackaged/wave/SalesEdgeEltWorkflow.wdf -- Error: Not available for deploy for this organization (line 0, column 0)

2020.04.07.13.01.43--<font color='red'>*********** DEPLOYMENT FAILED ***********</font>
2020.04.07.13.01.43--AR-Debug:: DeployID : 0Af2v00000pCwGyCAK
2020.04.07.13.01.43--AR-Debug:: processDeployAgentActiveJob : Failed
2020.04.07.13.01.43--AR-Debug:: processDeployAgentActiveJob : false
2020.04.07.13.01.43--AR-Debug:: Issue Sandbox Properties, seems tests/forcetests were not configured
2020.04.07.13.01.43--AR-Debug:: processDeployAgentActiveJob : Failed
2020.04.07.13.01.44--AR-Debug:: update deploy status : Success
2020.04.07.13.01.44--AR-Debug:: Deployment Completed With status: Failed
2020.04.07.13.01.44--AR-Debug:: Deployment process completed for Project WaveComponents with deploymentId: 0Af2v00000pCwGyCAK===============
2020.04.07.13.01.44--================Deployment process completed.=========================
2020.04.07.13.01.44--Total time :17 Seconds
