2020.02.18.16.10.08--Updated build properties.
2020.02.18.16.10.08--Starting the Build Process
2020.02.18.16.10.08--AR-Debug:: orgname : autorabit.com-PmkSJi projectname : Test22627 buildnumber : 3 buildforced : true agentname : ArAgent status : Inprogress
2020.02.18.16.10.09--AR-Debug:: update build status : Success
2020.02.18.16.10.09--Step1 : Checking for modifications to continue the build.
2020.02.18.16.10.09--::::::In getUserCredential ::
2020.02.18.16.10.09--Org Name: autorabit.com-PmkSJi, Project Name: Test22627,getUserCredentials initated to AgentService.
2020.02.18.16.10.09--Org Name: autorabit.com-PmkSJi, Project Name: Test22627, getUserCredentials completed.
2020.02.18.16.10.09--SCM URL : https://bitbucket.org/kareemuddin/new-ap3-repo.git
2020.02.18.16.10.09--Updating working copy.
2020.02.18.16.10.09--Same remote url found. Updating working copy.
2020.02.18.16.10.09--AR-Debug:: OrgName : autorabit.com-PmkSJi Executing custom API
2020.02.18.16.10.09--Executing custom API
2020.02.18.16.10.11--orgName : autorabit.com-PmkSJi Executing custom API
2020.02.18.16.10.13--Same remote url found. Updating working copy.
2020.02.18.16.10.14--AR-Debug:: OrgName : autorabit.com-PmkSJi Executing custom API
2020.02.18.16.10.14--Executing custom API
2020.02.18.16.10.16--Checkout completed.
2020.02.18.16.10.16--Step1 : Modifications exist, Proceeding for next steps...
2020.02.18.16.10.16--Step2 : Cleaning the directories and creating.
2020.02.18.16.10.16--Step2 : Directories creation completed proceeding for next steps...
2020.02.18.16.10.16--Step3 : Checkout / Data retrieval process started.
2020.02.18.16.10.16--Project checkout path : D:\filesystem\193\agent\projects\autorabit.com-PmkSJi_Test22627
2020.02.18.16.10.16--Fetching all changed files.
2020.02.18.16.10.16--SCM URL : https://bitbucket.org/kareemuddin/new-ap3-repo.git
2020.02.18.16.10.16--::generateChangeList - scm.getLog:: StartTimeTue Feb 18 21:40:16 IST 2020
2020.02.18.16.10.16--Same remote url found. Updating working copy.
2020.02.18.16.10.17--AR-Debug:: OrgName : autorabit.com-PmkSJi Executing custom API
2020.02.18.16.10.17--Executing custom API
2020.02.18.16.10.19--From Revision : null To Revision : bc6a323
2020.02.18.16.10.19--Revision numbers are same so getting complete log and filtering.
2020.02.18.16.10.19--AR-Debug:: OrgName : autorabit.com-PmkSJi Executing custom API
2020.02.18.16.10.19--Executing custom API
2020.02.18.16.10.21--AR-Debug::  isSame: true
2020.02.18.16.10.21--AR-Debug::  fromRev: null
2020.02.18.16.10.21--AR-Debug::  gitshaLength: 7
2020.02.18.16.10.22--
 Generated log entries and finished all threads - 
2020.02.18.16.10.22--AR-Debug::  allRevisions: [bc6a323, 242fd50, 653d9bb, 89b40cb, 8376cbd]
2020.02.18.16.10.22--AR-Debug::  allRevisions size: 5
2020.02.18.16.10.22--AR-Debug::  logsMap size: 5
2020.02.18.16.10.22--AR-Debug::  logsMap revisions: [242fd50, 653d9bb, 8376cbd, bc6a323, 89b40cb]
2020.02.18.16.10.22--generateChangeList - scm.getLog:: EndTime : Tue Feb 18 21:40:22 IST 2020
2020.02.18.16.10.22--Total scm.getLog time in sec: 5
2020.02.18.16.10.22--SCM log generated for processing changes.
2020.02.18.16.10.22--Writing scmlog to file.
2020.02.18.16.10.22--Changelist generated.
2020.02.18.16.10.29--In validateDeployableMetaDataSchema:::::::startTime::Tue Feb 18 21:40:29 IST 2020 directoryPath::D:\filesystem\193\agent\projects\autorabit.com-PmkSJi_Test22627\customDeploy lastCall::true
2020.02.18.16.10.29--Package xml file path : D:\filesystem\193\agent\projects\autorabit.com-PmkSJi_Test22627\customDeploy\package.xml
2020.02.18.16.10.29--Preparing the dynamic package.xml file.
2020.02.18.16.10.30--Saved package manifest.
2020.02.18.16.10.30--D:\filesystem\193\agent\projects\autorabit.com-PmkSJi_Test22627\customDeploy\force-app\main\default\lwc deleted
2020.02.18.16.10.30--D:\filesystem\193\agent\projects\autorabit.com-PmkSJi_Test22627\customDeploy\sfdxbuild deleted
2020.02.18.16.10.30--Step3 : Checkout / Data retrieval completed proceeding for next steps...
2020.02.18.16.10.30--Building source from a SFDX branch
2020.02.18.16.10.30--Step4 : Package steps started
2020.02.18.16.10.37--Checking for modifications on source folder: force-app
2020.02.18.16.10.37--Modifications exist with source folder: force-app
2020.02.18.16.11.49--AR-Debug:: Cleanup completed for SFDX build
2020.02.18.16.11.55--<font color='red'>Cannot run program "sfdx" (in directory "C:\Users\RajashekarJadala"): CreateProcess error=2, The system cannot find the file specified</font>
2020.02.18.16.12.17--Packaging completed successfully.
2020.02.18.16.12.17--SCM URL : https://bitbucket.org/kareemuddin/new-ap3-repo.git
2020.02.18.16.12.52--Checkout completed.
2020.02.18.16.12.52--<font color='red'>Step5 : Package steps failed</font>
2020.02.18.16.12.52--AR-Debug:: orgname : autorabit.com-PmkSJi projectname : Test22627 buildnumber : 3 buildforced : true agentname : ArAgent status : Failed
2020-02-18 21:42:53 INFO  com-PmkSJi_Test22627_3:824 - autorabit.com-PmkSJi_Test22627 Post build steps started.
2020-02-18 21:42:53 INFO  com-PmkSJi_Test22627_3:83 - CIJob info saved successfully
2020-02-18 21:42:54 INFO  com-PmkSJi_Test22627_3:992 - <br />BUILD FAILED
2020-02-18 21:42:54 INFO  com-PmkSJi_Test22627_3:995 - Total time: 2 Minutes 47 Seconds
2020-02-18 21:42:54 INFO  com-PmkSJi_Test22627_3:996 - Build Completed
2020.02.18.16.12.54--AR-Debug:: update build status : Success
2020.02.18.16.12.54--AR-Debug:: Agent Side : Total time taken to complete build process: 2 Minutes 45 Seconds
