2020-04-18 16:39:48 INFO  20190318162427541:2741 - Process started for deleting Prevalidation Label Auto Rejection Scheduled job: [commit for csi-1709 and csi-1715 v1.9]
2020-04-18 16:39:48 INFO  20190318162427541:2749 - End of deleting Prevalidation Label Auto Rejection Scheduled job
2020-04-18 17:10:02 INFO  20190318162427541:2741 - Process started for deleting Prevalidation Label Auto Rejection Scheduled job: [commit for csi-1709 and csi-1715 v1.9]
2020-04-18 17:10:02 INFO  20190318162427541:2749 - End of deleting Prevalidation Label Auto Rejection Scheduled job
2020-04-18 18:42:28 INFO  20190318162427541:2741 - Process started for deleting Prevalidation Label Auto Rejection Scheduled job: [commit for csi-1709 and csi-1715 v1.9]
2020-04-18 18:42:28 INFO  20190318162427541:2749 - End of deleting Prevalidation Label Auto Rejection Scheduled job
2020-04-20 16:32:15 INFO  20190318162427541:2741 - Process started for deleting Prevalidation Label Auto Rejection Scheduled job: [commit for csi-1709 and csi-1715 v1.9]
2020-04-20 16:32:15 INFO  20190318162427541:2749 - End of deleting Prevalidation Label Auto Rejection Scheduled job
2020-04-21 17:43:02 INFO  20190318162427541:2741 - Process started for deleting Prevalidation Label Auto Rejection Scheduled job: [commit for csi-1709 and csi-1715 v1.9]
2020-04-21 17:43:02 INFO  20190318162427541:2749 - End of deleting Prevalidation Label Auto Rejection Scheduled job
2020-04-21 17:58:10 INFO  20190318162427541:2741 - Process started for deleting Prevalidation Label Auto Rejection Scheduled job: [commit for csi-1709 and csi-1715 v1.9]
2020-04-21 17:58:10 INFO  20190318162427541:2749 - End of deleting Prevalidation Label Auto Rejection Scheduled job
2020-04-21 18:06:00 INFO  20190318162427541:2741 - Process started for deleting Prevalidation Label Auto Rejection Scheduled job: [commit for csi-1709 and csi-1715 v1.9]
2020-04-21 18:06:00 INFO  20190318162427541:2749 - End of deleting Prevalidation Label Auto Rejection Scheduled job
