2020-04-18 16:40:00 INFO  20190226152541139:2741 - Process started for deleting Prevalidation Label Auto Rejection Scheduled job: [commit for st-3430 v2.0]
2020-04-18 16:40:00 INFO  20190226152541139:2749 - End of deleting Prevalidation Label Auto Rejection Scheduled job
2020-04-18 17:10:05 INFO  20190226152541139:2741 - Process started for deleting Prevalidation Label Auto Rejection Scheduled job: [commit for st-3430 v2.0]
2020-04-18 17:10:05 INFO  20190226152541139:2749 - End of deleting Prevalidation Label Auto Rejection Scheduled job
2020-04-18 18:42:46 INFO  20190226152541139:2741 - Process started for deleting Prevalidation Label Auto Rejection Scheduled job: [commit for st-3430 v2.0]
2020-04-18 18:42:46 INFO  20190226152541139:2749 - End of deleting Prevalidation Label Auto Rejection Scheduled job
2020-04-20 16:32:32 INFO  20190226152541139:2741 - Process started for deleting Prevalidation Label Auto Rejection Scheduled job: [commit for st-3430 v2.0]
2020-04-20 16:32:32 INFO  20190226152541139:2749 - End of deleting Prevalidation Label Auto Rejection Scheduled job
2020-04-21 17:43:58 INFO  20190226152541139:2741 - Process started for deleting Prevalidation Label Auto Rejection Scheduled job: [commit for st-3430 v2.0]
2020-04-21 17:43:58 INFO  20190226152541139:2749 - End of deleting Prevalidation Label Auto Rejection Scheduled job
2020-04-21 17:58:12 INFO  20190226152541139:2741 - Process started for deleting Prevalidation Label Auto Rejection Scheduled job: [commit for st-3430 v2.0]
2020-04-21 17:58:12 INFO  20190226152541139:2749 - End of deleting Prevalidation Label Auto Rejection Scheduled job
2020-04-21 18:06:02 INFO  20190226152541139:2741 - Process started for deleting Prevalidation Label Auto Rejection Scheduled job: [commit for st-3430 v2.0]
2020-04-21 18:06:02 INFO  20190226152541139:2749 - End of deleting Prevalidation Label Auto Rejection Scheduled job
