2020-04-18 16:39:48 INFO  20200418163948981:2741 - Process started for deleting Prevalidation Label Auto Rejection Scheduled job: [commit for st-2508 v1.0]
2020-04-18 16:39:48 INFO  20200418163948981:2749 - End of deleting Prevalidation Label Auto Rejection Scheduled job
2020-04-18 16:39:48 INFO  20200418163948981:2741 - Process started for deleting Prevalidation Label Auto Rejection Scheduled job: [commit for st-2570 v1.0]
2020-04-18 16:39:48 INFO  20200418163948981:2749 - End of deleting Prevalidation Label Auto Rejection Scheduled job
2020-04-18 16:39:48 INFO  20200418163948981:2741 - Process started for deleting Prevalidation Label Auto Rejection Scheduled job: [commit for st-2570 v1.1]
2020-04-18 16:39:48 INFO  20200418163948981:2749 - End of deleting Prevalidation Label Auto Rejection Scheduled job
2020-04-18 17:10:03 INFO  20200418171003120:2741 - Process started for deleting Prevalidation Label Auto Rejection Scheduled job: [commit for st-2508 v1.0]
2020-04-18 17:10:03 INFO  20200418171003120:2749 - End of deleting Prevalidation Label Auto Rejection Scheduled job
2020-04-18 17:10:03 INFO  20200418171003120:2741 - Process started for deleting Prevalidation Label Auto Rejection Scheduled job: [fb-ct-95v1 commitv2]
2020-04-18 17:10:03 INFO  20200418171003120:2749 - End of deleting Prevalidation Label Auto Rejection Scheduled job
2020-04-18 18:42:31 INFO  20200418184231027:2741 - Process started for deleting Prevalidation Label Auto Rejection Scheduled job: [commit for st-2508 v1.0]
2020-04-18 18:42:31 INFO  20200418184231027:2749 - End of deleting Prevalidation Label Auto Rejection Scheduled job
2020-04-20 16:32:18 INFO  20200420163218042:2741 - Process started for deleting Prevalidation Label Auto Rejection Scheduled job: [commit for st-2508 v1.0]
2020-04-20 16:32:18 INFO  20200420163218042:2749 - End of deleting Prevalidation Label Auto Rejection Scheduled job
2020-04-21 17:43:08 INFO  20200421174308162:2741 - Process started for deleting Prevalidation Label Auto Rejection Scheduled job: [commit for st-2508 v1.0]
2020-04-21 17:43:08 INFO  20200421174308162:2749 - End of deleting Prevalidation Label Auto Rejection Scheduled job
2020-04-21 18:06:00 INFO  20200421180600562:2741 - Process started for deleting Prevalidation Label Auto Rejection Scheduled job: [commit for st-2508 v1.0]
2020-04-21 18:06:00 INFO  20200421180600562:2749 - End of deleting Prevalidation Label Auto Rejection Scheduled job
