2020-04-18 16:39:48 INFO  20181012112941724:2741 - Process started for deleting Prevalidation Label Auto Rejection Scheduled job: [commit for communityviewhelper changes v1.0]
2020-04-18 16:39:48 INFO  20181012112941724:2749 - End of deleting Prevalidation Label Auto Rejection Scheduled job
2020-04-18 17:10:02 INFO  20181012112941724:2741 - Process started for deleting Prevalidation Label Auto Rejection Scheduled job: [commit for communityviewhelper changes v1.0]
2020-04-18 17:10:02 INFO  20181012112941724:2749 - End of deleting Prevalidation Label Auto Rejection Scheduled job
2020-04-18 18:42:27 INFO  20181012112941724:2741 - Process started for deleting Prevalidation Label Auto Rejection Scheduled job: [commit for communityviewhelper changes v1.0]
2020-04-18 18:42:27 INFO  20181012112941724:2749 - End of deleting Prevalidation Label Auto Rejection Scheduled job
2020-04-20 16:32:13 INFO  20181012112941724:2741 - Process started for deleting Prevalidation Label Auto Rejection Scheduled job: [commit for communityviewhelper changes v1.0]
2020-04-20 16:32:13 INFO  20181012112941724:2749 - End of deleting Prevalidation Label Auto Rejection Scheduled job
2020-04-21 17:42:58 INFO  20181012112941724:2741 - Process started for deleting Prevalidation Label Auto Rejection Scheduled job: [commit for communityviewhelper changes v1.0]
2020-04-21 17:42:58 INFO  20181012112941724:2749 - End of deleting Prevalidation Label Auto Rejection Scheduled job
2020-04-21 17:58:10 INFO  20181012112941724:2741 - Process started for deleting Prevalidation Label Auto Rejection Scheduled job: [commit for communityviewhelper changes v1.0]
2020-04-21 17:58:10 INFO  20181012112941724:2749 - End of deleting Prevalidation Label Auto Rejection Scheduled job
2020-04-21 18:05:59 INFO  20181012112941724:2741 - Process started for deleting Prevalidation Label Auto Rejection Scheduled job: [commit for communityviewhelper changes v1.0]
2020-04-21 18:05:59 INFO  20181012112941724:2749 - End of deleting Prevalidation Label Auto Rejection Scheduled job
