2020-04-18 16:39:48 INFO  20180910081053489:2741 - Process started for deleting Prevalidation Label Auto Rejection Scheduled job: [commit for csi-941 v1.4]
2020-04-18 16:39:48 INFO  20180910081053489:2749 - End of deleting Prevalidation Label Auto Rejection Scheduled job
2020-04-18 17:10:02 INFO  20180910081053489:2741 - Process started for deleting Prevalidation Label Auto Rejection Scheduled job: [commit for csi-941 v1.4]
2020-04-18 17:10:02 INFO  20180910081053489:2749 - End of deleting Prevalidation Label Auto Rejection Scheduled job
2020-04-18 18:42:29 INFO  20180910081053489:2741 - Process started for deleting Prevalidation Label Auto Rejection Scheduled job: [commit for csi-941 v1.4]
2020-04-18 18:42:29 INFO  20180910081053489:2749 - End of deleting Prevalidation Label Auto Rejection Scheduled job
2020-04-20 16:32:16 INFO  20180910081053489:2741 - Process started for deleting Prevalidation Label Auto Rejection Scheduled job: [commit for csi-941 v1.4]
2020-04-20 16:32:16 INFO  20180910081053489:2749 - End of deleting Prevalidation Label Auto Rejection Scheduled job
2020-04-21 17:43:04 INFO  20180910081053489:2741 - Process started for deleting Prevalidation Label Auto Rejection Scheduled job: [commit for csi-941 v1.4]
2020-04-21 17:43:04 INFO  20180910081053489:2749 - End of deleting Prevalidation Label Auto Rejection Scheduled job
2020-04-21 17:58:10 INFO  20180910081053489:2741 - Process started for deleting Prevalidation Label Auto Rejection Scheduled job: [commit for csi-941 v1.4]
2020-04-21 17:58:10 INFO  20180910081053489:2749 - End of deleting Prevalidation Label Auto Rejection Scheduled job
2020-04-21 18:06:00 INFO  20180910081053489:2741 - Process started for deleting Prevalidation Label Auto Rejection Scheduled job: [commit for csi-941 v1.4]
2020-04-21 18:06:00 INFO  20180910081053489:2749 - End of deleting Prevalidation Label Auto Rejection Scheduled job
