2020-04-18 16:39:48 INFO  20200418163948908:2741 - Process started for deleting Prevalidation Label Auto Rejection Scheduled job: [commit for opprtunityhandlertest v1.0]
2020-04-18 16:39:48 INFO  20200418163948908:2749 - End of deleting Prevalidation Label Auto Rejection Scheduled job
2020-04-18 17:10:02 INFO  20200418171002973:2741 - Process started for deleting Prevalidation Label Auto Rejection Scheduled job: [commit for opprtunityhandlertest v1.0]
2020-04-18 17:10:02 INFO  20200418171002973:2749 - End of deleting Prevalidation Label Auto Rejection Scheduled job
2020-04-18 18:42:29 INFO  20200418184229934:2741 - Process started for deleting Prevalidation Label Auto Rejection Scheduled job: [commit for opprtunityhandlertest v1.0]
2020-04-18 18:42:29 INFO  20200418184229934:2749 - End of deleting Prevalidation Label Auto Rejection Scheduled job
2020-04-20 16:32:17 INFO  20200420163217326:2741 - Process started for deleting Prevalidation Label Auto Rejection Scheduled job: [commit for opprtunityhandlertest v1.0]
2020-04-20 16:32:17 INFO  20200420163217326:2749 - End of deleting Prevalidation Label Auto Rejection Scheduled job
2020-04-21 17:43:05 INFO  20200421174305620:2741 - Process started for deleting Prevalidation Label Auto Rejection Scheduled job: [commit for opprtunityhandlertest v1.0]
2020-04-21 17:43:05 INFO  20200421174305620:2749 - End of deleting Prevalidation Label Auto Rejection Scheduled job
2020-04-21 17:58:11 INFO  20200421175811355:2741 - Process started for deleting Prevalidation Label Auto Rejection Scheduled job: [commit for opprtunityhandlertest v1.0]
2020-04-21 17:58:11 INFO  20200421175811355:2749 - End of deleting Prevalidation Label Auto Rejection Scheduled job
2020-04-21 17:58:11 INFO  20200421175811355:2741 - Process started for deleting Prevalidation Label Auto Rejection Scheduled job: [commit for opptrtest test method change v1.0]
2020-04-21 17:58:11 INFO  20200421175811355:2749 - End of deleting Prevalidation Label Auto Rejection Scheduled job
2020-04-21 18:06:00 INFO  20200421180600410:2741 - Process started for deleting Prevalidation Label Auto Rejection Scheduled job: [commit for opprtunityhandlertest v1.0]
2020-04-21 18:06:00 INFO  20200421180600410:2749 - End of deleting Prevalidation Label Auto Rejection Scheduled job
