2020-04-18 16:40:00 INFO  20200418164000902:2741 - Process started for deleting Prevalidation Label Auto Rejection Scheduled job: [commit for st-4021 v1.1]
2020-04-18 16:40:00 INFO  20200418164000902:2749 - End of deleting Prevalidation Label Auto Rejection Scheduled job
2020-04-18 17:10:05 INFO  20200418171005678:2741 - Process started for deleting Prevalidation Label Auto Rejection Scheduled job: [commit for st-4021 v1.1]
2020-04-18 17:10:05 INFO  20200418171005678:2749 - End of deleting Prevalidation Label Auto Rejection Scheduled job
2020-04-18 17:10:05 INFO  20200418171005678:2741 - Process started for deleting Prevalidation Label Auto Rejection Scheduled job: [mny-731 - updated page layout assignments for the account object]
2020-04-18 17:10:05 INFO  20200418171005678:2749 - End of deleting Prevalidation Label Auto Rejection Scheduled job
2020-04-18 18:42:47 INFO  20200418184247695:2741 - Process started for deleting Prevalidation Label Auto Rejection Scheduled job: [commit for st-4021 v1.1]
2020-04-18 18:42:47 INFO  20200418184247695:2749 - End of deleting Prevalidation Label Auto Rejection Scheduled job
2020-04-20 16:32:33 INFO  20200420163233942:2741 - Process started for deleting Prevalidation Label Auto Rejection Scheduled job: [commit for st-4021 v1.1]
2020-04-20 16:32:33 INFO  20200420163233942:2749 - End of deleting Prevalidation Label Auto Rejection Scheduled job
2020-04-21 17:58:12 INFO  20200421175812929:2741 - Process started for deleting Prevalidation Label Auto Rejection Scheduled job: [commit for st-4021 v1.1]
2020-04-21 17:58:12 INFO  20200421175812929:2749 - End of deleting Prevalidation Label Auto Rejection Scheduled job
