2020-04-18 16:40:01 INFO  20200418164001095:2741 - Process started for deleting Prevalidation Label Auto Rejection Scheduled job: [commit for stl-964 v1.6]
2020-04-18 16:40:01 INFO  20200418164001095:2749 - End of deleting Prevalidation Label Auto Rejection Scheduled job
2020-04-18 17:10:05 INFO  20200418171005955:2741 - Process started for deleting Prevalidation Label Auto Rejection Scheduled job: [commit for stl-964 v1.6]
2020-04-18 17:10:05 INFO  20200418171005955:2749 - End of deleting Prevalidation Label Auto Rejection Scheduled job
2020-04-18 18:42:50 INFO  20200418184250104:2741 - Process started for deleting Prevalidation Label Auto Rejection Scheduled job: [commit for stl-964 v1.6]
2020-04-18 18:42:50 INFO  20200418184250104:2749 - End of deleting Prevalidation Label Auto Rejection Scheduled job
2020-04-20 16:32:38 INFO  20200420163238767:2741 - Process started for deleting Prevalidation Label Auto Rejection Scheduled job: [commit for stl-964 v1.6]
2020-04-20 16:32:38 INFO  20200420163238767:2749 - End of deleting Prevalidation Label Auto Rejection Scheduled job
2020-04-21 17:44:07 INFO  20200421174407024:2741 - Process started for deleting Prevalidation Label Auto Rejection Scheduled job: [commit for stl-964 v1.6]
2020-04-21 17:44:07 INFO  20200421174407024:2749 - End of deleting Prevalidation Label Auto Rejection Scheduled job
2020-04-21 18:06:02 INFO  20200421180602698:2741 - Process started for deleting Prevalidation Label Auto Rejection Scheduled job: [commit for stl-964 v1.6]
2020-04-21 18:06:02 INFO  20200421180602698:2749 - End of deleting Prevalidation Label Auto Rejection Scheduled job
