2020-04-18 16:39:48 INFO  20181113094454936:2741 - Process started for deleting Prevalidation Label Auto Rejection Scheduled job: [commit for csi-1415_1427 v1.1]
2020-04-18 16:39:48 INFO  20181113094454936:2749 - End of deleting Prevalidation Label Auto Rejection Scheduled job
2020-04-18 17:10:02 INFO  20181113094454936:2741 - Process started for deleting Prevalidation Label Auto Rejection Scheduled job: [commit for csi-1415_1427 v1.1]
2020-04-18 17:10:02 INFO  20181113094454936:2749 - End of deleting Prevalidation Label Auto Rejection Scheduled job
2020-04-18 18:42:28 INFO  20181113094454936:2741 - Process started for deleting Prevalidation Label Auto Rejection Scheduled job: [commit for csi-1415_1427 v1.1]
2020-04-18 18:42:28 INFO  20181113094454936:2749 - End of deleting Prevalidation Label Auto Rejection Scheduled job
2020-04-20 16:32:15 INFO  20181113094454936:2741 - Process started for deleting Prevalidation Label Auto Rejection Scheduled job: [commit for csi-1415_1427 v1.1]
2020-04-20 16:32:15 INFO  20181113094454936:2749 - End of deleting Prevalidation Label Auto Rejection Scheduled job
2020-04-21 17:43:01 INFO  20181113094454936:2741 - Process started for deleting Prevalidation Label Auto Rejection Scheduled job: [commit for csi-1415_1427 v1.1]
2020-04-21 17:43:01 INFO  20181113094454936:2749 - End of deleting Prevalidation Label Auto Rejection Scheduled job
2020-04-21 17:58:10 INFO  20181113094454936:2741 - Process started for deleting Prevalidation Label Auto Rejection Scheduled job: [commit for csi-1415_1427 v1.1]
2020-04-21 17:58:10 INFO  20181113094454936:2749 - End of deleting Prevalidation Label Auto Rejection Scheduled job
2020-04-21 18:05:59 INFO  20181113094454936:2741 - Process started for deleting Prevalidation Label Auto Rejection Scheduled job: [commit for csi-1415_1427 v1.1]
2020-04-21 18:05:59 INFO  20181113094454936:2749 - End of deleting Prevalidation Label Auto Rejection Scheduled job
