2020-04-18 16:39:49 INFO  20181204161139856:2741 - Process started for deleting Prevalidation Label Auto Rejection Scheduled job: [commit for st-3149 v1.9]
2020-04-18 16:39:49 INFO  20181204161139856:2749 - End of deleting Prevalidation Label Auto Rejection Scheduled job
2020-04-18 17:10:04 INFO  20181204161139856:2741 - Process started for deleting Prevalidation Label Auto Rejection Scheduled job: [commit for st-3149 v1.9]
2020-04-18 17:10:04 INFO  20181204161139856:2749 - End of deleting Prevalidation Label Auto Rejection Scheduled job
2020-04-18 18:42:35 INFO  20181204161139856:2741 - Process started for deleting Prevalidation Label Auto Rejection Scheduled job: [commit for st-3149 v1.9]
2020-04-18 18:42:35 INFO  20181204161139856:2749 - End of deleting Prevalidation Label Auto Rejection Scheduled job
2020-04-20 16:32:21 INFO  20181204161139856:2741 - Process started for deleting Prevalidation Label Auto Rejection Scheduled job: [commit for st-3149 v1.9]
2020-04-20 16:32:21 INFO  20181204161139856:2749 - End of deleting Prevalidation Label Auto Rejection Scheduled job
2020-04-21 17:43:15 INFO  20181204161139856:2741 - Process started for deleting Prevalidation Label Auto Rejection Scheduled job: [commit for st-3149 v1.9]
2020-04-21 17:43:15 INFO  20181204161139856:2749 - End of deleting Prevalidation Label Auto Rejection Scheduled job
2020-04-21 17:58:12 INFO  20181204161139856:2741 - Process started for deleting Prevalidation Label Auto Rejection Scheduled job: [commit for st-3149 v1.9]
2020-04-21 17:58:12 INFO  20181204161139856:2749 - End of deleting Prevalidation Label Auto Rejection Scheduled job
2020-04-21 18:06:01 INFO  20181204161139856:2741 - Process started for deleting Prevalidation Label Auto Rejection Scheduled job: [commit for st-3149 v1.9]
2020-04-21 18:06:01 INFO  20181204161139856:2749 - End of deleting Prevalidation Label Auto Rejection Scheduled job
