2020-04-18 16:39:49 INFO  20181024211634569:2741 - Process started for deleting Prevalidation Label Auto Rejection Scheduled job: [commit for st-2939 v2.0]
2020-04-18 16:39:49 INFO  20181024211634569:2749 - End of deleting Prevalidation Label Auto Rejection Scheduled job
2020-04-18 17:10:03 INFO  20181024211634569:2741 - Process started for deleting Prevalidation Label Auto Rejection Scheduled job: [commit for st-2939 v2.0]
2020-04-18 17:10:03 INFO  20181024211634569:2749 - End of deleting Prevalidation Label Auto Rejection Scheduled job
2020-04-18 18:42:34 INFO  20181024211634569:2741 - Process started for deleting Prevalidation Label Auto Rejection Scheduled job: [commit for st-2939 v2.0]
2020-04-18 18:42:34 INFO  20181024211634569:2749 - End of deleting Prevalidation Label Auto Rejection Scheduled job
2020-04-20 16:32:20 INFO  20181024211634569:2741 - Process started for deleting Prevalidation Label Auto Rejection Scheduled job: [commit for st-2939 v2.0]
2020-04-20 16:32:20 INFO  20181024211634569:2749 - End of deleting Prevalidation Label Auto Rejection Scheduled job
2020-04-21 17:43:13 INFO  20181024211634569:2741 - Process started for deleting Prevalidation Label Auto Rejection Scheduled job: [commit for st-2939 v2.0]
2020-04-21 17:43:13 INFO  20181024211634569:2749 - End of deleting Prevalidation Label Auto Rejection Scheduled job
2020-04-21 17:58:11 INFO  20181024211634569:2741 - Process started for deleting Prevalidation Label Auto Rejection Scheduled job: [commit for st-2939 v2.0]
2020-04-21 17:58:11 INFO  20181024211634569:2749 - End of deleting Prevalidation Label Auto Rejection Scheduled job
2020-04-21 18:06:01 INFO  20181024211634569:2741 - Process started for deleting Prevalidation Label Auto Rejection Scheduled job: [commit for st-2939 v2.0]
2020-04-21 18:06:01 INFO  20181024211634569:2749 - End of deleting Prevalidation Label Auto Rejection Scheduled job
