2020-04-18 16:40:00 INFO  20181207125814158:2741 - Process started for deleting Prevalidation Label Auto Rejection Scheduled job: [commit for st-3197 v1.0]
2020-04-18 16:40:00 INFO  20181207125814158:2749 - End of deleting Prevalidation Label Auto Rejection Scheduled job
2020-04-18 17:10:04 INFO  20181207125814158:2741 - Process started for deleting Prevalidation Label Auto Rejection Scheduled job: [commit for st-3197 v1.0]
2020-04-18 17:10:04 INFO  20181207125814158:2749 - End of deleting Prevalidation Label Auto Rejection Scheduled job
2020-04-18 18:42:45 INFO  20181207125814158:2741 - Process started for deleting Prevalidation Label Auto Rejection Scheduled job: [commit for st-3197 v1.0]
2020-04-18 18:42:45 INFO  20181207125814158:2749 - End of deleting Prevalidation Label Auto Rejection Scheduled job
2020-04-20 16:32:31 INFO  20181207125814158:2741 - Process started for deleting Prevalidation Label Auto Rejection Scheduled job: [commit for st-3197 v1.0]
2020-04-20 16:32:31 INFO  20181207125814158:2749 - End of deleting Prevalidation Label Auto Rejection Scheduled job
2020-04-21 17:43:54 INFO  20181207125814158:2741 - Process started for deleting Prevalidation Label Auto Rejection Scheduled job: [commit for st-3197 v1.0]
2020-04-21 17:43:54 INFO  20181207125814158:2749 - End of deleting Prevalidation Label Auto Rejection Scheduled job
2020-04-21 17:58:12 INFO  20181207125814158:2741 - Process started for deleting Prevalidation Label Auto Rejection Scheduled job: [commit for st-3197 v1.0]
2020-04-21 17:58:12 INFO  20181207125814158:2749 - End of deleting Prevalidation Label Auto Rejection Scheduled job
2020-04-21 18:06:01 INFO  20181207125814158:2741 - Process started for deleting Prevalidation Label Auto Rejection Scheduled job: [commit for st-3197 v1.0]
2020-04-21 18:06:01 INFO  20181207125814158:2749 - End of deleting Prevalidation Label Auto Rejection Scheduled job
