2020-04-18 16:39:48 INFO  20200418163948725:2741 - Process started for deleting Prevalidation Label Auto Rejection Scheduled job: [commit for instant tour v1.0]
2020-04-18 16:39:48 INFO  20200418163948725:2749 - End of deleting Prevalidation Label Auto Rejection Scheduled job
2020-04-18 17:10:02 INFO  20200418171002863:2741 - Process started for deleting Prevalidation Label Auto Rejection Scheduled job: [commit for instant tour v1.0]
2020-04-18 17:10:02 INFO  20200418171002863:2749 - End of deleting Prevalidation Label Auto Rejection Scheduled job
2020-04-18 18:42:29 INFO  20200418184229688:2741 - Process started for deleting Prevalidation Label Auto Rejection Scheduled job: [commit for instant tour v1.0]
2020-04-18 18:42:29 INFO  20200418184229688:2749 - End of deleting Prevalidation Label Auto Rejection Scheduled job
2020-04-20 16:32:17 INFO  20200420163217062:2741 - Process started for deleting Prevalidation Label Auto Rejection Scheduled job: [commit for instant tour v1.0]
2020-04-20 16:32:17 INFO  20200420163217062:2749 - End of deleting Prevalidation Label Auto Rejection Scheduled job
2020-04-21 17:43:04 INFO  20200421174304563:2741 - Process started for deleting Prevalidation Label Auto Rejection Scheduled job: [commit for instant tour v1.0]
2020-04-21 17:43:04 INFO  20200421174304563:2749 - End of deleting Prevalidation Label Auto Rejection Scheduled job
2020-04-21 17:58:11 INFO  20200421175811036:2741 - Process started for deleting Prevalidation Label Auto Rejection Scheduled job: [commit for instant tour v1.0]
2020-04-21 17:58:11 INFO  20200421175811036:2749 - End of deleting Prevalidation Label Auto Rejection Scheduled job
2020-04-21 18:06:00 INFO  20200421180600250:2741 - Process started for deleting Prevalidation Label Auto Rejection Scheduled job: [commit for instant tour v1.0]
2020-04-21 18:06:00 INFO  20200421180600250:2749 - End of deleting Prevalidation Label Auto Rejection Scheduled job
