2020-04-18 16:40:01 INFO  20190129074526519:2741 - Process started for deleting Prevalidation Label Auto Rejection Scheduled job: [commit for stl-131 v1.7]
2020-04-18 16:40:01 INFO  20190129074526519:2749 - End of deleting Prevalidation Label Auto Rejection Scheduled job
2020-04-18 17:10:05 INFO  20190129074526519:2741 - Process started for deleting Prevalidation Label Auto Rejection Scheduled job: [commit for stl-131 v1.7]
2020-04-18 17:10:05 INFO  20190129074526519:2749 - End of deleting Prevalidation Label Auto Rejection Scheduled job
2020-04-18 18:42:48 INFO  20190129074526519:2741 - Process started for deleting Prevalidation Label Auto Rejection Scheduled job: [commit for stl-131 v1.7]
2020-04-18 18:42:48 INFO  20190129074526519:2749 - End of deleting Prevalidation Label Auto Rejection Scheduled job
2020-04-20 16:32:34 INFO  20190129074526519:2741 - Process started for deleting Prevalidation Label Auto Rejection Scheduled job: [commit for stl-131 v1.7]
2020-04-20 16:32:34 INFO  20190129074526519:2749 - End of deleting Prevalidation Label Auto Rejection Scheduled job
2020-04-21 17:44:05 INFO  20190129074526519:2741 - Process started for deleting Prevalidation Label Auto Rejection Scheduled job: [commit for stl-131 v1.7]
2020-04-21 17:44:05 INFO  20190129074526519:2749 - End of deleting Prevalidation Label Auto Rejection Scheduled job
2020-04-21 17:58:13 INFO  20190129074526519:2741 - Process started for deleting Prevalidation Label Auto Rejection Scheduled job: [commit for stl-131 v1.7]
2020-04-21 17:58:13 INFO  20190129074526519:2749 - End of deleting Prevalidation Label Auto Rejection Scheduled job
2020-04-21 18:06:02 INFO  20190129074526519:2741 - Process started for deleting Prevalidation Label Auto Rejection Scheduled job: [commit for stl-131 v1.7]
2020-04-21 18:06:02 INFO  20190129074526519:2749 - End of deleting Prevalidation Label Auto Rejection Scheduled job
