2020-04-18 16:40:00 INFO  20190104205310799:2741 - Process started for deleting Prevalidation Label Auto Rejection Scheduled job: [commit for st-3253 v1.3]
2020-04-18 16:40:00 INFO  20190104205310799:2749 - End of deleting Prevalidation Label Auto Rejection Scheduled job
2020-04-18 17:10:05 INFO  20190104205310799:2741 - Process started for deleting Prevalidation Label Auto Rejection Scheduled job: [commit for st-3253 v1.3]
2020-04-18 17:10:05 INFO  20190104205310799:2749 - End of deleting Prevalidation Label Auto Rejection Scheduled job
2020-04-18 18:42:45 INFO  20190104205310799:2741 - Process started for deleting Prevalidation Label Auto Rejection Scheduled job: [commit for st-3253 v1.3]
2020-04-18 18:42:45 INFO  20190104205310799:2749 - End of deleting Prevalidation Label Auto Rejection Scheduled job
2020-04-20 16:32:31 INFO  20190104205310799:2741 - Process started for deleting Prevalidation Label Auto Rejection Scheduled job: [commit for st-3253 v1.3]
2020-04-20 16:32:31 INFO  20190104205310799:2749 - End of deleting Prevalidation Label Auto Rejection Scheduled job
2020-04-21 17:43:56 INFO  20190104205310799:2741 - Process started for deleting Prevalidation Label Auto Rejection Scheduled job: [commit for st-3253 v1.3]
2020-04-21 17:43:56 INFO  20190104205310799:2749 - End of deleting Prevalidation Label Auto Rejection Scheduled job
2020-04-21 17:58:12 INFO  20190104205310799:2741 - Process started for deleting Prevalidation Label Auto Rejection Scheduled job: [commit for st-3253 v1.3]
2020-04-21 17:58:12 INFO  20190104205310799:2749 - End of deleting Prevalidation Label Auto Rejection Scheduled job
2020-04-21 18:06:01 INFO  20190104205310799:2741 - Process started for deleting Prevalidation Label Auto Rejection Scheduled job: [commit for st-3253 v1.3]
2020-04-21 18:06:01 INFO  20190104205310799:2749 - End of deleting Prevalidation Label Auto Rejection Scheduled job
