2020-04-18 16:39:49 INFO  20181101161949628:2741 - Process started for deleting Prevalidation Label Auto Rejection Scheduled job: [commit for st-2858 v1.4]
2020-04-18 16:39:49 INFO  20181101161949628:2749 - End of deleting Prevalidation Label Auto Rejection Scheduled job
2020-04-18 17:10:03 INFO  20181101161949628:2741 - Process started for deleting Prevalidation Label Auto Rejection Scheduled job: [commit for st-2858 v1.4]
2020-04-18 17:10:03 INFO  20181101161949628:2749 - End of deleting Prevalidation Label Auto Rejection Scheduled job
2020-04-18 18:42:33 INFO  20181101161949628:2741 - Process started for deleting Prevalidation Label Auto Rejection Scheduled job: [commit for st-2858 v1.4]
2020-04-18 18:42:33 INFO  20181101161949628:2749 - End of deleting Prevalidation Label Auto Rejection Scheduled job
2020-04-20 16:32:20 INFO  20181101161949628:2741 - Process started for deleting Prevalidation Label Auto Rejection Scheduled job: [commit for st-2858 v1.4]
2020-04-20 16:32:20 INFO  20181101161949628:2749 - End of deleting Prevalidation Label Auto Rejection Scheduled job
2020-04-21 17:43:11 INFO  20181101161949628:2741 - Process started for deleting Prevalidation Label Auto Rejection Scheduled job: [commit for st-2858 v1.4]
2020-04-21 17:43:11 INFO  20181101161949628:2749 - End of deleting Prevalidation Label Auto Rejection Scheduled job
2020-04-21 17:58:11 INFO  20181101161949628:2741 - Process started for deleting Prevalidation Label Auto Rejection Scheduled job: [commit for st-2858 v1.4]
2020-04-21 17:58:11 INFO  20181101161949628:2749 - End of deleting Prevalidation Label Auto Rejection Scheduled job
2020-04-21 18:06:01 INFO  20181101161949628:2741 - Process started for deleting Prevalidation Label Auto Rejection Scheduled job: [commit for st-2858 v1.4]
2020-04-21 18:06:01 INFO  20181101161949628:2749 - End of deleting Prevalidation Label Auto Rejection Scheduled job
