2020-04-18 16:39:48 INFO  20200418163948119:2741 - Process started for deleting Prevalidation Label Auto Rejection Scheduled job: [commit for  st-2661 and st-2663]
2020-04-18 16:39:48 INFO  20200418163948119:2749 - End of deleting Prevalidation Label Auto Rejection Scheduled job
2020-04-18 17:10:00 INFO  20200418171000898:2741 - Process started for deleting Prevalidation Label Auto Rejection Scheduled job: [commit for  st-2661 and st-2663]
2020-04-18 17:10:00 INFO  20200418171000898:2749 - End of deleting Prevalidation Label Auto Rejection Scheduled job
2020-04-18 18:42:26 INFO  20200418184226953:2741 - Process started for deleting Prevalidation Label Auto Rejection Scheduled job: [commit for  st-2661 and st-2663]
2020-04-18 18:42:26 INFO  20200418184226953:2749 - End of deleting Prevalidation Label Auto Rejection Scheduled job
2020-04-20 16:32:13 INFO  20200420163213344:2741 - Process started for deleting Prevalidation Label Auto Rejection Scheduled job: [commit for  st-2661 and st-2663]
2020-04-20 16:32:13 INFO  20200420163213344:2749 - End of deleting Prevalidation Label Auto Rejection Scheduled job
2020-04-20 16:32:13 INFO  20200420163213344:2741 - Process started for deleting Prevalidation Label Auto Rejection Scheduled job: [commit for  st-2733 v1.1]
2020-04-20 16:32:13 INFO  20200420163213344:2749 - End of deleting Prevalidation Label Auto Rejection Scheduled job
2020-04-21 17:42:58 INFO  20200421174258119:2741 - Process started for deleting Prevalidation Label Auto Rejection Scheduled job: [commit for  st-2661 and st-2663]
2020-04-21 17:42:58 INFO  20200421174258119:2749 - End of deleting Prevalidation Label Auto Rejection Scheduled job
2020-04-21 17:58:10 INFO  20200421175810215:2741 - Process started for deleting Prevalidation Label Auto Rejection Scheduled job: [commit for  st-2661 and st-2663]
2020-04-21 17:58:10 INFO  20200421175810215:2749 - End of deleting Prevalidation Label Auto Rejection Scheduled job
2020-04-21 18:05:59 INFO  20200421180559524:2741 - Process started for deleting Prevalidation Label Auto Rejection Scheduled job: [commit for  st-2661 and st-2663]
2020-04-21 18:05:59 INFO  20200421180559524:2749 - End of deleting Prevalidation Label Auto Rejection Scheduled job
