2020-04-18 16:39:48 INFO  20190320192251788:2741 - Process started for deleting Prevalidation Label Auto Rejection Scheduled job: [commit for l-2915432 v1.1]
2020-04-18 16:39:48 INFO  20190320192251788:2749 - End of deleting Prevalidation Label Auto Rejection Scheduled job
2020-04-18 17:10:02 INFO  20190320192251788:2741 - Process started for deleting Prevalidation Label Auto Rejection Scheduled job: [commit for l-2915432 v1.1]
2020-04-18 17:10:02 INFO  20190320192251788:2749 - End of deleting Prevalidation Label Auto Rejection Scheduled job
2020-04-18 18:42:29 INFO  20190320192251788:2741 - Process started for deleting Prevalidation Label Auto Rejection Scheduled job: [commit for l-2915432 v1.1]
2020-04-18 18:42:29 INFO  20190320192251788:2749 - End of deleting Prevalidation Label Auto Rejection Scheduled job
2020-04-20 16:32:17 INFO  20190320192251788:2741 - Process started for deleting Prevalidation Label Auto Rejection Scheduled job: [commit for l-2915432 v1.1]
2020-04-20 16:32:17 INFO  20190320192251788:2749 - End of deleting Prevalidation Label Auto Rejection Scheduled job
2020-04-21 17:43:04 INFO  20190320192251788:2741 - Process started for deleting Prevalidation Label Auto Rejection Scheduled job: [commit for l-2915432 v1.1]
2020-04-21 17:43:04 INFO  20190320192251788:2749 - End of deleting Prevalidation Label Auto Rejection Scheduled job
2020-04-21 17:58:11 INFO  20190320192251788:2741 - Process started for deleting Prevalidation Label Auto Rejection Scheduled job: [commit for l-2915432 v1.1]
2020-04-21 17:58:11 INFO  20190320192251788:2749 - End of deleting Prevalidation Label Auto Rejection Scheduled job
2020-04-21 18:06:00 INFO  20190320192251788:2741 - Process started for deleting Prevalidation Label Auto Rejection Scheduled job: [commit for l-2915432 v1.1]
2020-04-21 18:06:00 INFO  20190320192251788:2749 - End of deleting Prevalidation Label Auto Rejection Scheduled job
