2020-04-18 16:40:00 INFO  20200418164000983:2741 - Process started for deleting Prevalidation Label Auto Rejection Scheduled job: [commit for st-4326 v1.0]
2020-04-18 16:40:00 INFO  20200418164000983:2749 - End of deleting Prevalidation Label Auto Rejection Scheduled job
2020-04-18 17:10:05 INFO  20200418171005802:2741 - Process started for deleting Prevalidation Label Auto Rejection Scheduled job: [commit for st-4326 v1.0]
2020-04-18 17:10:05 INFO  20200418171005802:2749 - End of deleting Prevalidation Label Auto Rejection Scheduled job
2020-04-18 18:42:48 INFO  20200418184248369:2741 - Process started for deleting Prevalidation Label Auto Rejection Scheduled job: [commit for st-4326 v1.0]
2020-04-18 18:42:48 INFO  20200418184248369:2749 - End of deleting Prevalidation Label Auto Rejection Scheduled job
2020-04-20 16:32:34 INFO  20200420163234670:2741 - Process started for deleting Prevalidation Label Auto Rejection Scheduled job: [commit for st-4326 v1.0]
2020-04-20 16:32:34 INFO  20200420163234670:2749 - End of deleting Prevalidation Label Auto Rejection Scheduled job
2020-04-21 17:44:05 INFO  20200421174405125:2741 - Process started for deleting Prevalidation Label Auto Rejection Scheduled job: [commit for st-4326 v1.0]
2020-04-21 17:44:05 INFO  20200421174405125:2749 - End of deleting Prevalidation Label Auto Rejection Scheduled job
