2020-04-18 16:39:48 INFO  20181220190642825:2741 - Process started for deleting Prevalidation Label Auto Rejection Scheduled job: [commit for roe and core-38 sprint changes v1.7]
2020-04-18 16:39:48 INFO  20181220190642825:2749 - End of deleting Prevalidation Label Auto Rejection Scheduled job
2020-04-18 17:10:03 INFO  20181220190642825:2741 - Process started for deleting Prevalidation Label Auto Rejection Scheduled job: [commit for roe and core-38 sprint changes v1.7]
2020-04-18 17:10:03 INFO  20181220190642825:2749 - End of deleting Prevalidation Label Auto Rejection Scheduled job
2020-04-18 18:42:30 INFO  20181220190642825:2741 - Process started for deleting Prevalidation Label Auto Rejection Scheduled job: [commit for roe and core-38 sprint changes v1.7]
2020-04-18 18:42:30 INFO  20181220190642825:2749 - End of deleting Prevalidation Label Auto Rejection Scheduled job
2020-04-20 16:32:17 INFO  20181220190642825:2741 - Process started for deleting Prevalidation Label Auto Rejection Scheduled job: [commit for roe and core-38 sprint changes v1.7]
2020-04-20 16:32:17 INFO  20181220190642825:2749 - End of deleting Prevalidation Label Auto Rejection Scheduled job
2020-04-21 17:43:06 INFO  20181220190642825:2741 - Process started for deleting Prevalidation Label Auto Rejection Scheduled job: [commit for roe and core-38 sprint changes v1.7]
2020-04-21 17:43:06 INFO  20181220190642825:2749 - End of deleting Prevalidation Label Auto Rejection Scheduled job
2020-04-21 17:58:11 INFO  20181220190642825:2741 - Process started for deleting Prevalidation Label Auto Rejection Scheduled job: [commit for roe and core-38 sprint changes v1.7]
2020-04-21 17:58:11 INFO  20181220190642825:2749 - End of deleting Prevalidation Label Auto Rejection Scheduled job
2020-04-21 18:06:00 INFO  20181220190642825:2741 - Process started for deleting Prevalidation Label Auto Rejection Scheduled job: [commit for roe and core-38 sprint changes v1.7]
2020-04-21 18:06:00 INFO  20181220190642825:2749 - End of deleting Prevalidation Label Auto Rejection Scheduled job
