2020-04-18 16:40:01 INFO  20190414120203407:2741 - Process started for deleting Prevalidation Label Auto Rejection Scheduled job: [commit tour override to branch v1.3]
2020-04-18 16:40:01 INFO  20190414120203407:2749 - End of deleting Prevalidation Label Auto Rejection Scheduled job
2020-04-18 17:10:06 INFO  20190414120203407:2741 - Process started for deleting Prevalidation Label Auto Rejection Scheduled job: [commit tour override to branch v1.3]
2020-04-18 17:10:06 INFO  20190414120203407:2749 - End of deleting Prevalidation Label Auto Rejection Scheduled job
2020-04-18 18:42:53 INFO  20190414120203407:2741 - Process started for deleting Prevalidation Label Auto Rejection Scheduled job: [commit tour override to branch v1.3]
2020-04-18 18:42:53 INFO  20190414120203407:2749 - End of deleting Prevalidation Label Auto Rejection Scheduled job
2020-04-20 16:32:43 INFO  20190414120203407:2741 - Process started for deleting Prevalidation Label Auto Rejection Scheduled job: [commit tour override to branch v1.3]
2020-04-20 16:32:43 INFO  20190414120203407:2749 - End of deleting Prevalidation Label Auto Rejection Scheduled job
2020-04-21 17:44:18 INFO  20190414120203407:2741 - Process started for deleting Prevalidation Label Auto Rejection Scheduled job: [commit tour override to branch v1.3]
2020-04-21 17:44:18 INFO  20190414120203407:2749 - End of deleting Prevalidation Label Auto Rejection Scheduled job
2020-04-21 17:58:13 INFO  20190414120203407:2741 - Process started for deleting Prevalidation Label Auto Rejection Scheduled job: [commit tour override to branch v1.3]
2020-04-21 17:58:13 INFO  20190414120203407:2749 - End of deleting Prevalidation Label Auto Rejection Scheduled job
2020-04-21 18:06:02 INFO  20190414120203407:2741 - Process started for deleting Prevalidation Label Auto Rejection Scheduled job: [commit tour override to branch v1.3]
2020-04-21 18:06:02 INFO  20190414120203407:2749 - End of deleting Prevalidation Label Auto Rejection Scheduled job
