2020-04-18 16:40:01 INFO  20200418164001001:2741 - Process started for deleting Prevalidation Label Auto Rejection Scheduled job: [commit for st-4528 v1.1]
2020-04-18 16:40:01 INFO  20200418164001001:2749 - End of deleting Prevalidation Label Auto Rejection Scheduled job
2020-04-18 18:42:48 INFO  20200418184248421:2741 - Process started for deleting Prevalidation Label Auto Rejection Scheduled job: [commit for st-4528 v1.1]
2020-04-18 18:42:48 INFO  20200418184248421:2749 - End of deleting Prevalidation Label Auto Rejection Scheduled job
2020-04-18 18:42:48 INFO  20200418184248421:2741 - Process started for deleting Prevalidation Label Auto Rejection Scheduled job: [commit for st-4528 v1.2]
2020-04-18 18:42:48 INFO  20200418184248421:2749 - End of deleting Prevalidation Label Auto Rejection Scheduled job
2020-04-20 16:32:34 INFO  20200420163234758:2741 - Process started for deleting Prevalidation Label Auto Rejection Scheduled job: [commit for st-4528 v1.1]
2020-04-20 16:32:34 INFO  20200420163234758:2749 - End of deleting Prevalidation Label Auto Rejection Scheduled job
2020-04-21 17:44:05 INFO  20200421174405382:2741 - Process started for deleting Prevalidation Label Auto Rejection Scheduled job: [commit for st-4528 v1.1]
2020-04-21 17:44:05 INFO  20200421174405382:2749 - End of deleting Prevalidation Label Auto Rejection Scheduled job
2020-04-21 18:06:02 INFO  20200421180602521:2741 - Process started for deleting Prevalidation Label Auto Rejection Scheduled job: [commit for st-4528 v1.1]
2020-04-21 18:06:02 INFO  20200421180602521:2749 - End of deleting Prevalidation Label Auto Rejection Scheduled job
