2020-04-18 16:40:00 INFO  20200418164000914:2741 - Process started for deleting Prevalidation Label Auto Rejection Scheduled job: [commit for st-4034 v1.9]
2020-04-18 16:40:00 INFO  20200418164000914:2749 - End of deleting Prevalidation Label Auto Rejection Scheduled job
2020-04-18 16:40:00 INFO  20200418164000914:2741 - Process started for deleting Prevalidation Label Auto Rejection Scheduled job: [commit for st-4034]
2020-04-18 16:40:00 INFO  20200418164000914:2749 - End of deleting Prevalidation Label Auto Rejection Scheduled job
2020-04-18 16:40:00 INFO  20200418164000914:2741 - Process started for deleting Prevalidation Label Auto Rejection Scheduled job: [commit for st-4067 v1.0]
2020-04-18 16:40:00 INFO  20200418164000914:2749 - End of deleting Prevalidation Label Auto Rejection Scheduled job
2020-04-21 17:44:03 INFO  20200421174403797:2741 - Process started for deleting Prevalidation Label Auto Rejection Scheduled job: [commit for st-4034 v1.9]
2020-04-21 17:44:03 INFO  20200421174403797:2749 - End of deleting Prevalidation Label Auto Rejection Scheduled job
2020-04-21 18:06:02 INFO  20200421180602412:2741 - Process started for deleting Prevalidation Label Auto Rejection Scheduled job: [commit for st-4034 v1.9]
2020-04-21 18:06:02 INFO  20200421180602412:2749 - End of deleting Prevalidation Label Auto Rejection Scheduled job
