2020-04-18 18:42:31 INFO  20200418184231282:2741 - Process started for deleting Prevalidation Label Auto Rejection Scheduled job: [commit for st-2664 v1.2]
2020-04-18 18:42:31 INFO  20200418184231282:2749 - End of deleting Prevalidation Label Auto Rejection Scheduled job
2020-04-20 16:32:18 INFO  20200420163218193:2741 - Process started for deleting Prevalidation Label Auto Rejection Scheduled job: [commit for st-2664 v1.2]
2020-04-20 16:32:18 INFO  20200420163218193:2749 - End of deleting Prevalidation Label Auto Rejection Scheduled job
2020-04-20 16:32:18 INFO  20200420163218193:2741 - Process started for deleting Prevalidation Label Auto Rejection Scheduled job: [commit for st-2669 st-2670 and st-2654 v1.0]
2020-04-20 16:32:18 INFO  20200420163218193:2749 - End of deleting Prevalidation Label Auto Rejection Scheduled job
2020-04-21 17:43:08 INFO  20200421174308445:2741 - Process started for deleting Prevalidation Label Auto Rejection Scheduled job: [commit for st-2664 v1.2]
2020-04-21 17:43:08 INFO  20200421174308445:2749 - End of deleting Prevalidation Label Auto Rejection Scheduled job
2020-04-21 17:58:11 INFO  20200421175811538:2741 - Process started for deleting Prevalidation Label Auto Rejection Scheduled job: [commit for st-2664 v1.2]
2020-04-21 17:58:11 INFO  20200421175811538:2749 - End of deleting Prevalidation Label Auto Rejection Scheduled job
2020-04-21 18:06:00 INFO  20200421180600607:2741 - Process started for deleting Prevalidation Label Auto Rejection Scheduled job: [commit for st-2664 v1.2]
2020-04-21 18:06:00 INFO  20200421180600607:2749 - End of deleting Prevalidation Label Auto Rejection Scheduled job
