2020-04-18 16:40:01 INFO  20190422074355154:2741 - Process started for deleting Prevalidation Label Auto Rejection Scheduled job: [stl317 prevent multiple opps v. 1.6]
2020-04-18 16:40:01 INFO  20190422074355154:2749 - End of deleting Prevalidation Label Auto Rejection Scheduled job
2020-04-18 17:10:06 INFO  20190422074355154:2741 - Process started for deleting Prevalidation Label Auto Rejection Scheduled job: [stl317 prevent multiple opps v. 1.6]
2020-04-18 17:10:06 INFO  20190422074355154:2749 - End of deleting Prevalidation Label Auto Rejection Scheduled job
2020-04-18 18:42:54 INFO  20190422074355154:2741 - Process started for deleting Prevalidation Label Auto Rejection Scheduled job: [stl317 prevent multiple opps v. 1.6]
2020-04-18 18:42:54 INFO  20190422074355154:2749 - End of deleting Prevalidation Label Auto Rejection Scheduled job
2020-04-20 16:32:43 INFO  20190422074355154:2741 - Process started for deleting Prevalidation Label Auto Rejection Scheduled job: [stl317 prevent multiple opps v. 1.6]
2020-04-20 16:32:43 INFO  20190422074355154:2749 - End of deleting Prevalidation Label Auto Rejection Scheduled job
2020-04-21 17:44:21 INFO  20190422074355154:2741 - Process started for deleting Prevalidation Label Auto Rejection Scheduled job: [stl317 prevent multiple opps v. 1.6]
2020-04-21 17:44:21 INFO  20190422074355154:2749 - End of deleting Prevalidation Label Auto Rejection Scheduled job
2020-04-21 17:58:13 INFO  20190422074355154:2741 - Process started for deleting Prevalidation Label Auto Rejection Scheduled job: [stl317 prevent multiple opps v. 1.6]
2020-04-21 17:58:13 INFO  20190422074355154:2749 - End of deleting Prevalidation Label Auto Rejection Scheduled job
2020-04-21 18:06:03 INFO  20190422074355154:2741 - Process started for deleting Prevalidation Label Auto Rejection Scheduled job: [stl317 prevent multiple opps v. 1.6]
2020-04-21 18:06:03 INFO  20190422074355154:2749 - End of deleting Prevalidation Label Auto Rejection Scheduled job
