2020-04-18 18:42:54 INFO  20200418184254302:2741 - Process started for deleting Prevalidation Label Auto Rejection Scheduled job: changes for getting branches at same level
2020-04-18 18:42:54 INFO  20200418184254302:2749 - End of deleting Prevalidation Label Auto Rejection Scheduled job
2020-04-20 16:32:43 INFO  20200420163243718:2741 - Process started for deleting Prevalidation Label Auto Rejection Scheduled job: changes for getting branches at same level
2020-04-20 16:32:43 INFO  20200420163243718:2749 - End of deleting Prevalidation Label Auto Rejection Scheduled job
2020-04-20 16:32:43 INFO  20200420163243718:2741 - Process started for deleting Prevalidation Label Auto Rejection Scheduled job: changes for manage tour
2020-04-20 16:32:43 INFO  20200420163243718:2749 - End of deleting Prevalidation Label Auto Rejection Scheduled job
2020-04-21 17:58:13 INFO  20200421175813718:2741 - Process started for deleting Prevalidation Label Auto Rejection Scheduled job: changes for getting branches at same level
2020-04-21 17:58:13 INFO  20200421175813718:2749 - End of deleting Prevalidation Label Auto Rejection Scheduled job
2020-04-21 18:06:03 INFO  20200421180603076:2741 - Process started for deleting Prevalidation Label Auto Rejection Scheduled job: changes for getting branches at same level
2020-04-21 18:06:03 INFO  20200421180603076:2749 - End of deleting Prevalidation Label Auto Rejection Scheduled job
2020-04-21 18:06:03 INFO  20200421180603076:2741 - Process started for deleting Prevalidation Label Auto Rejection Scheduled job: [mny-1081 meeting type new business]
2020-04-21 18:06:03 INFO  20200421180603076:2749 - End of deleting Prevalidation Label Auto Rejection Scheduled job
