2020-04-18 18:42:54 INFO  20200418184254512:2741 - Process started for deleting Prevalidation Label Auto Rejection Scheduled job: commit for retroactive referral v1.0
2020-04-18 18:42:54 INFO  20200418184254512:2749 - End of deleting Prevalidation Label Auto Rejection Scheduled job
2020-04-20 16:32:44 INFO  20200420163244728:2741 - Process started for deleting Prevalidation Label Auto Rejection Scheduled job: commit for retroactive referral v1.0
2020-04-20 16:32:44 INFO  20200420163244728:2749 - End of deleting Prevalidation Label Auto Rejection Scheduled job
2020-04-21 17:44:22 INFO  20200421174422622:2741 - Process started for deleting Prevalidation Label Auto Rejection Scheduled job: commit for retroactive referral v1.0
2020-04-21 17:44:22 INFO  20200421174422622:2749 - End of deleting Prevalidation Label Auto Rejection Scheduled job
