2020-04-18 16:40:01 INFO  20200418164001773:2741 - Process started for deleting Prevalidation Label Auto Rejection Scheduled job: commit for restrict sales account to reparenting billingaccount to bypass specified profiles changes 
2020-04-18 16:40:01 INFO  20200418164001773:2749 - End of deleting Prevalidation Label Auto Rejection Scheduled job
2020-04-18 16:40:01 INFO  20200418164001773:2741 - Process started for deleting Prevalidation Label Auto Rejection Scheduled job: commit for retroactive referral v1.0
2020-04-18 16:40:01 INFO  20200418164001773:2749 - End of deleting Prevalidation Label Auto Rejection Scheduled job
2020-04-18 16:40:01 INFO  20200418164001773:2741 - Process started for deleting Prevalidation Label Auto Rejection Scheduled job: commit for rollbar building v1.0
2020-04-18 16:40:01 INFO  20200418164001773:2749 - End of deleting Prevalidation Label Auto Rejection Scheduled job
2020-04-18 18:42:54 INFO  20200418184254511:2741 - Process started for deleting Prevalidation Label Auto Rejection Scheduled job: commit for restrict sales account to reparenting billingaccount to bypass specified profiles changes 
2020-04-18 18:42:54 INFO  20200418184254511:2749 - End of deleting Prevalidation Label Auto Rejection Scheduled job
2020-04-20 16:32:44 INFO  20200420163244727:2741 - Process started for deleting Prevalidation Label Auto Rejection Scheduled job: commit for restrict sales account to reparenting billingaccount to bypass specified profiles changes 
2020-04-20 16:32:44 INFO  20200420163244727:2749 - End of deleting Prevalidation Label Auto Rejection Scheduled job
2020-04-21 17:44:22 INFO  20200421174422621:2741 - Process started for deleting Prevalidation Label Auto Rejection Scheduled job: commit for restrict sales account to reparenting billingaccount to bypass specified profiles changes 
2020-04-21 17:44:22 INFO  20200421174422621:2749 - End of deleting Prevalidation Label Auto Rejection Scheduled job
2020-04-21 17:58:13 INFO  20200421175813882:2741 - Process started for deleting Prevalidation Label Auto Rejection Scheduled job: commit for restrict sales account to reparenting billingaccount to bypass specified profiles changes 
2020-04-21 17:58:13 INFO  20200421175813882:2749 - End of deleting Prevalidation Label Auto Rejection Scheduled job
2020-04-21 17:58:13 INFO  20200421175813882:2741 - Process started for deleting Prevalidation Label Auto Rejection Scheduled job: commit for retroactive referral v1.0
2020-04-21 17:58:13 INFO  20200421175813882:2749 - End of deleting Prevalidation Label Auto Rejection Scheduled job
