2020-04-18 16:40:01 INFO  20200418164001769:2741 - Process started for deleting Prevalidation Label Auto Rejection Scheduled job: commit for menu button integration
2020-04-18 16:40:01 INFO  20200418164001769:2749 - End of deleting Prevalidation Label Auto Rejection Scheduled job
2020-04-18 16:40:01 INFO  20200418164001769:2741 - Process started for deleting Prevalidation Label Auto Rejection Scheduled job: commit for merge org ui ux v1.0
2020-04-18 16:40:01 INFO  20200418164001769:2749 - End of deleting Prevalidation Label Auto Rejection Scheduled job
2020-04-18 16:40:01 INFO  20200418164001769:2741 - Process started for deleting Prevalidation Label Auto Rejection Scheduled job: commit for merge org ui ux v1.1
2020-04-18 16:40:01 INFO  20200418164001769:2749 - End of deleting Prevalidation Label Auto Rejection Scheduled job
2020-04-18 18:42:54 INFO  20200418184254499:2741 - Process started for deleting Prevalidation Label Auto Rejection Scheduled job: commit for menu button integration
2020-04-18 18:42:54 INFO  20200418184254499:2749 - End of deleting Prevalidation Label Auto Rejection Scheduled job
2020-04-20 16:32:44 INFO  20200420163244718:2741 - Process started for deleting Prevalidation Label Auto Rejection Scheduled job: commit for menu button integration
2020-04-20 16:32:44 INFO  20200420163244718:2749 - End of deleting Prevalidation Label Auto Rejection Scheduled job
2020-04-21 17:58:13 INFO  20200421175813871:2741 - Process started for deleting Prevalidation Label Auto Rejection Scheduled job: commit for menu button integration
2020-04-21 17:58:13 INFO  20200421175813871:2749 - End of deleting Prevalidation Label Auto Rejection Scheduled job
