2020-04-18 16:40:01 INFO  20200418164001741:2741 - Process started for deleting Prevalidation Label Auto Rejection Scheduled job: commit bug fixes on venus v1.9
2020-04-18 16:40:01 INFO  20200418164001741:2749 - End of deleting Prevalidation Label Auto Rejection Scheduled job
2020-04-18 16:40:01 INFO  20200418164001741:2741 - Process started for deleting Prevalidation Label Auto Rejection Scheduled job: commit for 28infra and 3ent sprint issues v1.0
2020-04-18 16:40:01 INFO  20200418164001741:2749 - End of deleting Prevalidation Label Auto Rejection Scheduled job
2020-04-20 16:32:44 INFO  20200420163244621:2741 - Process started for deleting Prevalidation Label Auto Rejection Scheduled job: commit bug fixes on venus v1.9
2020-04-20 16:32:44 INFO  20200420163244621:2749 - End of deleting Prevalidation Label Auto Rejection Scheduled job
2020-04-20 16:32:44 INFO  20200420163244621:2741 - Process started for deleting Prevalidation Label Auto Rejection Scheduled job: commit for 28infra and 3ent sprint issues v1.0
2020-04-20 16:32:44 INFO  20200420163244621:2749 - End of deleting Prevalidation Label Auto Rejection Scheduled job
2020-04-21 17:44:22 INFO  20200421174422494:2741 - Process started for deleting Prevalidation Label Auto Rejection Scheduled job: commit bug fixes on venus v1.9
2020-04-21 17:44:22 INFO  20200421174422494:2749 - End of deleting Prevalidation Label Auto Rejection Scheduled job
