2020-04-18 16:40:01 INFO  20200418164001805:2741 - Process started for deleting Prevalidation Label Auto Rejection Scheduled job: commit for st-2547 v 1.2
2020-04-18 16:40:01 INFO  20200418164001805:2749 - End of deleting Prevalidation Label Auto Rejection Scheduled job
2020-04-20 16:32:44 INFO  20200420163244928:2741 - Process started for deleting Prevalidation Label Auto Rejection Scheduled job: commit for st-2547 v 1.2
2020-04-20 16:32:44 INFO  20200420163244928:2749 - End of deleting Prevalidation Label Auto Rejection Scheduled job
2020-04-20 16:32:44 INFO  20200420163244928:2741 - Process started for deleting Prevalidation Label Auto Rejection Scheduled job: commit for st-2547 v1.0
2020-04-20 16:32:44 INFO  20200420163244928:2749 - End of deleting Prevalidation Label Auto Rejection Scheduled job
2020-04-21 17:44:23 INFO  20200421174423026:2741 - Process started for deleting Prevalidation Label Auto Rejection Scheduled job: commit for st-2547 v 1.2
2020-04-21 17:44:23 INFO  20200421174423026:2749 - End of deleting Prevalidation Label Auto Rejection Scheduled job
2020-04-21 17:58:13 INFO  20200421175813944:2741 - Process started for deleting Prevalidation Label Auto Rejection Scheduled job: commit for st-2547 v 1.2
2020-04-21 17:58:13 INFO  20200421175813944:2749 - End of deleting Prevalidation Label Auto Rejection Scheduled job
2020-04-21 17:58:13 INFO  20200421175813944:2741 - Process started for deleting Prevalidation Label Auto Rejection Scheduled job: commit for st-2547 v1.0
2020-04-21 17:58:13 INFO  20200421175813944:2749 - End of deleting Prevalidation Label Auto Rejection Scheduled job
