2020-04-18 17:10:06 INFO  20200418171006384:2741 - Process started for deleting Prevalidation Label Auto Rejection Scheduled job: commit for st-2201 v1.4
2020-04-18 17:10:06 INFO  20200418171006384:2749 - End of deleting Prevalidation Label Auto Rejection Scheduled job
2020-04-18 18:42:54 INFO  20200418184254581:2741 - Process started for deleting Prevalidation Label Auto Rejection Scheduled job: commit for st-2201 v1.4
2020-04-18 18:42:54 INFO  20200418184254581:2749 - End of deleting Prevalidation Label Auto Rejection Scheduled job
2020-04-18 18:42:54 INFO  20200418184254581:2741 - Process started for deleting Prevalidation Label Auto Rejection Scheduled job: commit for st-2267
2020-04-18 18:42:54 INFO  20200418184254581:2749 - End of deleting Prevalidation Label Auto Rejection Scheduled job
2020-04-20 16:32:44 INFO  20200420163244764:2741 - Process started for deleting Prevalidation Label Auto Rejection Scheduled job: commit for st-2201 v1.4
2020-04-20 16:32:44 INFO  20200420163244764:2749 - End of deleting Prevalidation Label Auto Rejection Scheduled job
2020-04-21 17:44:22 INFO  20200421174422704:2741 - Process started for deleting Prevalidation Label Auto Rejection Scheduled job: commit for st-2201 v1.4
2020-04-21 17:44:22 INFO  20200421174422704:2749 - End of deleting Prevalidation Label Auto Rejection Scheduled job
