2020-04-18 16:40:01 INFO  20200418164001762:2741 - Process started for deleting Prevalidation Label Auto Rejection Scheduled job: commit for enziinputmultiselect component
2020-04-18 16:40:01 INFO  20200418164001762:2749 - End of deleting Prevalidation Label Auto Rejection Scheduled job
2020-04-18 16:40:01 INFO  20200418164001762:2741 - Process started for deleting Prevalidation Label Auto Rejection Scheduled job: commit for feature driven development demo v1.0
2020-04-18 16:40:01 INFO  20200418164001762:2749 - End of deleting Prevalidation Label Auto Rejection Scheduled job
2020-04-18 16:40:01 INFO  20200418164001762:2741 - Process started for deleting Prevalidation Label Auto Rejection Scheduled job: commit for feature driven development demo v1.1
2020-04-18 16:40:01 INFO  20200418164001762:2749 - End of deleting Prevalidation Label Auto Rejection Scheduled job
2020-04-18 18:42:54 INFO  20200418184254456:2741 - Process started for deleting Prevalidation Label Auto Rejection Scheduled job: commit for enziinputmultiselect component
2020-04-18 18:42:54 INFO  20200418184254456:2749 - End of deleting Prevalidation Label Auto Rejection Scheduled job
2020-04-21 17:58:13 INFO  20200421175813833:2741 - Process started for deleting Prevalidation Label Auto Rejection Scheduled job: commit for enziinputmultiselect component
2020-04-21 17:58:13 INFO  20200421175813833:2749 - End of deleting Prevalidation Label Auto Rejection Scheduled job
