2020-04-18 18:42:54 INFO  20200418184254420:2741 - Process started for deleting Prevalidation Label Auto Rejection Scheduled job: commit for bugfix sheet
2020-04-18 18:42:54 INFO  20200418184254420:2749 - End of deleting Prevalidation Label Auto Rejection Scheduled job
2020-04-20 16:32:44 INFO  20200420163244639:2741 - Process started for deleting Prevalidation Label Auto Rejection Scheduled job: commit for bugfix sheet
2020-04-20 16:32:44 INFO  20200420163244639:2749 - End of deleting Prevalidation Label Auto Rejection Scheduled job
2020-04-20 16:32:44 INFO  20200420163244639:2741 - Process started for deleting Prevalidation Label Auto Rejection Scheduled job: commit for building layouts fixes v1.0
2020-04-20 16:32:44 INFO  20200420163244639:2749 - End of deleting Prevalidation Label Auto Rejection Scheduled job
2020-04-21 17:44:22 INFO  20200421174422523:2741 - Process started for deleting Prevalidation Label Auto Rejection Scheduled job: commit for bugfix sheet
2020-04-21 17:44:22 INFO  20200421174422523:2749 - End of deleting Prevalidation Label Auto Rejection Scheduled job
