2020-04-18 18:42:54 INFO  20200418184254777:2741 - Process started for deleting Prevalidation Label Auto Rejection Scheduled job: st-2439
2020-04-18 18:42:54 INFO  20200418184254777:2749 - End of deleting Prevalidation Label Auto Rejection Scheduled job
2020-04-20 16:32:45 INFO  20200420163245074:2741 - Process started for deleting Prevalidation Label Auto Rejection Scheduled job: st-2439
2020-04-20 16:32:45 INFO  20200420163245074:2749 - End of deleting Prevalidation Label Auto Rejection Scheduled job
2020-04-20 16:32:45 INFO  20200420163245074:2741 - Process started for deleting Prevalidation Label Auto Rejection Scheduled job: st-2460 journey importer changes v1.0
2020-04-20 16:32:45 INFO  20200420163245074:2749 - End of deleting Prevalidation Label Auto Rejection Scheduled job
2020-04-21 17:44:23 INFO  20200421174423118:2741 - Process started for deleting Prevalidation Label Auto Rejection Scheduled job: st-2439
2020-04-21 17:44:23 INFO  20200421174423118:2749 - End of deleting Prevalidation Label Auto Rejection Scheduled job
