2020-02-10 14:05:37 INFO  20200210140537942:33 - In AceelqTestDetailSchedulerJob executing Scheduled Job for updating details.
2020-02-10 14:15:38 INFO  20200210141537943:33 - In AceelqTestDetailSchedulerJob executing Scheduled Job for updating details.
2020-02-10 14:25:37 INFO  20200210142537943:33 - In AceelqTestDetailSchedulerJob executing Scheduled Job for updating details.
2020-02-10 14:35:37 INFO  20200210143537943:33 - In AceelqTestDetailSchedulerJob executing Scheduled Job for updating details.
2020-02-10 14:45:37 INFO  20200210144537942:33 - In AceelqTestDetailSchedulerJob executing Scheduled Job for updating details.
2020-02-10 14:55:37 INFO  20200210145537942:33 - In AceelqTestDetailSchedulerJob executing Scheduled Job for updating details.
2020-02-10 15:05:37 INFO  20200210150537943:33 - In AceelqTestDetailSchedulerJob executing Scheduled Job for updating details.
2020-02-10 15:15:37 INFO  20200210151537942:33 - In AceelqTestDetailSchedulerJob executing Scheduled Job for updating details.
2020-02-10 15:25:37 INFO  20200210152537942:33 - In AceelqTestDetailSchedulerJob executing Scheduled Job for updating details.
2020-02-10 15:35:37 INFO  20200210153537942:33 - In AceelqTestDetailSchedulerJob executing Scheduled Job for updating details.
2020-02-10 15:42:22 INFO  20200210154222395:33 - In AceelqTestDetailSchedulerJob executing Scheduled Job for updating details.
2020-02-10 15:52:22 INFO  20200210155222364:33 - In AceelqTestDetailSchedulerJob executing Scheduled Job for updating details.
2020-02-10 16:02:22 INFO  20200210160222363:33 - In AceelqTestDetailSchedulerJob executing Scheduled Job for updating details.
2020-02-10 16:12:22 INFO  20200210161222362:33 - In AceelqTestDetailSchedulerJob executing Scheduled Job for updating details.
2020-02-10 16:42:18 INFO  20200210164218169:33 - In AceelqTestDetailSchedulerJob executing Scheduled Job for updating details.
2020-02-10 16:52:18 INFO  20200210165218107:33 - In AceelqTestDetailSchedulerJob executing Scheduled Job for updating details.
2020-02-10 17:02:18 INFO  20200210170218106:33 - In AceelqTestDetailSchedulerJob executing Scheduled Job for updating details.
2020-02-10 17:12:18 INFO  20200210171218105:33 - In AceelqTestDetailSchedulerJob executing Scheduled Job for updating details.
2020-02-10 17:22:18 INFO  20200210172218105:33 - In AceelqTestDetailSchedulerJob executing Scheduled Job for updating details.
2020-02-10 17:32:18 INFO  20200210173218106:33 - In AceelqTestDetailSchedulerJob executing Scheduled Job for updating details.
2020-02-10 17:42:18 INFO  20200210174218105:33 - In AceelqTestDetailSchedulerJob executing Scheduled Job for updating details.
2020-02-10 17:52:18 INFO  20200210175218104:33 - In AceelqTestDetailSchedulerJob executing Scheduled Job for updating details.
2020-02-10 18:22:18 INFO  20200210182218108:33 - In AceelqTestDetailSchedulerJob executing Scheduled Job for updating details.
2020-02-10 18:32:18 INFO  20200210183218109:33 - In AceelqTestDetailSchedulerJob executing Scheduled Job for updating details.
