2020-01-07 13:01:54 INFO  20200107130154788:31 - In AceelqTestDetailSchedulerJob executing Scheduled Job for updating details.
2020-01-07 13:11:54 INFO  20200107131154789:31 - In AceelqTestDetailSchedulerJob executing Scheduled Job for updating details.
2020-01-07 13:21:54 INFO  20200107132154789:31 - In AceelqTestDetailSchedulerJob executing Scheduled Job for updating details.
2020-01-07 13:41:54 INFO  20200107134154789:31 - In AceelqTestDetailSchedulerJob executing Scheduled Job for updating details.
2020-01-07 13:51:54 INFO  20200107135154789:31 - In AceelqTestDetailSchedulerJob executing Scheduled Job for updating details.
2020-01-07 14:01:54 INFO  20200107140154788:31 - In AceelqTestDetailSchedulerJob executing Scheduled Job for updating details.
2020-01-07 14:11:54 INFO  20200107141154789:31 - In AceelqTestDetailSchedulerJob executing Scheduled Job for updating details.
2020-01-07 14:21:54 INFO  20200107142154788:31 - In AceelqTestDetailSchedulerJob executing Scheduled Job for updating details.
2020-01-07 14:31:54 INFO  20200107143154788:31 - In AceelqTestDetailSchedulerJob executing Scheduled Job for updating details.
2020-01-07 14:41:54 INFO  20200107144154789:31 - In AceelqTestDetailSchedulerJob executing Scheduled Job for updating details.
2020-01-07 14:51:54 INFO  20200107145154788:31 - In AceelqTestDetailSchedulerJob executing Scheduled Job for updating details.
