2020-04-21 14:30:33 INFO  20200421143033599:33 - In AceelqTestDetailSchedulerJob executing Scheduled Job for updating details.
2020-04-21 14:40:33 INFO  20200421144033602:33 - In AceelqTestDetailSchedulerJob executing Scheduled Job for updating details.
2020-04-21 14:50:33 INFO  20200421145033596:33 - In AceelqTestDetailSchedulerJob executing Scheduled Job for updating details.
2020-04-21 15:00:35 INFO  20200421150033614:33 - In AceelqTestDetailSchedulerJob executing Scheduled Job for updating details.
2020-04-21 15:10:33 INFO  20200421151033595:33 - In AceelqTestDetailSchedulerJob executing Scheduled Job for updating details.
2020-04-21 15:20:33 INFO  20200421152033598:33 - In AceelqTestDetailSchedulerJob executing Scheduled Job for updating details.
2020-04-21 15:30:33 INFO  20200421153033598:33 - In AceelqTestDetailSchedulerJob executing Scheduled Job for updating details.
2020-04-21 15:40:34 INFO  20200421154034979:33 - In AceelqTestDetailSchedulerJob executing Scheduled Job for updating details.
2020-04-21 15:50:33 INFO  20200421155033596:33 - In AceelqTestDetailSchedulerJob executing Scheduled Job for updating details.
2020-04-21 16:00:33 INFO  20200421160033596:33 - In AceelqTestDetailSchedulerJob executing Scheduled Job for updating details.
2020-04-21 16:10:33 INFO  20200421161033599:33 - In AceelqTestDetailSchedulerJob executing Scheduled Job for updating details.
2020-04-21 16:20:33 INFO  20200421162033595:33 - In AceelqTestDetailSchedulerJob executing Scheduled Job for updating details.
2020-04-21 16:30:33 INFO  20200421163033596:33 - In AceelqTestDetailSchedulerJob executing Scheduled Job for updating details.
2020-04-21 16:40:33 INFO  20200421164033596:33 - In AceelqTestDetailSchedulerJob executing Scheduled Job for updating details.
2020-04-21 16:50:33 INFO  20200421165033595:33 - In AceelqTestDetailSchedulerJob executing Scheduled Job for updating details.
2020-04-21 17:00:33 INFO  20200421170033595:33 - In AceelqTestDetailSchedulerJob executing Scheduled Job for updating details.
2020-04-21 17:10:33 INFO  20200421171033595:33 - In AceelqTestDetailSchedulerJob executing Scheduled Job for updating details.
2020-04-21 17:20:33 INFO  20200421172033595:33 - In AceelqTestDetailSchedulerJob executing Scheduled Job for updating details.
2020-04-21 17:30:33 INFO  20200421173033596:33 - In AceelqTestDetailSchedulerJob executing Scheduled Job for updating details.
2020-04-21 17:40:55 INFO  20200421174055372:33 - In AceelqTestDetailSchedulerJob executing Scheduled Job for updating details.
2020-04-21 17:42:56 INFO  20200421174256189:33 - In AceelqTestDetailSchedulerJob executing Scheduled Job for updating details.
2020-04-21 17:52:56 INFO  20200421175256166:33 - In AceelqTestDetailSchedulerJob executing Scheduled Job for updating details.
2020-04-21 17:58:09 INFO  20200421175809350:33 - In AceelqTestDetailSchedulerJob executing Scheduled Job for updating details.
2020-04-21 18:05:58 INFO  20200421180558370:33 - In AceelqTestDetailSchedulerJob executing Scheduled Job for updating details.
2020-04-21 18:15:58 INFO  20200421181558338:33 - In AceelqTestDetailSchedulerJob executing Scheduled Job for updating details.
2020-04-21 18:25:58 INFO  20200421182558338:33 - In AceelqTestDetailSchedulerJob executing Scheduled Job for updating details.
2020-04-21 18:35:58 INFO  20200421183558338:33 - In AceelqTestDetailSchedulerJob executing Scheduled Job for updating details.
2020-04-21 18:45:58 INFO  20200421184558339:33 - In AceelqTestDetailSchedulerJob executing Scheduled Job for updating details.
2020-04-21 18:55:58 INFO  20200421185558342:33 - In AceelqTestDetailSchedulerJob executing Scheduled Job for updating details.
2020-04-21 19:05:58 INFO  20200421190558338:33 - In AceelqTestDetailSchedulerJob executing Scheduled Job for updating details.
2020-04-21 19:15:58 INFO  20200421191558339:33 - In AceelqTestDetailSchedulerJob executing Scheduled Job for updating details.
2020-04-21 19:25:58 INFO  20200421192558338:33 - In AceelqTestDetailSchedulerJob executing Scheduled Job for updating details.
2020-04-21 19:35:58 INFO  20200421193558339:33 - In AceelqTestDetailSchedulerJob executing Scheduled Job for updating details.
2020-04-21 19:45:58 INFO  20200421194558339:33 - In AceelqTestDetailSchedulerJob executing Scheduled Job for updating details.
2020-04-21 19:55:58 INFO  20200421195558342:33 - In AceelqTestDetailSchedulerJob executing Scheduled Job for updating details.
2020-04-21 20:05:58 INFO  20200421200558339:33 - In AceelqTestDetailSchedulerJob executing Scheduled Job for updating details.
2020-04-21 20:15:58 INFO  20200421201558338:33 - In AceelqTestDetailSchedulerJob executing Scheduled Job for updating details.
2020-04-21 20:25:58 INFO  20200421202558338:33 - In AceelqTestDetailSchedulerJob executing Scheduled Job for updating details.
2020-04-21 20:35:58 INFO  20200421203558381:33 - In AceelqTestDetailSchedulerJob executing Scheduled Job for updating details.
2020-04-21 20:45:58 INFO  20200421204558339:33 - In AceelqTestDetailSchedulerJob executing Scheduled Job for updating details.
2020-04-21 20:55:58 INFO  20200421205558339:33 - In AceelqTestDetailSchedulerJob executing Scheduled Job for updating details.
2020-04-21 21:05:58 INFO  20200421210558343:33 - In AceelqTestDetailSchedulerJob executing Scheduled Job for updating details.
2020-04-21 22:35:58 INFO  20200421223558340:33 - In AceelqTestDetailSchedulerJob executing Scheduled Job for updating details.
2020-04-21 22:45:58 INFO  20200421224558355:33 - In AceelqTestDetailSchedulerJob executing Scheduled Job for updating details.
2020-04-21 22:55:58 INFO  20200421225558344:33 - In AceelqTestDetailSchedulerJob executing Scheduled Job for updating details.
2020-04-21 23:05:58 INFO  20200421230558338:33 - In AceelqTestDetailSchedulerJob executing Scheduled Job for updating details.
2020-04-21 23:15:58 INFO  20200421231558339:33 - In AceelqTestDetailSchedulerJob executing Scheduled Job for updating details.
2020-04-21 23:25:58 INFO  20200421232558338:33 - In AceelqTestDetailSchedulerJob executing Scheduled Job for updating details.
2020-04-21 23:35:58 INFO  20200421233558338:33 - In AceelqTestDetailSchedulerJob executing Scheduled Job for updating details.
2020-04-21 23:45:58 INFO  20200421234558350:33 - In AceelqTestDetailSchedulerJob executing Scheduled Job for updating details.
2020-04-21 23:55:58 INFO  20200421235558338:33 - In AceelqTestDetailSchedulerJob executing Scheduled Job for updating details.
2020-04-22 00:05:58 INFO  20200422000558338:33 - In AceelqTestDetailSchedulerJob executing Scheduled Job for updating details.
2020-04-22 00:15:58 INFO  20200422001558338:33 - In AceelqTestDetailSchedulerJob executing Scheduled Job for updating details.
2020-04-22 00:20:58 INFO  20200422002057996:33 - In AceelqTestDetailSchedulerJob executing Scheduled Job for updating details.
2020-04-22 00:30:57 INFO  20200422003057954:33 - In AceelqTestDetailSchedulerJob executing Scheduled Job for updating details.
2020-04-22 03:40:57 INFO  20200422034057955:33 - In AceelqTestDetailSchedulerJob executing Scheduled Job for updating details.
