2020-04-22 20:44:45 INFO  20200422204445805:194 - Checking user scm mapping.
2020-04-22 20:44:45 INFO  20200422204445805:195 - Merge request process has been started.
2020-04-22 20:44:45 INFO  20200422204445805:197 - getting repository url...
2020-04-22 20:44:45 INFO  20200422204445805:202 - AR-Debug::  Merge live status MERGEINITIATED
2020-04-22 20:44:46 INFO  20200422204445805:96 - AR-Debug:: Fetching Credentials for userID:aSe3kkdDWf35X2Hw in orgName:autorabit.com-PmkSJi with accessKey:rj_bb_askme_repo
2020-04-22 20:44:46 INFO  20200422204445805:196 - SCM URL : https://bitbucket.org/rajashekarj/myrepo1.git
2020-04-22 20:44:46 INFO  20200422204445805:727 - OrgName : autorabit.com-PmkSJi Executing custom API
2020-04-22 20:44:48 INFO  20200422204445805:60 - 2e43b0393389f83a0f998edca3ee0c7abf347461	HEAD
2020-04-22 20:44:48 INFO  20200422204445805:60 - f53a8772b0edc4a858a7523231b574c2a31711ea	refs/heads/22021Branch
2020-04-22 20:44:48 INFO  20200422204445805:60 - b32487907fe1846d95491f48a1476673a587277f	refs/heads/BBRepo1Branch1
2020-04-22 20:44:48 INFO  20200422204445805:60 - 8b5fe7c48cf4a6687fddc72b793524deba294c42	refs/heads/branch1
2020-04-22 20:44:48 INFO  20200422204445805:60 - fb8bba3862ace96c0bc71011c4036b932d3dbd42	refs/heads/branch2
2020-04-22 20:44:48 INFO  20200422204445805:60 - cd601bdf5aa343701e8aaa694bcdfcc33a057e08	refs/heads/branch3
2020-04-22 20:44:48 INFO  20200422204445805:60 - 2e43b0393389f83a0f998edca3ee0c7abf347461	refs/heads/master
2020-04-22 20:44:48 INFO  20200422204445805:60 - ffc0137f88940932bb25244c25006d9e71427454	refs/remotes/origin/branch1
2020-04-22 20:44:48 INFO  20200422204445805:60 - 38401e07bc369a9de5fba18d1c4df6c13dc2c857	refs/remotes/origin/branch2
2020-04-22 20:44:48 INFO  20200422204445805:60 - cb23789f3627f5ced288952cda3b52f2e63743a5	refs/remotes/origin/branch3
2020-04-22 20:44:48 INFO  20200422204445805:60 - aadbf6ad6c22eeeb5ba7043b32283d6359b67edc	refs/remotes/origin/master
2020-04-22 20:44:49 INFO  20200422204445805:1358 - OrgName : autorabit.com-PmkSJi Executing custom API
2020-04-22 20:44:49 INFO  20200422204445805:616 - Executing the following command : [Ljava.lang.String;@41783075
2020-04-22 20:44:52 INFO  20200422204445805:240 - Credentials are valid
2020-04-22 20:44:52 INFO  20200422204445805:260 - Processing merge process with conflict strategy : resolvelater
2020-04-22 20:44:52 INFO  20200422204445805:770 - OrgName : autorabit.com-PmkSJi Executing custom API
2020-04-22 20:44:52 INFO  20200422204445805:616 - Executing the following command : [Ljava.lang.String;@6e0e4496
2020-04-22 20:44:55 INFO  20200422204445805:2152 - AR-Debug::  Trying to copy existing checkout data.
2020-04-22 20:44:55 INFO  20200422204445805:2167 - AR-Debug::  Copying checkout from MergeData.
2020-04-22 20:44:56 INFO  20200422204445805:1407 - Executing custom API
2020-04-22 20:44:56 INFO  20200422204445805:1241 - Executing custom API
2020-04-22 20:44:56 INFO  20200422204445805:1246 - OrgName : autorabit.com-PmkSJiSame remote url found. Updating working copy.
2020-04-22 20:44:56 INFO  20200422204445805:1315 - Fetching remote branches.
2020-04-22 20:44:56 INFO  20200422204445805:1317 - Executing custom API
2020-04-22 20:44:56 INFO  20200422204445805:60 - Fetching origin
2020-04-22 20:45:25 WARN  20200422204445805:60 - From https://bitbucket.org/rajashekarj/myrepo1
2020-04-22 20:45:25 WARN  20200422204445805:60 -  * [new branch]      22021Branch -> origin/22021Branch
2020-04-22 20:45:25 WARN  20200422204445805:60 -    f05df95..8b5fe7c  branch1     -> origin/branch1
2020-04-22 20:45:25 WARN  20200422204445805:60 -    a8c2380..fb8bba3  branch2     -> origin/branch2
2020-04-22 20:45:25 WARN  20200422204445805:60 -    57bf88b..cd601bd  branch3     -> origin/branch3
2020-04-22 20:45:25 WARN  20200422204445805:60 -    6cce968..2e43b03  master      -> origin/master
2020-04-22 20:45:25 INFO  20200422204445805:180 - Fetch result : 0
2020-04-22 20:45:25 INFO  20200422204445805:1269 - OrgName : autorabit.com-PmkSJiUpdating head refs
2020-04-22 20:45:25 INFO  20200422204445805:1274 - OrgName : autorabit.com-PmkSJi Executing custom API
2020-04-22 20:45:32 WARN  20200422204445805:60 - From https://bitbucket.org/rajashekarj/myrepo1
2020-04-22 20:45:32 WARN  20200422204445805:60 -  * branch            branch2    -> FETCH_HEAD
2020-04-22 20:45:32 INFO  20200422204445805:60 - Already up to date.
2020-04-22 20:45:32 INFO  20200422204445805:152 - pull result : 0
2020-04-22 20:45:32 INFO  20200422204445805:2249 - Executing follwing command to get merged parents : git log --merges --all --pretty=format:mRevisions:%h --abbrev=7
2020-04-22 20:45:32 INFO  20200422204445805:60 - mRevisions:f2c028c
2020-04-22 20:45:32 INFO  20200422204445805:60 - mRevisions:38401e0
2020-04-22 20:45:32 INFO  20200422204445805:2274 - parent merged revisions : [f2c028c, 38401e0, %h --abbrev=7]
2020-04-22 20:45:32 INFO  20200422204445805:164 - Merged parents not found
2020-04-22 20:45:32 INFO  20200422204445805:172 - Executing following command git cherry-pick 16d1c73 -n
2020-04-22 20:45:33 WARN  20200422204445805:60 - error: could not apply 16d1c73... B1 MergeFiledCreated
2020-04-22 20:45:33 WARN  20200422204445805:60 - hint: after resolving the conflicts, mark the corrected paths
2020-04-22 20:45:33 WARN  20200422204445805:60 - hint: with 'git add <paths>' or 'git rm <paths>'
2020-04-22 20:45:33 INFO  20200422204445805:2020 - Merge process has been completed successfully with status CONFLICTING
2020-04-22 20:45:33 INFO  20200422204445805:2024 - Started status on the working copy.
2020-04-22 20:45:33 INFO  20200422204445805:2038 - Completed status on the working copy.
2020-04-22 20:45:33 INFO  20200422204445805:54 - AR-Debug::  Merge live status AWAITINGUSERACTION
2020-04-22 20:45:34 INFO  20200422204445805:73 - Started saving the merge history.
2020-04-22 20:45:34 INFO  20200422204445805:75 - Completed saving the merge history.
2020-04-22 20:45:34 INFO  20200422204445805:80 - Checking the files for auto resolve.
2020-04-22 20:45:34 INFO  20200422204445805:85 - package.xml is conflicting state, Proceeding for auto resolving the package.xml File Path : package.xml
2020-04-22 20:45:35 INFO  20200422204445805:87 - package.xml auto resolving process completed.
2020-04-22 20:45:35 INFO  20200422204445805:102 - Updating merge status...
2020-04-22 20:45:35 INFO  20200422204445805:126 - Invoking mailer service
2020-04-22 20:45:35 INFO  20200422204445805:1438 - Preparing the merge report for sending mail.
2020-04-22 20:45:35 INFO  20200422204445805:1454 - Sending the merge report to following emails rajashekar.j1@autorabit.com
2020-04-22 20:45:35 INFO  20200422204445805:1458 - Sending merge report mail to : rajashekar.j1@autorabit.com.
2020-04-22 20:45:35 INFO  20200422204445805:128 - Mail service invoked successfully
2020-04-22 20:46:08 INFO  20200422204445805:765 - getting repository url...
2020-04-22 20:46:08 INFO  20200422204445805:783 - Checking user scm mapping.
2020-04-22 20:46:08 INFO  20200422204445805:196 - SCM URL : https://bitbucket.org/rajashekarj/myrepo1.git
2020-04-22 20:46:08 INFO  20200422204445805:727 - OrgName : autorabit.com-PmkSJi Executing custom API
2020-04-22 20:46:12 INFO  20200422204445805:60 - 2e43b0393389f83a0f998edca3ee0c7abf347461	HEAD
2020-04-22 20:46:12 INFO  20200422204445805:60 - f53a8772b0edc4a858a7523231b574c2a31711ea	refs/heads/22021Branch
2020-04-22 20:46:12 INFO  20200422204445805:60 - b32487907fe1846d95491f48a1476673a587277f	refs/heads/BBRepo1Branch1
2020-04-22 20:46:12 INFO  20200422204445805:60 - 8b5fe7c48cf4a6687fddc72b793524deba294c42	refs/heads/branch1
2020-04-22 20:46:12 INFO  20200422204445805:60 - fb8bba3862ace96c0bc71011c4036b932d3dbd42	refs/heads/branch2
2020-04-22 20:46:12 INFO  20200422204445805:60 - cd601bdf5aa343701e8aaa694bcdfcc33a057e08	refs/heads/branch3
2020-04-22 20:46:12 INFO  20200422204445805:60 - 2e43b0393389f83a0f998edca3ee0c7abf347461	refs/heads/master
2020-04-22 20:46:12 INFO  20200422204445805:60 - ffc0137f88940932bb25244c25006d9e71427454	refs/remotes/origin/branch1
2020-04-22 20:46:12 INFO  20200422204445805:60 - 38401e07bc369a9de5fba18d1c4df6c13dc2c857	refs/remotes/origin/branch2
2020-04-22 20:46:12 INFO  20200422204445805:60 - cb23789f3627f5ced288952cda3b52f2e63743a5	refs/remotes/origin/branch3
2020-04-22 20:46:12 INFO  20200422204445805:60 - aadbf6ad6c22eeeb5ba7043b32283d6359b67edc	refs/remotes/origin/master
2020-04-22 20:46:12 INFO  20200422204445805:1358 - OrgName : autorabit.com-PmkSJi Executing custom API
2020-04-22 20:46:12 INFO  20200422204445805:616 - Executing the following command : [Ljava.lang.String;@1a862ec4
2020-04-22 20:46:16 INFO  20200422204445805:832 - Committing changes to repository.
2020-04-22 20:46:16 INFO  20200422204445805:227 - [objects/Lenovo__c.object, package.xml]
2020-04-22 20:46:17 INFO  20200422204445805:2491 - <font color='blue'>Committed to LOCAL repository with revision number: 3f1bd45</font>
2020-04-22 20:46:17 INFO  20200422204445805:849 - Pushed to local repository url with revision :: 3f1bd45.
2020-04-22 20:46:17 INFO  20200422204445805:882 - AR-Debug::  Merge live status COMMITGENERATED
2020-04-22 20:46:18 INFO  20200422204445805:729 - Identifying the duplicates in the profiles/permissionsets.
2020-04-22 20:46:18 INFO  20200422204445805:746 - Duplicates not found in profiles/permissionsets.
2020-04-22 20:46:18 INFO  20200422204445805:487 - Gathering information, if any meta.xml files are missing.
2020-04-22 20:46:18 INFO  20200422204445805:132 - Fetching Credentials without userPermission in orgName:autorabit.com-PmkSJi with accessKey:rj_bb_askme_repo
2020-04-22 20:46:18 INFO  20200422204445805:549 - Generating package.xml file.
2020-04-22 20:46:18 INFO  20200422204445805:507 - Verifying if any meta.xml files are missing.
2020-04-22 20:46:18 INFO  20200422204445805:933 - Committing changes to remote repository.
2020-04-22 20:46:18 INFO  20200422204445805:1034 - getting repository url...
2020-04-22 20:46:19 INFO  20200422204445805:1055 - Checking user scm mapping.
2020-04-22 20:46:19 INFO  20200422204445805:196 - SCM URL : https://bitbucket.org/rajashekarj/myrepo1.git
2020-04-22 20:46:19 INFO  20200422204445805:727 - OrgName : autorabit.com-PmkSJi Executing custom API
2020-04-22 20:46:22 INFO  20200422204445805:60 - 2e43b0393389f83a0f998edca3ee0c7abf347461	HEAD
2020-04-22 20:46:22 INFO  20200422204445805:60 - f53a8772b0edc4a858a7523231b574c2a31711ea	refs/heads/22021Branch
2020-04-22 20:46:22 INFO  20200422204445805:60 - b32487907fe1846d95491f48a1476673a587277f	refs/heads/BBRepo1Branch1
2020-04-22 20:46:22 INFO  20200422204445805:60 - 8b5fe7c48cf4a6687fddc72b793524deba294c42	refs/heads/branch1
2020-04-22 20:46:22 INFO  20200422204445805:60 - fb8bba3862ace96c0bc71011c4036b932d3dbd42	refs/heads/branch2
2020-04-22 20:46:22 INFO  20200422204445805:60 - cd601bdf5aa343701e8aaa694bcdfcc33a057e08	refs/heads/branch3
2020-04-22 20:46:22 INFO  20200422204445805:60 - 2e43b0393389f83a0f998edca3ee0c7abf347461	refs/heads/master
2020-04-22 20:46:22 INFO  20200422204445805:60 - ffc0137f88940932bb25244c25006d9e71427454	refs/remotes/origin/branch1
2020-04-22 20:46:22 INFO  20200422204445805:60 - 38401e07bc369a9de5fba18d1c4df6c13dc2c857	refs/remotes/origin/branch2
2020-04-22 20:46:22 INFO  20200422204445805:60 - cb23789f3627f5ced288952cda3b52f2e63743a5	refs/remotes/origin/branch3
2020-04-22 20:46:22 INFO  20200422204445805:60 - aadbf6ad6c22eeeb5ba7043b32283d6359b67edc	refs/remotes/origin/master
2020-04-22 20:46:22 INFO  20200422204445805:1358 - OrgName : autorabit.com-PmkSJi Executing custom API
2020-04-22 20:46:22 INFO  20200422204445805:616 - Executing the following command : [Ljava.lang.String;@6cb5b428
2020-04-22 20:46:25 INFO  20200422204445805:1084 - AR-Debug::  Mergelive status CHECKINGREMOTEHEAD
2020-04-22 20:46:26 INFO  20200422204445805:1241 - Executing custom API
2020-04-22 20:46:26 INFO  20200422204445805:1246 - OrgName : autorabit.com-PmkSJiSame remote url found. Updating working copy.
2020-04-22 20:46:26 INFO  20200422204445805:1315 - Fetching remote branches.
2020-04-22 20:46:26 INFO  20200422204445805:1317 - Executing custom API
2020-04-22 20:46:26 INFO  20200422204445805:60 - Fetching origin
2020-04-22 20:46:33 INFO  20200422204445805:180 - Fetch result : 0
2020-04-22 20:46:33 INFO  20200422204445805:1269 - OrgName : autorabit.com-PmkSJiUpdating head refs
2020-04-22 20:46:33 INFO  20200422204445805:1274 - OrgName : autorabit.com-PmkSJi Executing custom API
2020-04-22 20:46:39 WARN  20200422204445805:60 - From https://bitbucket.org/rajashekarj/myrepo1
2020-04-22 20:46:39 WARN  20200422204445805:60 -  * branch            branch2    -> FETCH_HEAD
2020-04-22 20:46:39 INFO  20200422204445805:60 - Already up to date.
2020-04-22 20:46:39 INFO  20200422204445805:152 - pull result : 0
2020-04-22 20:46:39 INFO  20200422204445805:1133 - Committing changes to repository.
2020-04-22 20:46:39 INFO  20200422204445805:238 - File list is empty. Adding all modified files
2020-04-22 20:46:40 INFO  20200422204445805:416 - <font color='blue'>There are no local modifications to commit.</font>
2020-04-22 20:46:40 INFO  20200422204445805:418 - <font color='blue'>Pushing existing local commits to remote.</font>
2020-04-22 20:46:40 INFO  20200422204445805:1156 - OrgName : autorabit.com-PmkSJi Executing custom API
2020-04-22 20:46:47 WARN  20200422204445805:60 - remote: 
2020-04-22 20:46:47 WARN  20200422204445805:60 - remote: Create pull request for branch2:        
2020-04-22 20:46:47 WARN  20200422204445805:60 - remote:   https://bitbucket.org/rajashekarj/myrepo1/pull-requests/new?source=branch2&t=1        
2020-04-22 20:46:47 WARN  20200422204445805:60 - remote: 
2020-04-22 20:46:47 WARN  20200422204445805:60 - To https://bitbucket.org/rajashekarj/myrepo1.git
2020-04-22 20:46:47 WARN  20200422204445805:60 -    fb8bba3..3f1bd45  branch2 -> branch2
2020-04-22 20:46:47 INFO  20200422204445805:422 - <font color='blue'>Status of the GIT Push process: Success and Revisions Pushed : 3f1bd45</font>
2020-04-22 20:46:48 INFO  20200422204445805:1241 - Executing custom API
2020-04-22 20:46:48 INFO  20200422204445805:1246 - OrgName : autorabit.com-PmkSJiSame remote url found. Updating working copy.
2020-04-22 20:46:48 INFO  20200422204445805:1315 - Fetching remote branches.
2020-04-22 20:46:48 INFO  20200422204445805:1317 - Executing custom API
2020-04-22 20:46:48 INFO  20200422204445805:60 - Fetching origin
2020-04-22 20:46:54 INFO  20200422204445805:180 - Fetch result : 0
2020-04-22 20:46:54 INFO  20200422204445805:1269 - OrgName : autorabit.com-PmkSJiUpdating head refs
2020-04-22 20:46:54 INFO  20200422204445805:1274 - OrgName : autorabit.com-PmkSJi Executing custom API
2020-04-22 20:47:00 WARN  20200422204445805:60 - From https://bitbucket.org/rajashekarj/myrepo1
2020-04-22 20:47:00 WARN  20200422204445805:60 -  * branch            branch2    -> FETCH_HEAD
2020-04-22 20:47:00 INFO  20200422204445805:60 - Already up to date.
2020-04-22 20:47:01 INFO  20200422204445805:152 - pull result : 0
2020-04-22 20:47:01 INFO  20200422204445805:616 - Executing the following command : [Ljava.lang.String;@518dd7aa
2020-04-22 20:47:01 INFO  20200422204445805:606 - AR-Debug:: Response is empty
2020-04-22 20:47:01 INFO  20200422204445805:1717 - Checking for Feature branch to delete.
2020-04-22 20:47:01 INFO  20200422204445805:1791 - Delete feature branch is not configured.
2020-04-22 20:47:01 INFO  20200422204445805:1207 - ====Invoking update commit history service for Revision.======:3f1bd45
2020-04-22 20:47:01 INFO  20200422204445805:1210 - updating scm log for revision : 3f1bd45
2020-04-22 20:47:01 INFO  20200422204445805:1078 - ====================  Commit History updating process started ====================
2020-04-22 20:47:01 INFO  20200422204445805:1079 - Org Name: autorabit.com-PmkSJi, User Name:rajashekar.j1@autorabit.com, label type: merge, Branch Name: branch2, From Revision: 3f1bd45, To Revision: 3f1bd45, SCM commit history updating process started.
2020-04-22 20:47:01 INFO  20200422204445805:96 - AR-Debug:: Fetching Credentials for userID:aSe3kkdDWf35X2Hw in orgName:autorabit.com-PmkSJi with accessKey:rj_bb_askme_repo
2020-04-22 20:47:09 INFO  20200422204445805:2152 - AR-Debug::  Trying to copy existing checkout data.
2020-04-22 20:47:09 INFO  20200422204445805:2176 - AR-Debug::  Copying checkout from SCMRepoID.
2020-04-22 20:47:12 INFO  20200422204445805:1179 - Working copy already exists. Updating the working copy
2020-04-22 20:48:03 INFO  20200422204445805:950 - Total files exists in the revision 3f1bd45 : 2
2020-04-22 20:48:03 INFO  20200422204445805:952 - Processing revision : 3f1bd45
2020-04-22 20:48:03 INFO  20200422204445805:953 - ========================Start=====================================
2020-04-22 20:48:03 INFO  20200422204445805:960 - Delta processing file : objects/Lenovo__c.object
2020-04-22 20:48:03 INFO  20200422204445805:960 - Delta processing file : package.xml
2020-04-22 20:48:30 INFO  20200422204445805:990 - ========================End=====================================
2020-04-22 20:48:30 INFO  20200422204445805:1037 - All files in the revision 3f1bd45 processed successfully.
2020-04-22 20:48:30 INFO  20200422204445805:1307 - Org Name: autorabit.com-PmkSJi, User Name:rajashekar.j1@autorabit.com, label type: merge, Brnach Name: branch2, From Revision: 3f1bd45, To Revision: 3f1bd45, SCM commit history updating process completed.
2020-04-22 20:48:30 INFO  20200422204445805:1308 - ==================== Commit History updating process completed ====================
2020-04-22 20:48:30 INFO  20200422204445805:1223 - =====Commit history updated successfully.======
2020-04-22 20:48:30 INFO  20200422204445805:1226 - Updating the user story 16d1c73 with the merged revision 3f1bd45
2020-04-22 20:48:30 INFO  20200422204445805:1228 - Merged revisions are successfully updated to the user story
2020-04-22 20:48:31 INFO  20200422204445805:1438 - Preparing the merge report for sending mail.
2020-04-22 20:48:31 INFO  20200422204445805:1454 - Sending the merge report to following emails rajashekar.j1@autorabit.com
2020-04-22 20:48:31 INFO  20200422204445805:1458 - Sending merge report mail to : rajashekar.j1@autorabit.com.
2020-04-22 20:48:31 INFO  20200422204445805:1313 - <font color='darkmagenta'> Merge process  took 0:3:2 </font>
2020-04-22 20:48:32 INFO  20200422204445805:37 - Started the cleaning of merge checkout for checkout id : 20200422204445805
2020-04-22 20:48:32 INFO  20200422204445805:40 - Deleting the merge checkout for checkout id : 20200422204445805
2020-04-22 20:48:33 INFO  20200422204445805:994 - <font color='darkmagenta'> Merge process  took 0:5:16 </font>
2020-04-22 20:48:33 INFO  20200422204445805:43 - Completed the cleaning of merge checkout for checkout id : 20200422204445805
