2020.02.19.09.55.00--Updated build properties.
2020.02.19.09.55.00--Starting the Build Process
2020.02.19.09.55.00--AR-Debug:: orgname : autorabit.com-PmkSJi projectname : NewSFDX buildnumber : 1 buildforced : true agentname : ArAgent status : Inprogress
2020.02.19.09.55.01--AR-Debug:: update build status : Success
2020.02.19.09.55.01--Step1 : Checking for modifications to continue the build.
2020.02.19.09.55.01--::::::In getUserCredential ::
2020.02.19.09.55.01--Org Name: autorabit.com-PmkSJi, Project Name: NewSFDX,getUserCredentials initated to AgentService.
2020.02.19.09.55.01--Org Name: autorabit.com-PmkSJi, Project Name: NewSFDX, getUserCredentials completed.
2020.02.19.09.55.01--SCM URL : https://bitbucket.org/kareemuddin/new-ap3-repo.git
2020.02.19.09.55.01--Taking new checkout.
2020.02.19.09.55.01--Cloning the target branch.
2020.02.19.09.55.01--AR-Debug:: OrgName : autorabit.com-PmkSJi Executing custom API
2020.02.19.09.55.01--Executing custom API
2020.02.19.09.55.11--orgName : autorabit.com-PmkSJi Executing custom API
2020.02.19.09.55.13--Same remote url found. Updating working copy.
2020.02.19.09.55.13--AR-Debug:: OrgName : autorabit.com-PmkSJi Executing custom API
2020.02.19.09.55.13--Executing custom API
2020.02.19.09.55.16--Checkout completed.
2020.02.19.09.55.16--Step1 : Modifications exist, Proceeding for next steps...
2020.02.19.09.55.16--Step2 : Cleaning the directories and creating.
2020.02.19.09.55.16--Step2 : Directories creation completed proceeding for next steps...
2020.02.19.09.55.16--Step3 : Checkout / Data retrieval process started.
2020.02.19.09.55.16--Project checkout path : D:\filesystem\193\agent\projects\autorabit.com-PmkSJi_NewSFDX
2020.02.19.09.55.16--Fetching all changed files.
2020.02.19.09.55.16--SCM URL : https://bitbucket.org/kareemuddin/new-ap3-repo.git
2020.02.19.09.55.16--::generateChangeList - scm.getLog:: StartTimeWed Feb 19 15:25:16 IST 2020
2020.02.19.09.55.16--Same remote url found. Updating working copy.
2020.02.19.09.55.16--AR-Debug:: OrgName : autorabit.com-PmkSJi Executing custom API
2020.02.19.09.55.16--Executing custom API
2020.02.19.09.55.18--From Revision : Not Specified To Revision : bc6a323
2020.02.19.09.55.18--Revision numbers are same so getting complete log and filtering.
2020.02.19.09.55.18--AR-Debug:: OrgName : autorabit.com-PmkSJi Executing custom API
2020.02.19.09.55.18--Executing custom API
2020.02.19.09.55.20--AR-Debug::  isSame: true
2020.02.19.09.55.20--AR-Debug::  fromRev: null
2020.02.19.09.55.20--AR-Debug::  gitshaLength: 7
2020.02.19.09.55.21--
 Generated log entries and finished all threads - 
2020.02.19.09.55.21--AR-Debug::  allRevisions: [bc6a323, 242fd50, 653d9bb, 89b40cb, 8376cbd]
2020.02.19.09.55.21--AR-Debug::  allRevisions size: 5
2020.02.19.09.55.21--AR-Debug::  logsMap size: 5
2020.02.19.09.55.21--AR-Debug::  logsMap revisions: [242fd50, 653d9bb, 8376cbd, bc6a323, 89b40cb]
2020.02.19.09.55.21--generateChangeList - scm.getLog:: EndTime : Wed Feb 19 15:25:21 IST 2020
2020.02.19.09.55.21--Total scm.getLog time in sec: 5
2020.02.19.09.55.21--SCM log generated for processing changes.
2020.02.19.09.55.21--Writing scmlog to file.
2020.02.19.09.55.21--Changelist generated.
2020.02.19.09.55.27--In validateDeployableMetaDataSchema:::::::startTime::Wed Feb 19 15:25:27 IST 2020 directoryPath::D:\filesystem\193\agent\projects\autorabit.com-PmkSJi_NewSFDX\customDeploy lastCall::true
2020.02.19.09.55.27--Package xml file path : D:\filesystem\193\agent\projects\autorabit.com-PmkSJi_NewSFDX\customDeploy\package.xml
2020.02.19.09.55.27--Preparing the dynamic package.xml file.
2020.02.19.09.55.27--Saved package manifest.
2020.02.19.09.55.28--D:\filesystem\193\agent\projects\autorabit.com-PmkSJi_NewSFDX\customDeploy\force-app\main\default\lwc deleted
2020.02.19.09.55.28--Step3 : Checkout / Data retrieval completed proceeding for next steps...
2020.02.19.09.55.28--Building source from a SFDX branch
2020.02.19.09.55.28--Step4 : Package steps started
2020.02.19.09.55.28--Checking for modifications on source folder: force-app
2020.02.19.09.55.28--Modifications exist with source folder: force-app
2020.02.19.09.55.33--AR-Debug:: Succesfully created sfdx project for the module
2020.02.19.09.55.42--AR-Debug:: rootDir: D:\filesystem\193\agent\projects\autorabit.com-PmkSJi_NewSFDX\sfdxbuild\NewSFDX outputDir: D:\filesystem\193\agent\projects\autorabit.com-PmkSJi_NewSFDX\customDeploy packageName: force-app
2020.02.19.09.56.25--MetaData conversion from SFDX source to API source format has been completed
2020.02.19.10.04.28--<font color='red'>null</font>
2020.02.19.10.04.39--AR-Debug:: orgname : autorabit.com-PmkSJi projectname : NewSFDX buildnumber : 1 buildforced : true agentname : ArAgent status : Failed
2020-02-19 15:34:39 INFO  com-PmkSJi_NewSFDX_1:824 - autorabit.com-PmkSJi_NewSFDX Post build steps started.
2020-02-19 15:34:40 INFO  com-PmkSJi_NewSFDX_1:83 - CIJob info saved successfully
2020-02-19 15:34:40 INFO  com-PmkSJi_NewSFDX_1:992 - <br />BUILD FAILED
2020-02-19 15:34:40 INFO  com-PmkSJi_NewSFDX_1:995 - Total time: 9 Minutes 42 Seconds
2020-02-19 15:34:40 INFO  com-PmkSJi_NewSFDX_1:996 - Build Completed
2020.02.19.10.04.40--AR-Debug:: update build status : Success
2020.02.19.10.04.40--AR-Debug:: Agent Side : Total time taken to complete build process: 9 Minutes 39 Seconds
