2020-04-03 23:09:15 INFO  time out:855 - Updating envprovision job status started
2020-04-03 23:09:15 INFO  time out:857 - Updating envprovision job status completed
2020-04-03 23:09:15 INFO  time out:859 - Updating all external commits history status started
2020-04-03 23:09:15 INFO  time out:861 - Updating all external commits history status completed
2020-04-03 23:09:15 INFO  time out:863 - Updating DeploymentHistory
2020-04-03 23:09:15 INFO  time out:865 - Updating sforgssynchistory
2020-04-03 23:09:16 INFO  time out:867 - Updating BuildSummary
2020-04-03 23:09:16 INFO  time out:869 - Updating MergeHistory
2020-04-03 23:09:16 INFO  time out:871 - Updating RetriveAndCommit History
2020-04-03 23:09:16 INFO  time out:873 - Validate And Commit TempData Deletion Started
2020-04-03 23:09:16 ERROR time out:515 - 
2020-04-03 23:09:16 INFO  time out:876 - Updating UnlockedPackage started
2020-04-03 23:09:16 INFO  time out:878 - Updating UnlockedPackage completed
2020-04-03 23:09:16 INFO  time out:879 - Updating UnlockedPackageVersion started
2020-04-03 23:09:16 INFO  time out:881 - Updating UnlockedPackageVersion completed
2020-04-03 23:09:16 INFO  time out:882 - Updating SFDX Scratch org status started
2020-04-03 23:09:16 INFO  time out:884 - Updating SFDX Scratch org  status completed
2020-04-03 23:09:16 INFO  time out:885 - Updating Sfdx module status started
2020-04-03 23:09:16 INFO  time out:887 - Updating Sfdx module status completed
2020-04-03 23:09:16 INFO  time out:888 - Updating PostActResults  status started
2020-04-03 23:09:16 INFO  time out:890 - Updating PostActResults status completed
2020-04-03 23:09:16 INFO  time out:892 - Updating dataloader  status started
2020-04-03 23:09:17 INFO  time out:894 - Updating dataloader status completed
2020-04-03 23:09:17 INFO  time out:896 - Updating code coverage reports history  status started
2020-04-03 23:09:17 INFO  time out:898 - Updating code coverage reports history status completed
2020-04-03 23:09:17 INFO  time out:900 - Updating tag creation package history status started
2020-04-03 23:09:17 INFO  time out:902 - Updating tag creation package history status completed
2020-04-03 23:09:17 INFO  time out:904 - Updating Feature Versions status started
2020-04-03 23:09:17 INFO  time out:906 - Updating Feature Versions status completed
2020-04-03 23:09:17 INFO  time out:908 - Updating All tables Completed
2020-04-03 23:09:17 INFO  time out:110 - Cleaning up VS code patch files on the server - START
2020-04-03 23:09:17 INFO  time out:117 - Cleaning up VS code patch files on the server - COMPLETE
2020-04-03 23:09:18 INFO  time out:855 - Updating envprovision job status started
2020-04-03 23:09:19 INFO  time out:857 - Updating envprovision job status completed
2020-04-03 23:09:19 INFO  time out:859 - Updating all external commits history status started
2020-04-03 23:09:19 INFO  time out:861 - Updating all external commits history status completed
2020-04-03 23:09:19 INFO  time out:863 - Updating DeploymentHistory
2020-04-03 23:09:19 INFO  time out:865 - Updating sforgssynchistory
2020-04-03 23:09:19 INFO  time out:867 - Updating BuildSummary
2020-04-03 23:09:19 INFO  time out:378 - Updating CIJobHistory for CIJobOrgProject Name::autorabit.com-PmkSJi_22021Test1 Build Number::9
2020-04-03 23:09:20 INFO  time out:67 - AR-Debug::  agent url for orgName:autorabit.com-PmkSJi is http://localhost:5000/
2020-04-03 23:09:20 INFO  time out:390 - Aborting Job having the key autorabit.com-PmkSJi_22021Test1_9, Job Phase: BUILD
2020-04-03 23:09:20 INFO  time out:179 - AR-Debug::  agent url is http://localhost:5000/
2020-04-03 23:09:26 INFO  time out:184 - BuildAbort Status::Success
2020-04-03 23:09:26 INFO  time out:393 - Success
2020-04-03 23:09:26 INFO  time out:397 - Aborted Job having the key autorabit.com-PmkSJi_22021Test1_9, Job Phase: BUILD
2020-04-03 23:09:26 INFO  time out:463 - Updating CIJobInfo for Project Name::22021Test1OrgName : autorabit.com-PmkSJi
2020-04-03 23:09:26 INFO  time out:869 - Updating MergeHistory
2020-04-03 23:09:26 INFO  time out:871 - Updating RetriveAndCommit History
2020-04-03 23:09:26 INFO  time out:873 - Validate And Commit TempData Deletion Started
2020-04-03 23:09:26 ERROR time out:515 - 
2020-04-03 23:09:26 INFO  time out:876 - Updating UnlockedPackage started
2020-04-03 23:09:26 INFO  time out:878 - Updating UnlockedPackage completed
2020-04-03 23:09:26 INFO  time out:879 - Updating UnlockedPackageVersion started
2020-04-03 23:09:26 INFO  time out:881 - Updating UnlockedPackageVersion completed
2020-04-03 23:09:26 INFO  time out:882 - Updating SFDX Scratch org status started
2020-04-03 23:09:26 INFO  time out:884 - Updating SFDX Scratch org  status completed
2020-04-03 23:09:26 INFO  time out:885 - Updating Sfdx module status started
2020-04-03 23:09:26 INFO  time out:887 - Updating Sfdx module status completed
2020-04-03 23:09:26 INFO  time out:888 - Updating PostActResults  status started
2020-04-03 23:09:26 INFO  time out:890 - Updating PostActResults status completed
2020-04-03 23:09:26 INFO  time out:892 - Updating dataloader  status started
2020-04-03 23:09:26 INFO  time out:894 - Updating dataloader status completed
2020-04-03 23:09:26 INFO  time out:896 - Updating code coverage reports history  status started
2020-04-03 23:09:26 INFO  time out:898 - Updating code coverage reports history status completed
2020-04-03 23:09:26 INFO  time out:900 - Updating tag creation package history status started
2020-04-03 23:09:26 INFO  time out:902 - Updating tag creation package history status completed
2020-04-03 23:09:26 INFO  time out:904 - Updating Feature Versions status started
2020-04-03 23:09:26 INFO  time out:906 - Updating Feature Versions status completed
2020-04-03 23:09:26 INFO  time out:908 - Updating All tables Completed
2020-04-03 23:09:26 INFO  time out:110 - Cleaning up VS code patch files on the server - START
2020-04-03 23:09:26 INFO  time out:117 - Cleaning up VS code patch files on the server - COMPLETE
