2020-01-24 20:15:58 INFO  time out:855 - Updating envprovision job status started
2020-01-24 20:15:59 INFO  time out:857 - Updating envprovision job status completed
2020-01-24 20:15:59 INFO  time out:859 - Updating all external commits history status started
2020-01-24 20:15:59 INFO  time out:861 - Updating all external commits history status completed
2020-01-24 20:15:59 INFO  time out:863 - Updating DeploymentHistory
2020-01-24 20:15:59 INFO  time out:865 - Updating sforgssynchistory
2020-01-24 20:15:59 INFO  time out:867 - Updating BuildSummary
2020-01-24 20:16:01 INFO  time out:869 - Updating MergeHistory
