2020-01-22 18:47:30 INFO  time out:853 - Updating envprovision job status started
2020-01-22 18:47:30 INFO  time out:855 - Updating envprovision job status completed
2020-01-22 18:47:30 INFO  time out:857 - Updating all external commits history status started
2020-01-22 18:47:30 INFO  time out:859 - Updating all external commits history status completed
2020-01-22 18:47:30 INFO  time out:861 - Updating DeploymentHistory
2020-01-22 18:47:30 INFO  time out:863 - Updating sforgssynchistory
2020-01-22 18:47:30 INFO  time out:865 - Updating BuildSummary
2020-01-22 18:47:30 INFO  time out:867 - Updating MergeHistory
2020-01-22 18:47:30 INFO  time out:869 - Updating RetriveAndCommit History
2020-01-22 18:47:31 INFO  time out:871 - Validate And Commit TempData Deletion Started
2020-01-22 18:47:31 INFO  time out:511 - ValidateAndCommitTempData Deleted Successfully : false
2020-01-22 18:47:31 INFO  time out:874 - Updating UnlockedPackage started
2020-01-22 18:47:31 INFO  time out:876 - Updating UnlockedPackage completed
2020-01-22 18:47:31 INFO  time out:877 - Updating UnlockedPackageVersion started
2020-01-22 18:47:31 INFO  time out:879 - Updating UnlockedPackageVersion completed
2020-01-22 18:47:31 INFO  time out:880 - Updating SFDX Scratch org status started
2020-01-22 18:47:31 INFO  time out:882 - Updating SFDX Scratch org  status completed
2020-01-22 18:47:31 INFO  time out:883 - Updating Sfdx module status started
2020-01-22 18:47:31 INFO  time out:885 - Updating Sfdx module status completed
2020-01-22 18:47:31 INFO  time out:886 - Updating PostActResults  status started
2020-01-22 18:47:31 INFO  time out:888 - Updating PostActResults status completed
2020-01-22 18:47:31 INFO  time out:890 - Updating dataloader  status started
2020-01-22 18:47:31 INFO  time out:892 - Updating dataloader status completed
2020-01-22 18:47:31 INFO  time out:894 - Updating code coverage reports history  status started
2020-01-22 18:47:31 INFO  time out:896 - Updating code coverage reports history status completed
2020-01-22 18:47:31 INFO  time out:898 - Updating tag creation package history status started
2020-01-22 18:47:31 INFO  time out:900 - Updating tag creation package history status completed
2020-01-22 18:47:31 INFO  time out:902 - Updating Feature Versions status started
2020-01-22 18:47:31 INFO  time out:904 - Updating Feature Versions status completed
2020-01-22 18:47:31 INFO  time out:906 - Updating All tables Completed
2020-01-22 18:47:31 INFO  time out:109 - Cleaning up VS code patch files on the server - START
2020-01-22 18:47:31 INFO  time out:116 - Cleaning up VS code patch files on the server - COMPLETE
2020-01-23 12:54:58 INFO  time out:853 - Updating envprovision job status started
2020-01-23 12:54:58 INFO  time out:855 - Updating envprovision job status completed
2020-01-23 12:54:58 INFO  time out:857 - Updating all external commits history status started
2020-01-23 12:54:58 INFO  time out:859 - Updating all external commits history status completed
2020-01-23 12:54:58 INFO  time out:861 - Updating DeploymentHistory
2020-01-23 12:54:58 INFO  time out:863 - Updating sforgssynchistory
2020-01-23 12:54:58 INFO  time out:865 - Updating BuildSummary
2020-01-23 12:54:58 INFO  time out:867 - Updating MergeHistory
2020-01-23 12:54:58 INFO  time out:869 - Updating RetriveAndCommit History
2020-01-23 12:54:58 INFO  time out:871 - Validate And Commit TempData Deletion Started
2020-01-23 12:54:58 INFO  time out:511 - ValidateAndCommitTempData Deleted Successfully : false
2020-01-23 12:54:58 INFO  time out:874 - Updating UnlockedPackage started
2020-01-23 12:54:58 INFO  time out:876 - Updating UnlockedPackage completed
2020-01-23 12:54:58 INFO  time out:877 - Updating UnlockedPackageVersion started
2020-01-23 12:54:58 INFO  time out:879 - Updating UnlockedPackageVersion completed
2020-01-23 12:54:58 INFO  time out:880 - Updating SFDX Scratch org status started
2020-01-23 12:54:58 INFO  time out:882 - Updating SFDX Scratch org  status completed
2020-01-23 12:54:58 INFO  time out:883 - Updating Sfdx module status started
2020-01-23 12:54:58 INFO  time out:885 - Updating Sfdx module status completed
2020-01-23 12:54:58 INFO  time out:886 - Updating PostActResults  status started
2020-01-23 12:54:58 INFO  time out:888 - Updating PostActResults status completed
2020-01-23 12:54:58 INFO  time out:890 - Updating dataloader  status started
2020-01-23 12:54:58 INFO  time out:892 - Updating dataloader status completed
2020-01-23 12:54:58 INFO  time out:894 - Updating code coverage reports history  status started
2020-01-23 12:54:58 INFO  time out:896 - Updating code coverage reports history status completed
2020-01-23 12:54:58 INFO  time out:898 - Updating tag creation package history status started
2020-01-23 12:54:58 INFO  time out:900 - Updating tag creation package history status completed
2020-01-23 12:54:58 INFO  time out:902 - Updating Feature Versions status started
2020-01-23 12:54:58 INFO  time out:904 - Updating Feature Versions status completed
2020-01-23 12:54:58 INFO  time out:906 - Updating All tables Completed
2020-01-23 12:54:58 INFO  time out:109 - Cleaning up VS code patch files on the server - START
2020-01-23 12:54:58 INFO  time out:116 - Cleaning up VS code patch files on the server - COMPLETE
2020-01-24 14:19:37 INFO  time out:853 - Updating envprovision job status started
2020-01-24 14:19:37 INFO  time out:855 - Updating envprovision job status completed
2020-01-24 14:19:37 INFO  time out:857 - Updating all external commits history status started
2020-01-24 14:19:37 INFO  time out:859 - Updating all external commits history status completed
2020-01-24 14:19:37 INFO  time out:861 - Updating DeploymentHistory
2020-01-24 14:19:37 INFO  time out:863 - Updating sforgssynchistory
2020-01-24 14:19:37 INFO  time out:865 - Updating BuildSummary
2020-01-24 14:19:37 INFO  time out:867 - Updating MergeHistory
2020-01-24 14:19:38 INFO  time out:869 - Updating RetriveAndCommit History
2020-01-24 14:19:38 INFO  time out:871 - Validate And Commit TempData Deletion Started
2020-01-24 14:19:38 INFO  time out:511 - ValidateAndCommitTempData Deleted Successfully : false
2020-01-24 14:19:38 INFO  time out:874 - Updating UnlockedPackage started
2020-01-24 14:19:38 INFO  time out:876 - Updating UnlockedPackage completed
2020-01-24 14:19:38 INFO  time out:877 - Updating UnlockedPackageVersion started
2020-01-24 14:19:38 INFO  time out:879 - Updating UnlockedPackageVersion completed
2020-01-24 14:19:38 INFO  time out:880 - Updating SFDX Scratch org status started
2020-01-24 14:19:38 INFO  time out:882 - Updating SFDX Scratch org  status completed
2020-01-24 14:19:38 INFO  time out:883 - Updating Sfdx module status started
2020-01-24 14:19:38 INFO  time out:885 - Updating Sfdx module status completed
2020-01-24 14:19:38 INFO  time out:886 - Updating PostActResults  status started
2020-01-24 14:19:38 INFO  time out:888 - Updating PostActResults status completed
2020-01-24 14:19:38 INFO  time out:890 - Updating dataloader  status started
2020-01-24 14:19:38 INFO  time out:892 - Updating dataloader status completed
2020-01-24 14:19:38 INFO  time out:894 - Updating code coverage reports history  status started
2020-01-24 14:19:38 INFO  time out:896 - Updating code coverage reports history status completed
2020-01-24 14:19:38 INFO  time out:898 - Updating tag creation package history status started
2020-01-24 14:19:38 INFO  time out:900 - Updating tag creation package history status completed
2020-01-24 14:19:38 INFO  time out:902 - Updating Feature Versions status started
2020-01-24 14:19:38 INFO  time out:904 - Updating Feature Versions status completed
2020-01-24 14:19:38 INFO  time out:906 - Updating All tables Completed
2020-01-24 14:19:38 INFO  time out:109 - Cleaning up VS code patch files on the server - START
2020-01-24 14:19:38 INFO  time out:116 - Cleaning up VS code patch files on the server - COMPLETE
