2020-03-06 14:41:56 INFO  time out:855 - Updating envprovision job status started
2020-03-06 14:41:56 INFO  time out:857 - Updating envprovision job status completed
2020-03-06 14:41:56 INFO  time out:859 - Updating all external commits history status started
2020-03-06 14:41:56 INFO  time out:861 - Updating all external commits history status completed
2020-03-06 14:41:56 INFO  time out:863 - Updating DeploymentHistory
2020-03-06 14:41:56 INFO  time out:865 - Updating sforgssynchistory
2020-03-06 14:41:56 INFO  time out:867 - Updating BuildSummary
2020-03-06 14:41:57 INFO  time out:869 - Updating MergeHistory
2020-03-06 14:41:57 INFO  time out:871 - Updating RetriveAndCommit History
2020-03-06 14:41:57 INFO  time out:873 - Validate And Commit TempData Deletion Started
2020-03-06 14:41:57 INFO  time out:501 - Deleting Temp Path : D:\filesystem\193\rabit\.rabit\org\autorabit.com-PmkSJi\metadatatemp\rajashekar.j1@autorabit.com\backup55
2020-03-06 14:41:57 INFO  time out:513 - ValidateAndCommitTempData Deleted Successfully : true
2020-03-06 14:41:57 INFO  time out:876 - Updating UnlockedPackage started
2020-03-06 14:41:57 INFO  time out:878 - Updating UnlockedPackage completed
2020-03-06 14:41:57 INFO  time out:879 - Updating UnlockedPackageVersion started
2020-03-06 14:41:57 INFO  time out:881 - Updating UnlockedPackageVersion completed
2020-03-06 14:41:57 INFO  time out:882 - Updating SFDX Scratch org status started
2020-03-06 14:41:57 INFO  time out:884 - Updating SFDX Scratch org  status completed
2020-03-06 14:41:57 INFO  time out:885 - Updating Sfdx module status started
2020-03-06 14:41:57 INFO  time out:887 - Updating Sfdx module status completed
2020-03-06 14:41:57 INFO  time out:888 - Updating PostActResults  status started
2020-03-06 14:41:57 INFO  time out:890 - Updating PostActResults status completed
2020-03-06 14:41:57 INFO  time out:892 - Updating dataloader  status started
2020-03-06 14:41:57 INFO  time out:894 - Updating dataloader status completed
2020-03-06 14:41:57 INFO  time out:896 - Updating code coverage reports history  status started
2020-03-06 14:41:57 INFO  time out:898 - Updating code coverage reports history status completed
2020-03-06 14:41:57 INFO  time out:900 - Updating tag creation package history status started
2020-03-06 14:41:57 INFO  time out:902 - Updating tag creation package history status completed
2020-03-06 14:41:57 INFO  time out:904 - Updating Feature Versions status started
2020-03-06 14:41:57 INFO  time out:906 - Updating Feature Versions status completed
2020-03-06 14:41:57 INFO  time out:908 - Updating All tables Completed
2020-03-06 14:41:57 INFO  time out:110 - Cleaning up VS code patch files on the server - START
2020-03-06 14:41:57 INFO  time out:117 - Cleaning up VS code patch files on the server - COMPLETE
2020-03-09 13:49:31 INFO  time out:855 - Updating envprovision job status started
2020-03-09 13:49:31 INFO  time out:857 - Updating envprovision job status completed
2020-03-09 13:49:31 INFO  time out:859 - Updating all external commits history status started
2020-03-09 13:49:31 INFO  time out:861 - Updating all external commits history status completed
2020-03-09 13:49:31 INFO  time out:863 - Updating DeploymentHistory
2020-03-09 13:49:32 INFO  time out:865 - Updating sforgssynchistory
2020-03-09 13:49:32 INFO  time out:867 - Updating BuildSummary
2020-03-09 13:49:33 INFO  time out:869 - Updating MergeHistory
2020-03-09 13:49:33 INFO  time out:871 - Updating RetriveAndCommit History
2020-03-09 13:49:33 INFO  time out:873 - Validate And Commit TempData Deletion Started
2020-03-09 13:49:34 INFO  time out:501 - Deleting Temp Path : D:\filesystem\193\rabit\.rabit\org\autorabit.com-PmkSJi\metadatatemp\rajashekar.j1@autorabit.com\backup10
2020-03-09 13:49:34 INFO  time out:501 - Deleting Temp Path : D:\filesystem\193\rabit\.rabit\org\autorabit.com-PmkSJi\metadatatemp\rajashekar.j1@autorabit.com\backup11
2020-03-09 13:50:12 INFO  time out:501 - Deleting Temp Path : D:\filesystem\193\rabit\.rabit\org\autorabit.com-PmkSJi\metadatatemp\rajashekar.j1@autorabit.com\backup123
2020-03-09 13:50:12 INFO  time out:501 - Deleting Temp Path : D:\filesystem\193\rabit\.rabit\org\autorabit.com-PmkSJi\metadatatemp\rajashekar.j1@autorabit.com\backup77
2020-03-09 13:50:27 INFO  time out:501 - Deleting Temp Path : D:\filesystem\193\rabit\.rabit\org\autorabit.com-PmkSJi\metadatatemp\rajashekar.j1@autorabit.com\backup88
2020-03-09 13:50:27 INFO  time out:501 - Deleting Temp Path : D:\filesystem\193\rabit\.rabit\org\autorabit.com-PmkSJi\metadatatemp\rajashekar.j1@autorabit.com\backup99
2020-03-09 13:50:43 INFO  time out:501 - Deleting Temp Path : D:\filesystem\193\rabit\.rabit\org\autorabit.com-PmkSJi\metadatatemp\rajashekar.j1@autorabit.com\backupfixtest
2020-03-09 13:50:43 INFO  time out:501 - Deleting Temp Path : D:\filesystem\193\rabit\.rabit\org\autorabit.com-PmkSJi\metadatatemp\rajashekar.j1@autorabit.com\testdeploybackp
2020-03-09 13:50:43 INFO  time out:513 - ValidateAndCommitTempData Deleted Successfully : true
2020-03-09 13:50:43 INFO  time out:876 - Updating UnlockedPackage started
2020-03-09 13:50:43 INFO  time out:878 - Updating UnlockedPackage completed
2020-03-09 13:50:43 INFO  time out:879 - Updating UnlockedPackageVersion started
2020-03-09 13:50:43 INFO  time out:881 - Updating UnlockedPackageVersion completed
2020-03-09 13:50:43 INFO  time out:882 - Updating SFDX Scratch org status started
2020-03-09 13:50:43 INFO  time out:884 - Updating SFDX Scratch org  status completed
2020-03-09 13:50:43 INFO  time out:885 - Updating Sfdx module status started
2020-03-09 13:50:43 INFO  time out:887 - Updating Sfdx module status completed
2020-03-09 13:50:43 INFO  time out:888 - Updating PostActResults  status started
2020-03-09 13:50:43 INFO  time out:890 - Updating PostActResults status completed
2020-03-09 13:50:43 INFO  time out:892 - Updating dataloader  status started
2020-03-09 13:50:43 INFO  time out:894 - Updating dataloader status completed
2020-03-09 13:50:43 INFO  time out:896 - Updating code coverage reports history  status started
2020-03-09 13:50:43 INFO  time out:898 - Updating code coverage reports history status completed
2020-03-09 13:50:43 INFO  time out:900 - Updating tag creation package history status started
2020-03-09 13:50:43 INFO  time out:902 - Updating tag creation package history status completed
2020-03-09 13:50:43 INFO  time out:904 - Updating Feature Versions status started
2020-03-09 13:50:43 INFO  time out:906 - Updating Feature Versions status completed
2020-03-09 13:50:43 INFO  time out:908 - Updating All tables Completed
2020-03-09 13:50:43 INFO  time out:110 - Cleaning up VS code patch files on the server - START
2020-03-09 13:50:43 INFO  time out:117 - Cleaning up VS code patch files on the server - COMPLETE
