2020-01-22 14:13:03 INFO  time out:763 - Updating envprovision job status started
2020-01-22 14:13:03 INFO  time out:765 - Updating envprovision job status completed
2020-01-22 14:13:03 INFO  time out:766 - Updating DeploymentHistory
2020-01-22 14:13:03 INFO  time out:768 - Updating sforgssynchistory
2020-01-22 14:13:03 INFO  time out:770 - Updating BuildSummary
2020-01-22 14:13:03 INFO  time out:772 - Updating MergeHistory
2020-01-22 14:13:03 INFO  time out:774 - Updating RetriveAndCommit History
2020-01-22 14:13:03 INFO  time out:776 - Validate And Commit TempData Deletion Started
2020-01-22 14:13:03 INFO  time out:450 - ValidateAndCommitTempData Delted Successfully : false
2020-01-22 14:13:03 INFO  time out:779 - Updating UnlockedPackage started
2020-01-22 14:13:04 INFO  time out:781 - Updating UnlockedPackage completed
2020-01-22 14:13:04 INFO  time out:782 - Updating UnlockedPackageVersion started
2020-01-22 14:13:04 INFO  time out:784 - Updating UnlockedPackageVersion completed
2020-01-22 14:13:04 INFO  time out:785 - Updating SFDX Scratch org status started
2020-01-22 14:13:04 INFO  time out:787 - Updating SFDX Scratch org  status completed
2020-01-22 14:13:04 INFO  time out:788 - Updating Sfdx module status started
2020-01-22 14:13:04 INFO  time out:790 - Updating Sfdx module status completed
2020-01-22 14:13:04 INFO  time out:791 - Updating PostActResults  status started
2020-01-22 14:13:04 INFO  time out:793 - Updating PostActResults status completed
2020-01-22 14:13:04 INFO  time out:795 - Updating dataloader  status started
2020-01-22 14:13:04 INFO  time out:797 - Updating dataloader status completed
2020-01-22 14:13:04 INFO  time out:799 - Updating code coverage reports history  status started
2020-01-22 14:13:04 INFO  time out:801 - Updating code coverage reports history status completed
2020-01-22 14:13:04 INFO  time out:803 - Updating All tables Completed
