2020-05-13 08:26:35 INFO  time out:843 - Updating envprovision job status started
2020-05-13 08:26:35 INFO  time out:845 - Updating envprovision job status completed
2020-05-13 08:26:35 INFO  time out:847 - Updating all external commits history status started
2020-05-13 08:26:35 INFO  time out:849 - Updating all external commits history status completed
2020-05-13 08:26:35 INFO  time out:851 - Updating DeploymentHistory
2020-05-13 08:26:36 INFO  time out:853 - Updating sforgssynchistory
2020-05-13 08:26:36 INFO  time out:855 - Updating BuildSummary
2020-05-13 08:26:36 INFO  time out:857 - Updating MergeHistory
2020-05-13 08:26:36 INFO  time out:859 - Updating RetriveAndCommit History
2020-05-13 08:26:36 INFO  time out:861 - Validate And Commit TempData Deletion Started
2020-05-13 08:26:36 ERROR time out:503 - 
2020-05-13 08:26:36 INFO  time out:864 - Updating UnlockedPackage started
2020-05-13 08:26:36 INFO  time out:866 - Updating UnlockedPackage completed
2020-05-13 08:26:36 INFO  time out:867 - Updating UnlockedPackageVersion started
2020-05-13 08:26:36 INFO  time out:869 - Updating UnlockedPackageVersion completed
2020-05-13 08:26:36 INFO  time out:870 - Updating SFDX Scratch org status started
2020-05-13 08:26:36 INFO  time out:872 - Updating SFDX Scratch org  status completed
2020-05-13 08:26:36 INFO  time out:873 - Updating Sfdx module status started
2020-05-13 08:26:36 INFO  time out:875 - Updating Sfdx module status completed
2020-05-13 08:26:36 INFO  time out:876 - Updating PostActResults  status started
2020-05-13 08:26:36 INFO  time out:878 - Updating PostActResults status completed
2020-05-13 08:26:36 INFO  time out:880 - Updating dataloader  status started
2020-05-13 08:26:36 INFO  time out:882 - Updating dataloader status completed
2020-05-13 08:26:36 INFO  time out:884 - Updating code coverage reports history  status started
2020-05-13 08:26:36 INFO  time out:886 - Updating code coverage reports history status completed
2020-05-13 08:26:36 INFO  time out:888 - Updating tag creation package history status started
2020-05-13 08:26:36 INFO  time out:890 - Updating tag creation package history status completed
2020-05-13 08:26:36 INFO  time out:892 - Updating Feature Versions status started
2020-05-13 08:26:36 INFO  time out:894 - Updating Feature Versions status completed
2020-05-13 08:26:36 INFO  time out:896 - Updating All tables Completed
