2020-01-03 21:06:28 INFO  time out:768 - Updating envprovision job status started
2020-01-03 21:06:28 INFO  time out:770 - Updating envprovision job status completed
2020-01-03 21:06:28 INFO  time out:772 - Updating all external commits history status started
2020-01-03 21:06:28 INFO  time out:774 - Updating all external commits history status completed
2020-01-03 21:06:28 INFO  time out:776 - Updating DeploymentHistory
2020-01-03 21:06:28 INFO  time out:778 - Updating sforgssynchistory
2020-01-03 21:06:28 INFO  time out:780 - Updating BuildSummary
2020-01-03 21:06:28 INFO  time out:782 - Updating MergeHistory
2020-01-03 21:06:28 INFO  time out:784 - Updating RetriveAndCommit History
2020-01-03 21:06:28 INFO  time out:786 - Validate And Commit TempData Deletion Started
2020-01-03 21:06:28 INFO  time out:451 - ValidateAndCommitTempData Delted Successfully : false
2020-01-03 21:06:28 INFO  time out:789 - Updating UnlockedPackage started
2020-01-03 21:06:28 INFO  time out:791 - Updating UnlockedPackage completed
2020-01-03 21:06:28 INFO  time out:792 - Updating UnlockedPackageVersion started
2020-01-03 21:06:28 INFO  time out:794 - Updating UnlockedPackageVersion completed
2020-01-03 21:06:28 INFO  time out:795 - Updating SFDX Scratch org status started
2020-01-03 21:06:28 INFO  time out:797 - Updating SFDX Scratch org  status completed
2020-01-03 21:06:28 INFO  time out:798 - Updating Sfdx module status started
2020-01-03 21:06:28 INFO  time out:800 - Updating Sfdx module status completed
2020-01-03 21:06:28 INFO  time out:801 - Updating PostActResults  status started
2020-01-03 21:06:28 INFO  time out:803 - Updating PostActResults status completed
2020-01-03 21:06:28 INFO  time out:805 - Updating dataloader  status started
2020-01-03 21:06:28 INFO  time out:807 - Updating dataloader status completed
2020-01-03 21:06:28 INFO  time out:809 - Updating code coverage reports history  status started
2020-01-03 21:06:28 INFO  time out:811 - Updating code coverage reports history status completed
2020-01-03 21:06:28 INFO  time out:813 - Updating All tables Completed
