2020-01-31 18:23:24 INFO  userid_DLPro:188 - Fetching all dataloader processes of type = pro.
2020-01-31 18:23:25 INFO  userid_DLPro:94 - getDataloaderProcess: Fetching dataloader process with orgname = autorabit.com-PmkSJi and processId = 598c4bac-821a-42e9-f957-b5afdaaaaabd.
2020-01-31 18:23:25 INFO  userid_DLPro:204 - getProcessObjects: Fetching dataloader process objects related to processId = 598c4bac-821a-42e9-f957-b5afdaaaaabd.
2020-01-31 18:23:25 INFO  userid_DLPro:94 - getDataloaderProcess: Fetching dataloader process with orgname = autorabit.com-PmkSJi and processId = 598c4bac-821a-42e9-f957-b5afdaaaaabd.
2020-01-31 18:23:25 INFO  userid_DLPro:204 - getProcessObjects: Fetching dataloader process objects related to processId = 598c4bac-821a-42e9-f957-b5afdaaaaabd.
2020-01-31 20:35:04 INFO  userid_DLPro:188 - Fetching all dataloader processes of type = pro.
2020-01-31 20:35:05 INFO  userid_DLPro:94 - getDataloaderProcess: Fetching dataloader process with orgname = autorabit.com-PmkSJi and processId = 598c4bac-821a-42e9-f957-b5afdaaaaabd.
2020-01-31 20:35:05 INFO  userid_DLPro:204 - getProcessObjects: Fetching dataloader process objects related to processId = 598c4bac-821a-42e9-f957-b5afdaaaaabd.
2020-01-31 20:35:05 INFO  userid_DLPro:94 - getDataloaderProcess: Fetching dataloader process with orgname = autorabit.com-PmkSJi and processId = 598c4bac-821a-42e9-f957-b5afdaaaaabd.
2020-01-31 20:35:05 INFO  userid_DLPro:204 - getProcessObjects: Fetching dataloader process objects related to processId = 598c4bac-821a-42e9-f957-b5afdaaaaabd.
2020-01-31 20:36:16 INFO  userid_DLPro:188 - Fetching all dataloader processes of type = pro.
2020-01-31 20:36:17 INFO  userid_DLPro:94 - getDataloaderProcess: Fetching dataloader process with orgname = autorabit.com-PmkSJi and processId = 598c4bac-821a-42e9-f957-b5afdaaaaabd.
2020-01-31 20:36:17 INFO  userid_DLPro:204 - getProcessObjects: Fetching dataloader process objects related to processId = 598c4bac-821a-42e9-f957-b5afdaaaaabd.
2020-01-31 20:36:17 INFO  userid_DLPro:94 - getDataloaderProcess: Fetching dataloader process with orgname = autorabit.com-PmkSJi and processId = 598c4bac-821a-42e9-f957-b5afdaaaaabd.
2020-01-31 20:36:17 INFO  userid_DLPro:204 - getProcessObjects: Fetching dataloader process objects related to processId = 598c4bac-821a-42e9-f957-b5afdaaaaabd.
2020-01-31 20:52:57 INFO  userid_DLPro:188 - Fetching all dataloader processes of type = pro.
2020-01-31 20:52:57 INFO  userid_DLPro:94 - getDataloaderProcess: Fetching dataloader process with orgname = autorabit.com-PmkSJi and processId = 598c4bac-821a-42e9-f957-b5afdaaaaabd.
2020-01-31 20:52:57 INFO  userid_DLPro:204 - getProcessObjects: Fetching dataloader process objects related to processId = 598c4bac-821a-42e9-f957-b5afdaaaaabd.
2020-01-31 20:52:57 INFO  userid_DLPro:94 - getDataloaderProcess: Fetching dataloader process with orgname = autorabit.com-PmkSJi and processId = 598c4bac-821a-42e9-f957-b5afdaaaaabd.
2020-01-31 20:52:57 INFO  userid_DLPro:204 - getProcessObjects: Fetching dataloader process objects related to processId = 598c4bac-821a-42e9-f957-b5afdaaaaabd.
