2020-02-04 18:05:49 INFO  userid_DLPro:188 - Fetching all dataloader processes of type = pro.
2020-02-04 18:05:50 INFO  userid_DLPro:94 - getDataloaderProcess: Fetching dataloader process with orgname = autorabit.com-PmkSJi and processId = 2461f690-4942-44e3-e240-0015f78eb4ad.
2020-02-04 18:05:50 INFO  userid_DLPro:204 - getProcessObjects: Fetching dataloader process objects related to processId = 2461f690-4942-44e3-e240-0015f78eb4ad.
2020-02-04 18:05:50 INFO  userid_DLPro:94 - getDataloaderProcess: Fetching dataloader process with orgname = autorabit.com-PmkSJi and processId = 2461f690-4942-44e3-e240-0015f78eb4ad.
2020-02-04 18:05:50 INFO  userid_DLPro:204 - getProcessObjects: Fetching dataloader process objects related to processId = 2461f690-4942-44e3-e240-0015f78eb4ad.
2020-02-04 18:08:48 INFO  userid_DLPro:188 - Fetching all dataloader processes of type = pro.
2020-02-04 18:08:51 INFO  userid_DLPro:94 - getDataloaderProcess: Fetching dataloader process with orgname = autorabit.com-PmkSJi and processId = 2461f690-4942-44e3-e240-0015f78eb4ad.
2020-02-04 18:08:51 INFO  userid_DLPro:204 - getProcessObjects: Fetching dataloader process objects related to processId = 2461f690-4942-44e3-e240-0015f78eb4ad.
2020-02-04 18:08:51 INFO  userid_DLPro:94 - getDataloaderProcess: Fetching dataloader process with orgname = autorabit.com-PmkSJi and processId = 2461f690-4942-44e3-e240-0015f78eb4ad.
2020-02-04 18:08:51 INFO  userid_DLPro:204 - getProcessObjects: Fetching dataloader process objects related to processId = 2461f690-4942-44e3-e240-0015f78eb4ad.
2020-02-04 18:53:44 INFO  userid_DLPro:188 - Fetching all dataloader processes of type = pro.
2020-02-04 18:53:45 INFO  userid_DLPro:94 - getDataloaderProcess: Fetching dataloader process with orgname = autorabit.com-PmkSJi and processId = 2461f690-4942-44e3-e240-0015f78eb4ad.
2020-02-04 18:53:45 INFO  userid_DLPro:204 - getProcessObjects: Fetching dataloader process objects related to processId = 2461f690-4942-44e3-e240-0015f78eb4ad.
2020-02-04 18:53:45 INFO  userid_DLPro:94 - getDataloaderProcess: Fetching dataloader process with orgname = autorabit.com-PmkSJi and processId = 2461f690-4942-44e3-e240-0015f78eb4ad.
2020-02-04 18:53:45 INFO  userid_DLPro:204 - getProcessObjects: Fetching dataloader process objects related to processId = 2461f690-4942-44e3-e240-0015f78eb4ad.
2020-02-04 18:54:06 INFO  userid_DLPro:188 - Fetching all dataloader processes of type = pro.
2020-02-04 18:54:06 INFO  userid_DLPro:94 - getDataloaderProcess: Fetching dataloader process with orgname = autorabit.com-PmkSJi and processId = 2461f690-4942-44e3-e240-0015f78eb4ad.
2020-02-04 18:54:06 INFO  userid_DLPro:204 - getProcessObjects: Fetching dataloader process objects related to processId = 2461f690-4942-44e3-e240-0015f78eb4ad.
2020-02-04 18:54:06 INFO  userid_DLPro:94 - getDataloaderProcess: Fetching dataloader process with orgname = autorabit.com-PmkSJi and processId = 2461f690-4942-44e3-e240-0015f78eb4ad.
2020-02-04 18:54:06 INFO  userid_DLPro:204 - getProcessObjects: Fetching dataloader process objects related to processId = 2461f690-4942-44e3-e240-0015f78eb4ad.
2020-02-04 18:55:50 INFO  userid_DLPro:94 - getDataloaderProcess: Fetching dataloader process with orgname = autorabit.com-PmkSJi and processId = 561ae2c2-065a-4bd9-fdf1-767fd7a5853a.
2020-02-04 18:55:50 INFO  userid_DLPro:291 - getProcessBasedOnPocessName: Fetching dataloader process with processname = EswarOrg of type =pro.
2020-02-04 18:55:50 INFO  userid_DLPro:6282 - invoked deleteDlpSchedule method start-- deleteDlpSchedule
2020-02-04 18:55:50 INFO  userid_DLPro:204 - getProcessObjects: Fetching dataloader process objects related to processId = 561ae2c2-065a-4bd9-fdf1-767fd7a5853a.
2020-02-04 18:55:50 INFO  userid_DLPro:275 - getProcessObjectsBasedOnName: Fetching dataloader process of processId = 561ae2c2-065a-4bd9-fdf1-767fd7a5853aobject with name = Alcon_AR__ACCObjTest1__c.
2020-02-04 18:55:50 INFO  userid_DLPro:123 - saveDataloaderProcessObjects: Saving dataloader process object name = Alcon_AR__ACCObjTest1__c.
2020-02-04 18:55:50 INFO  userid_DLPro:275 - getProcessObjectsBasedOnName: Fetching dataloader process of processId = 561ae2c2-065a-4bd9-fdf1-767fd7a5853aobject with name = Attachment.
2020-02-04 18:55:50 INFO  userid_DLPro:123 - saveDataloaderProcessObjects: Saving dataloader process object name = Attachment.
2020-02-04 18:55:50 INFO  userid_DLPro:275 - getProcessObjectsBasedOnName: Fetching dataloader process of processId = 561ae2c2-065a-4bd9-fdf1-767fd7a5853aobject with name = ContactRequest.
2020-02-04 18:55:50 INFO  userid_DLPro:123 - saveDataloaderProcessObjects: Saving dataloader process object name = ContactRequest.
2020-02-04 18:55:50 INFO  userid_DLPro:275 - getProcessObjectsBasedOnName: Fetching dataloader process of processId = 561ae2c2-065a-4bd9-fdf1-767fd7a5853aobject with name = ContentVersion.
2020-02-04 18:55:50 INFO  userid_DLPro:123 - saveDataloaderProcessObjects: Saving dataloader process object name = ContentVersion.
2020-02-04 18:55:51 INFO  userid_DLPro:275 - getProcessObjectsBasedOnName: Fetching dataloader process of processId = 561ae2c2-065a-4bd9-fdf1-767fd7a5853aobject with name = FeedComment.
2020-02-04 18:55:51 INFO  userid_DLPro:123 - saveDataloaderProcessObjects: Saving dataloader process object name = FeedComment.
2020-02-04 18:55:51 INFO  userid_DLPro:275 - getProcessObjectsBasedOnName: Fetching dataloader process of processId = 561ae2c2-065a-4bd9-fdf1-767fd7a5853aobject with name = FeedItem.
2020-02-04 18:55:51 INFO  userid_DLPro:123 - saveDataloaderProcessObjects: Saving dataloader process object name = FeedItem.
2020-02-04 18:55:51 INFO  userid_DLPro:275 - getProcessObjectsBasedOnName: Fetching dataloader process of processId = 561ae2c2-065a-4bd9-fdf1-767fd7a5853aobject with name = FlowRecordRelation.
2020-02-04 18:55:51 INFO  userid_DLPro:123 - saveDataloaderProcessObjects: Saving dataloader process object name = FlowRecordRelation.
2020-02-04 18:55:51 INFO  userid_DLPro:275 - getProcessObjectsBasedOnName: Fetching dataloader process of processId = 561ae2c2-065a-4bd9-fdf1-767fd7a5853aobject with name = RecordAction.
2020-02-04 18:55:51 INFO  userid_DLPro:123 - saveDataloaderProcessObjects: Saving dataloader process object name = RecordAction.
2020-02-04 18:55:51 INFO  userid_DLPro:64 - saveDataloaderProcesses: Saving dataloader process with processId = 561ae2c2-065a-4bd9-fdf1-767fd7a5853a.
2020-02-04 18:56:01 INFO  userid_DLPro:94 - getDataloaderProcess: Fetching dataloader process with orgname = autorabit.com-PmkSJi and processId = 561ae2c2-065a-4bd9-fdf1-767fd7a5853a.
2020-02-04 18:56:01 INFO  userid_DLPro:204 - getProcessObjects: Fetching dataloader process objects related to processId = 561ae2c2-065a-4bd9-fdf1-767fd7a5853a.
2020-02-04 18:56:01 INFO  userid_DLPro:138 - saveDataloaderProcessObjects: Saving dataloader process objects.List size : 8.
2020-02-04 18:56:02 INFO  userid_DLPro:64 - saveDataloaderProcesses: Saving dataloader process with processId = 561ae2c2-065a-4bd9-fdf1-767fd7a5853a.
2020-02-04 18:56:02 INFO  userid_DLPro:188 - Fetching all dataloader processes of type = pro.
2020-02-04 18:56:03 INFO  userid_DLPro:94 - getDataloaderProcess: Fetching dataloader process with orgname = autorabit.com-PmkSJi and processId = 561ae2c2-065a-4bd9-fdf1-767fd7a5853a.
2020-02-04 18:56:03 INFO  userid_DLPro:204 - getProcessObjects: Fetching dataloader process objects related to processId = 561ae2c2-065a-4bd9-fdf1-767fd7a5853a.
2020-02-04 18:56:03 INFO  userid_DLPro:94 - getDataloaderProcess: Fetching dataloader process with orgname = autorabit.com-PmkSJi and processId = 561ae2c2-065a-4bd9-fdf1-767fd7a5853a.
2020-02-04 18:56:03 INFO  userid_DLPro:204 - getProcessObjects: Fetching dataloader process objects related to processId = 561ae2c2-065a-4bd9-fdf1-767fd7a5853a.
2020-02-04 18:56:08 INFO  userid_DLPro:188 - Fetching all dataloader processes of type = pro.
2020-02-04 18:56:09 INFO  userid_DLPro:94 - getDataloaderProcess: Fetching dataloader process with orgname = autorabit.com-PmkSJi and processId = 561ae2c2-065a-4bd9-fdf1-767fd7a5853a.
2020-02-04 18:56:09 INFO  userid_DLPro:204 - getProcessObjects: Fetching dataloader process objects related to processId = 561ae2c2-065a-4bd9-fdf1-767fd7a5853a.
2020-02-04 18:56:09 INFO  userid_DLPro:94 - getDataloaderProcess: Fetching dataloader process with orgname = autorabit.com-PmkSJi and processId = 561ae2c2-065a-4bd9-fdf1-767fd7a5853a.
2020-02-04 18:56:09 INFO  userid_DLPro:204 - getProcessObjects: Fetching dataloader process objects related to processId = 561ae2c2-065a-4bd9-fdf1-767fd7a5853a.
2020-02-04 18:56:18 INFO  userid_DLPro:94 - getDataloaderProcess: Fetching dataloader process with orgname = autorabit.com-PmkSJi and processId = 561ae2c2-065a-4bd9-fdf1-767fd7a5853a.
2020-02-04 18:56:18 INFO  userid_DLPro:1166 - Dataloader pro process execution started- ProcessName: EswarOrg OrgName:autorabit.com-PmkSJi UserName:rajashekar.j1@autorabit.com
2020-02-04 18:56:18 INFO  userid_DLPro:64 - saveDataloaderProcesses: Saving dataloader process with processId = 561ae2c2-065a-4bd9-fdf1-767fd7a5853a.
2020-02-04 18:56:18 INFO  userid_DLPro:259 - getProcessObjectsofSpecificType: Fetching dataloader process objects of processId = 561ae2c2-065a-4bd9-fdf1-767fd7a5853a of type = selected.
2020-02-04 18:56:18 INFO  userid_DLPro:1412 - Deleting data files for process : 561ae2c2-065a-4bd9-fdf1-767fd7a5853a
2020-02-04 18:56:18 INFO  userid_DLPro:1423 - Deleting status files for process : 561ae2c2-065a-4bd9-fdf1-767fd7a5853a
2020-02-04 18:56:18 INFO  userid_DLPro:204 - getProcessObjects: Fetching dataloader process objects related to processId = 561ae2c2-065a-4bd9-fdf1-767fd7a5853a.
2020-02-04 18:56:18 INFO  userid_DLPro:138 - saveDataloaderProcessObjects: Saving dataloader process objects.List size : 8.
2020-02-04 18:56:19 INFO  userid_DLPro:188 - Fetching all dataloader processes of type = pro.
2020-02-04 18:56:19 INFO  userid_DLPro:94 - getDataloaderProcess: Fetching dataloader process with orgname = autorabit.com-PmkSJi and processId = 561ae2c2-065a-4bd9-fdf1-767fd7a5853a.
2020-02-04 18:56:19 INFO  userid_DLPro:204 - getProcessObjects: Fetching dataloader process objects related to processId = 561ae2c2-065a-4bd9-fdf1-767fd7a5853a.
2020-02-04 18:56:19 INFO  userid_DLPro:94 - getDataloaderProcess: Fetching dataloader process with orgname = autorabit.com-PmkSJi and processId = 561ae2c2-065a-4bd9-fdf1-767fd7a5853a.
2020-02-04 18:56:19 INFO  userid_DLPro:204 - getProcessObjects: Fetching dataloader process objects related to processId = 561ae2c2-065a-4bd9-fdf1-767fd7a5853a.
2020-02-04 18:56:29 INFO  userid_DLPro:94 - getDataloaderProcess: Fetching dataloader process with orgname = autorabit.com-PmkSJi and processId = 561ae2c2-065a-4bd9-fdf1-767fd7a5853a.
2020-02-04 18:56:29 INFO  userid_DLPro:204 - getProcessObjects: Fetching dataloader process objects related to processId = 561ae2c2-065a-4bd9-fdf1-767fd7a5853a.
2020-02-04 18:56:29 INFO  userid_DLPro:259 - getProcessObjectsofSpecificType: Fetching dataloader process objects of processId = 561ae2c2-065a-4bd9-fdf1-767fd7a5853a of type = child.
2020-02-04 18:56:29 INFO  userid_DLPro:94 - getDataloaderProcess: Fetching dataloader process with orgname = autorabit.com-PmkSJi and processId = 561ae2c2-065a-4bd9-fdf1-767fd7a5853a.
2020-02-04 18:56:29 INFO  userid_DLPro:204 - getProcessObjects: Fetching dataloader process objects related to processId = 561ae2c2-065a-4bd9-fdf1-767fd7a5853a.
2020-02-04 18:56:39 INFO  userid_DLPro:94 - getDataloaderProcess: Fetching dataloader process with orgname = autorabit.com-PmkSJi and processId = 561ae2c2-065a-4bd9-fdf1-767fd7a5853a.
2020-02-04 18:56:39 INFO  userid_DLPro:204 - getProcessObjects: Fetching dataloader process objects related to processId = 561ae2c2-065a-4bd9-fdf1-767fd7a5853a.
2020-02-04 18:56:39 INFO  userid_DLPro:94 - getDataloaderProcess: Fetching dataloader process with orgname = autorabit.com-PmkSJi and processId = 561ae2c2-065a-4bd9-fdf1-767fd7a5853a.
2020-02-04 18:56:39 INFO  userid_DLPro:204 - getProcessObjects: Fetching dataloader process objects related to processId = 561ae2c2-065a-4bd9-fdf1-767fd7a5853a.
2020-02-04 18:56:41 INFO  userid_DLPro:94 - getDataloaderProcess: Fetching dataloader process with orgname = autorabit.com-PmkSJi and processId = 561ae2c2-065a-4bd9-fdf1-767fd7a5853a.
2020-02-04 18:56:44 INFO  userid_DLPro:275 - getProcessObjectsBasedOnName: Fetching dataloader process of processId = 561ae2c2-065a-4bd9-fdf1-767fd7a5853aobject with name = Alcon_AR__ACCObjTest1__c.
2020-02-04 18:56:45 INFO  userid_DLPro:275 - getProcessObjectsBasedOnName: Fetching dataloader process of processId = 561ae2c2-065a-4bd9-fdf1-767fd7a5853aobject with name = ContentVersion.
2020-02-04 18:56:45 INFO  userid_DLPro:3041 - the processId 561ae2c2-065a-4bd9-fdf1-767fd7a5853a folder under directory of mappings is created : D:\filesystem\193\rabit\.rabit\org\autorabit.com-PmkSJi\dataloader\dataloaderpro\mappings\ContentVersion_561ae2c2-065a-4bd9-fdf1-767fd7a5853a.sdl for the org name autorabit.com-PmkSJi
2020-02-04 18:56:47 INFO  userid_DLPro:275 - getProcessObjectsBasedOnName: Fetching dataloader process of processId = 561ae2c2-065a-4bd9-fdf1-767fd7a5853aobject with name = ContentVersion.
2020-02-04 18:56:47 INFO  userid_DLPro:123 - saveDataloaderProcessObjects: Saving dataloader process object name = ContentVersion.
2020-02-04 18:56:48 INFO  userid_DLPro:64 - saveDataloaderProcesses: Saving dataloader process with processId = 561ae2c2-065a-4bd9-fdf1-767fd7a5853a.
2020-02-04 18:56:48 INFO  userid_DLPro:275 - getProcessObjectsBasedOnName: Fetching dataloader process of processId = 561ae2c2-065a-4bd9-fdf1-767fd7a5853aobject with name = ContactRequest.
2020-02-04 18:56:49 INFO  userid_DLPro:94 - getDataloaderProcess: Fetching dataloader process with orgname = autorabit.com-PmkSJi and processId = 561ae2c2-065a-4bd9-fdf1-767fd7a5853a.
2020-02-04 18:56:49 INFO  userid_DLPro:204 - getProcessObjects: Fetching dataloader process objects related to processId = 561ae2c2-065a-4bd9-fdf1-767fd7a5853a.
2020-02-04 18:56:50 INFO  userid_DLPro:94 - getDataloaderProcess: Fetching dataloader process with orgname = autorabit.com-PmkSJi and processId = 561ae2c2-065a-4bd9-fdf1-767fd7a5853a.
2020-02-04 18:56:50 INFO  userid_DLPro:204 - getProcessObjects: Fetching dataloader process objects related to processId = 561ae2c2-065a-4bd9-fdf1-767fd7a5853a.
2020-02-04 18:56:51 INFO  userid_DLPro:275 - getProcessObjectsBasedOnName: Fetching dataloader process of processId = 561ae2c2-065a-4bd9-fdf1-767fd7a5853aobject with name = FeedItem.
2020-02-04 18:56:51 INFO  userid_DLPro:3041 - the processId 561ae2c2-065a-4bd9-fdf1-767fd7a5853a folder under directory of mappings is created : D:\filesystem\193\rabit\.rabit\org\autorabit.com-PmkSJi\dataloader\dataloaderpro\mappings\FeedItem_561ae2c2-065a-4bd9-fdf1-767fd7a5853a.sdl for the org name autorabit.com-PmkSJi
2020-02-04 18:56:54 INFO  userid_DLPro:275 - getProcessObjectsBasedOnName: Fetching dataloader process of processId = 561ae2c2-065a-4bd9-fdf1-767fd7a5853aobject with name = FeedItem.
2020-02-04 18:56:54 INFO  userid_DLPro:123 - saveDataloaderProcessObjects: Saving dataloader process object name = FeedItem.
2020-02-04 18:56:54 INFO  userid_DLPro:64 - saveDataloaderProcesses: Saving dataloader process with processId = 561ae2c2-065a-4bd9-fdf1-767fd7a5853a.
2020-02-04 18:56:54 INFO  userid_DLPro:275 - getProcessObjectsBasedOnName: Fetching dataloader process of processId = 561ae2c2-065a-4bd9-fdf1-767fd7a5853aobject with name = FeedComment.
2020-02-04 18:56:54 INFO  userid_DLPro:3041 - the processId 561ae2c2-065a-4bd9-fdf1-767fd7a5853a folder under directory of mappings is created : D:\filesystem\193\rabit\.rabit\org\autorabit.com-PmkSJi\dataloader\dataloaderpro\mappings\FeedComment_561ae2c2-065a-4bd9-fdf1-767fd7a5853a.sdl for the org name autorabit.com-PmkSJi
2020-02-04 18:56:57 INFO  userid_DLPro:275 - getProcessObjectsBasedOnName: Fetching dataloader process of processId = 561ae2c2-065a-4bd9-fdf1-767fd7a5853aobject with name = FeedComment.
2020-02-04 18:56:57 INFO  userid_DLPro:123 - saveDataloaderProcessObjects: Saving dataloader process object name = FeedComment.
2020-02-04 18:56:57 INFO  userid_DLPro:64 - saveDataloaderProcesses: Saving dataloader process with processId = 561ae2c2-065a-4bd9-fdf1-767fd7a5853a.
2020-02-04 18:56:58 INFO  userid_DLPro:275 - getProcessObjectsBasedOnName: Fetching dataloader process of processId = 561ae2c2-065a-4bd9-fdf1-767fd7a5853aobject with name = Attachment.
2020-02-04 18:56:58 INFO  userid_DLPro:3041 - the processId 561ae2c2-065a-4bd9-fdf1-767fd7a5853a folder under directory of mappings is created : D:\filesystem\193\rabit\.rabit\org\autorabit.com-PmkSJi\dataloader\dataloaderpro\mappings\Attachment_561ae2c2-065a-4bd9-fdf1-767fd7a5853a.sdl for the org name autorabit.com-PmkSJi
2020-02-04 18:57:01 INFO  userid_DLPro:94 - getDataloaderProcess: Fetching dataloader process with orgname = autorabit.com-PmkSJi and processId = 561ae2c2-065a-4bd9-fdf1-767fd7a5853a.
2020-02-04 18:57:01 INFO  userid_DLPro:204 - getProcessObjects: Fetching dataloader process objects related to processId = 561ae2c2-065a-4bd9-fdf1-767fd7a5853a.
2020-02-04 18:57:01 INFO  userid_DLPro:94 - getDataloaderProcess: Fetching dataloader process with orgname = autorabit.com-PmkSJi and processId = 561ae2c2-065a-4bd9-fdf1-767fd7a5853a.
2020-02-04 18:57:01 INFO  userid_DLPro:204 - getProcessObjects: Fetching dataloader process objects related to processId = 561ae2c2-065a-4bd9-fdf1-767fd7a5853a.
2020-02-04 18:57:01 INFO  userid_DLPro:275 - getProcessObjectsBasedOnName: Fetching dataloader process of processId = 561ae2c2-065a-4bd9-fdf1-767fd7a5853aobject with name = Attachment.
2020-02-04 18:57:01 INFO  userid_DLPro:123 - saveDataloaderProcessObjects: Saving dataloader process object name = Attachment.
2020-02-04 18:57:01 INFO  userid_DLPro:64 - saveDataloaderProcesses: Saving dataloader process with processId = 561ae2c2-065a-4bd9-fdf1-767fd7a5853a.
2020-02-04 18:57:01 INFO  userid_DLPro:275 - getProcessObjectsBasedOnName: Fetching dataloader process of processId = 561ae2c2-065a-4bd9-fdf1-767fd7a5853aobject with name = FlowRecordRelation.
2020-02-04 18:57:04 INFO  userid_DLPro:275 - getProcessObjectsBasedOnName: Fetching dataloader process of processId = 561ae2c2-065a-4bd9-fdf1-767fd7a5853aobject with name = RecordAction.
2020-02-04 18:57:06 INFO  userid_DLPro:64 - saveDataloaderProcesses: Saving dataloader process with processId = 561ae2c2-065a-4bd9-fdf1-767fd7a5853a.
2020-02-04 18:57:06 INFO  userid_DLPro:94 - getDataloaderProcess: Fetching dataloader process with orgname = autorabit.com-PmkSJi and processId = 561ae2c2-065a-4bd9-fdf1-767fd7a5853a.
2020-02-04 18:57:06 INFO  userid_DLPro:259 - getProcessObjectsofSpecificType: Fetching dataloader process objects of processId = 561ae2c2-065a-4bd9-fdf1-767fd7a5853a of type = selected.
2020-02-04 18:57:06 INFO  userid_DLPro:64 - saveDataloaderProcesses: Saving dataloader process with processId = 561ae2c2-065a-4bd9-fdf1-767fd7a5853a.
2020-02-04 18:57:06 INFO  userid_DLPro:1293 - Dataloader pro process execution ended- ProcessName: EswarOrg OrgName:autorabit.com-PmkSJi UserName:rajashekar.j1@autorabit.com
2020-02-04 18:57:11 INFO  userid_DLPro:94 - getDataloaderProcess: Fetching dataloader process with orgname = autorabit.com-PmkSJi and processId = 561ae2c2-065a-4bd9-fdf1-767fd7a5853a.
2020-02-04 18:57:11 INFO  userid_DLPro:94 - getDataloaderProcess: Fetching dataloader process with orgname = autorabit.com-PmkSJi and processId = 561ae2c2-065a-4bd9-fdf1-767fd7a5853a.
2020-02-04 18:57:11 INFO  userid_DLPro:204 - getProcessObjects: Fetching dataloader process objects related to processId = 561ae2c2-065a-4bd9-fdf1-767fd7a5853a.
2020-02-04 18:57:11 INFO  userid_DLPro:204 - getProcessObjects: Fetching dataloader process objects related to processId = 561ae2c2-065a-4bd9-fdf1-767fd7a5853a.
2020-02-04 18:57:16 INFO  userid_DLPro:188 - Fetching all dataloader processes of type = pro.
2020-02-04 18:57:17 INFO  userid_DLPro:94 - getDataloaderProcess: Fetching dataloader process with orgname = autorabit.com-PmkSJi and processId = 561ae2c2-065a-4bd9-fdf1-767fd7a5853a.
2020-02-04 18:57:17 INFO  userid_DLPro:204 - getProcessObjects: Fetching dataloader process objects related to processId = 561ae2c2-065a-4bd9-fdf1-767fd7a5853a.
2020-02-04 18:57:17 INFO  userid_DLPro:94 - getDataloaderProcess: Fetching dataloader process with orgname = autorabit.com-PmkSJi and processId = 561ae2c2-065a-4bd9-fdf1-767fd7a5853a.
2020-02-04 18:57:17 INFO  userid_DLPro:204 - getProcessObjects: Fetching dataloader process objects related to processId = 561ae2c2-065a-4bd9-fdf1-767fd7a5853a.
2020-02-04 18:58:53 INFO  userid_DLPro:94 - getDataloaderProcess: Fetching dataloader process with orgname = autorabit.com-PmkSJi and processId = 561ae2c2-065a-4bd9-fdf1-767fd7a5853a.
2020-02-04 18:58:53 INFO  userid_DLPro:204 - getProcessObjects: Fetching dataloader process objects related to processId = 561ae2c2-065a-4bd9-fdf1-767fd7a5853a.
2020-02-04 18:59:11 INFO  userid_DLPro:94 - getDataloaderProcess: Fetching dataloader process with orgname = autorabit.com-PmkSJi and processId = 561ae2c2-065a-4bd9-fdf1-767fd7a5853a.
2020-02-04 18:59:22 INFO  userid_DLPro:94 - getDataloaderProcess: Fetching dataloader process with orgname = autorabit.com-PmkSJi and processId = 561ae2c2-065a-4bd9-fdf1-767fd7a5853a.
2020-02-04 19:01:00 INFO  userid_DLPro:94 - getDataloaderProcess: Fetching dataloader process with orgname = autorabit.com-PmkSJi and processId = 561ae2c2-065a-4bd9-fdf1-767fd7a5853a.
2020-02-04 19:01:00 INFO  userid_DLPro:6282 - invoked deleteDlpSchedule method start-- deleteDlpSchedule
2020-02-04 19:01:00 INFO  userid_DLPro:204 - getProcessObjects: Fetching dataloader process objects related to processId = 561ae2c2-065a-4bd9-fdf1-767fd7a5853a.
2020-02-04 19:01:00 INFO  userid_DLPro:250 - deleteDataloaderProcessObject: Deleting dataloader process object with name Alcon_AR__ACCObjTest1__c.
2020-02-04 19:01:00 INFO  userid_DLPro:275 - getProcessObjectsBasedOnName: Fetching dataloader process of processId = 561ae2c2-065a-4bd9-fdf1-767fd7a5853aobject with name = Account.
2020-02-04 19:01:00 INFO  userid_DLPro:123 - saveDataloaderProcessObjects: Saving dataloader process object name = Account.
2020-02-04 19:01:00 INFO  userid_DLPro:275 - getProcessObjectsBasedOnName: Fetching dataloader process of processId = 561ae2c2-065a-4bd9-fdf1-767fd7a5853aobject with name = AccountBrand.
2020-02-04 19:01:00 INFO  userid_DLPro:123 - saveDataloaderProcessObjects: Saving dataloader process object name = AccountBrand.
2020-02-04 19:01:00 INFO  userid_DLPro:275 - getProcessObjectsBasedOnName: Fetching dataloader process of processId = 561ae2c2-065a-4bd9-fdf1-767fd7a5853aobject with name = AccountCleanInfo.
2020-02-04 19:01:00 INFO  userid_DLPro:123 - saveDataloaderProcessObjects: Saving dataloader process object name = AccountCleanInfo.
2020-02-04 19:01:00 INFO  userid_DLPro:275 - getProcessObjectsBasedOnName: Fetching dataloader process of processId = 561ae2c2-065a-4bd9-fdf1-767fd7a5853aobject with name = AccountTeamMember.
2020-02-04 19:01:00 INFO  userid_DLPro:123 - saveDataloaderProcessObjects: Saving dataloader process object name = AccountTeamMember.
2020-02-04 19:01:00 INFO  userid_DLPro:275 - getProcessObjectsBasedOnName: Fetching dataloader process of processId = 561ae2c2-065a-4bd9-fdf1-767fd7a5853aobject with name = Alcon_AR__Benifit__c.
2020-02-04 19:01:00 INFO  userid_DLPro:123 - saveDataloaderProcessObjects: Saving dataloader process object name = Alcon_AR__Benifit__c.
2020-02-04 19:01:01 INFO  userid_DLPro:275 - getProcessObjectsBasedOnName: Fetching dataloader process of processId = 561ae2c2-065a-4bd9-fdf1-767fd7a5853aobject with name = Asset.
2020-02-04 19:01:01 INFO  userid_DLPro:123 - saveDataloaderProcessObjects: Saving dataloader process object name = Asset.
2020-02-04 19:01:01 INFO  userid_DLPro:275 - getProcessObjectsBasedOnName: Fetching dataloader process of processId = 561ae2c2-065a-4bd9-fdf1-767fd7a5853aobject with name = Attachment.
2020-02-04 19:01:01 INFO  userid_DLPro:123 - saveDataloaderProcessObjects: Saving dataloader process object name = Attachment.
2020-02-04 19:01:01 INFO  userid_DLPro:275 - getProcessObjectsBasedOnName: Fetching dataloader process of processId = 561ae2c2-065a-4bd9-fdf1-767fd7a5853aobject with name = Case.
2020-02-04 19:01:01 INFO  userid_DLPro:123 - saveDataloaderProcessObjects: Saving dataloader process object name = Case.
2020-02-04 19:01:01 INFO  userid_DLPro:275 - getProcessObjectsBasedOnName: Fetching dataloader process of processId = 561ae2c2-065a-4bd9-fdf1-767fd7a5853aobject with name = ChannelProgramMember.
2020-02-04 19:01:01 INFO  userid_DLPro:123 - saveDataloaderProcessObjects: Saving dataloader process object name = ChannelProgramMember.
2020-02-04 19:01:01 INFO  userid_DLPro:275 - getProcessObjectsBasedOnName: Fetching dataloader process of processId = 561ae2c2-065a-4bd9-fdf1-767fd7a5853aobject with name = Contact.
2020-02-04 19:01:01 INFO  userid_DLPro:123 - saveDataloaderProcessObjects: Saving dataloader process object name = Contact.
2020-02-04 19:01:01 INFO  userid_DLPro:275 - getProcessObjectsBasedOnName: Fetching dataloader process of processId = 561ae2c2-065a-4bd9-fdf1-767fd7a5853aobject with name = ContactRequest.
2020-02-04 19:01:01 INFO  userid_DLPro:123 - saveDataloaderProcessObjects: Saving dataloader process object name = ContactRequest.
2020-02-04 19:01:01 INFO  userid_DLPro:275 - getProcessObjectsBasedOnName: Fetching dataloader process of processId = 561ae2c2-065a-4bd9-fdf1-767fd7a5853aobject with name = ContentVersion.
2020-02-04 19:01:01 INFO  userid_DLPro:123 - saveDataloaderProcessObjects: Saving dataloader process object name = ContentVersion.
2020-02-04 19:01:01 INFO  userid_DLPro:275 - getProcessObjectsBasedOnName: Fetching dataloader process of processId = 561ae2c2-065a-4bd9-fdf1-767fd7a5853aobject with name = Contract.
2020-02-04 19:01:01 INFO  userid_DLPro:123 - saveDataloaderProcessObjects: Saving dataloader process object name = Contract.
2020-02-04 19:01:01 INFO  userid_DLPro:275 - getProcessObjectsBasedOnName: Fetching dataloader process of processId = 561ae2c2-065a-4bd9-fdf1-767fd7a5853aobject with name = Event.
2020-02-04 19:01:01 INFO  userid_DLPro:123 - saveDataloaderProcessObjects: Saving dataloader process object name = Event.
2020-02-04 19:01:01 INFO  userid_DLPro:275 - getProcessObjectsBasedOnName: Fetching dataloader process of processId = 561ae2c2-065a-4bd9-fdf1-767fd7a5853aobject with name = FeedComment.
2020-02-04 19:01:01 INFO  userid_DLPro:123 - saveDataloaderProcessObjects: Saving dataloader process object name = FeedComment.
2020-02-04 19:01:02 INFO  userid_DLPro:275 - getProcessObjectsBasedOnName: Fetching dataloader process of processId = 561ae2c2-065a-4bd9-fdf1-767fd7a5853aobject with name = FeedItem.
2020-02-04 19:01:02 INFO  userid_DLPro:123 - saveDataloaderProcessObjects: Saving dataloader process object name = FeedItem.
2020-02-04 19:01:02 INFO  userid_DLPro:275 - getProcessObjectsBasedOnName: Fetching dataloader process of processId = 561ae2c2-065a-4bd9-fdf1-767fd7a5853aobject with name = FlowRecordRelation.
2020-02-04 19:01:02 INFO  userid_DLPro:123 - saveDataloaderProcessObjects: Saving dataloader process object name = FlowRecordRelation.
2020-02-04 19:01:02 INFO  userid_DLPro:275 - getProcessObjectsBasedOnName: Fetching dataloader process of processId = 561ae2c2-065a-4bd9-fdf1-767fd7a5853aobject with name = Lead.
2020-02-04 19:01:02 INFO  userid_DLPro:123 - saveDataloaderProcessObjects: Saving dataloader process object name = Lead.
2020-02-04 19:01:02 INFO  userid_DLPro:275 - getProcessObjectsBasedOnName: Fetching dataloader process of processId = 561ae2c2-065a-4bd9-fdf1-767fd7a5853aobject with name = NetworkSelfRegistration.
2020-02-04 19:01:02 INFO  userid_DLPro:123 - saveDataloaderProcessObjects: Saving dataloader process object name = NetworkSelfRegistration.
2020-02-04 19:01:02 INFO  userid_DLPro:275 - getProcessObjectsBasedOnName: Fetching dataloader process of processId = 561ae2c2-065a-4bd9-fdf1-767fd7a5853aobject with name = Opportunity.
2020-02-04 19:01:02 INFO  userid_DLPro:123 - saveDataloaderProcessObjects: Saving dataloader process object name = Opportunity.
2020-02-04 19:01:02 INFO  userid_DLPro:275 - getProcessObjectsBasedOnName: Fetching dataloader process of processId = 561ae2c2-065a-4bd9-fdf1-767fd7a5853aobject with name = Order.
2020-02-04 19:01:02 INFO  userid_DLPro:123 - saveDataloaderProcessObjects: Saving dataloader process object name = Order.
2020-02-04 19:01:02 INFO  userid_DLPro:275 - getProcessObjectsBasedOnName: Fetching dataloader process of processId = 561ae2c2-065a-4bd9-fdf1-767fd7a5853aobject with name = PartnerFundAllocation.
2020-02-04 19:01:02 INFO  userid_DLPro:123 - saveDataloaderProcessObjects: Saving dataloader process object name = PartnerFundAllocation.
2020-02-04 19:01:02 INFO  userid_DLPro:275 - getProcessObjectsBasedOnName: Fetching dataloader process of processId = 561ae2c2-065a-4bd9-fdf1-767fd7a5853aobject with name = PartnerFundClaim.
2020-02-04 19:01:02 INFO  userid_DLPro:123 - saveDataloaderProcessObjects: Saving dataloader process object name = PartnerFundClaim.
2020-02-04 19:01:02 INFO  userid_DLPro:275 - getProcessObjectsBasedOnName: Fetching dataloader process of processId = 561ae2c2-065a-4bd9-fdf1-767fd7a5853aobject with name = PartnerFundRequest.
2020-02-04 19:01:02 INFO  userid_DLPro:123 - saveDataloaderProcessObjects: Saving dataloader process object name = PartnerFundRequest.
2020-02-04 19:01:02 INFO  userid_DLPro:275 - getProcessObjectsBasedOnName: Fetching dataloader process of processId = 561ae2c2-065a-4bd9-fdf1-767fd7a5853aobject with name = PartnerMarketingBudget.
2020-02-04 19:01:02 INFO  userid_DLPro:123 - saveDataloaderProcessObjects: Saving dataloader process object name = PartnerMarketingBudget.
2020-02-04 19:01:03 INFO  userid_DLPro:275 - getProcessObjectsBasedOnName: Fetching dataloader process of processId = 561ae2c2-065a-4bd9-fdf1-767fd7a5853aobject with name = RecordAction.
2020-02-04 19:01:03 INFO  userid_DLPro:123 - saveDataloaderProcessObjects: Saving dataloader process object name = RecordAction.
2020-02-04 19:01:03 INFO  userid_DLPro:275 - getProcessObjectsBasedOnName: Fetching dataloader process of processId = 561ae2c2-065a-4bd9-fdf1-767fd7a5853aobject with name = Task.
2020-02-04 19:01:03 INFO  userid_DLPro:123 - saveDataloaderProcessObjects: Saving dataloader process object name = Task.
2020-02-04 19:01:04 INFO  userid_DLPro:64 - saveDataloaderProcesses: Saving dataloader process with processId = 561ae2c2-065a-4bd9-fdf1-767fd7a5853a.
2020-02-04 19:01:09 INFO  userid_DLPro:94 - getDataloaderProcess: Fetching dataloader process with orgname = autorabit.com-PmkSJi and processId = 561ae2c2-065a-4bd9-fdf1-767fd7a5853a.
2020-02-04 19:01:09 INFO  userid_DLPro:204 - getProcessObjects: Fetching dataloader process objects related to processId = 561ae2c2-065a-4bd9-fdf1-767fd7a5853a.
2020-02-04 19:01:09 INFO  userid_DLPro:138 - saveDataloaderProcessObjects: Saving dataloader process objects.List size : 27.
2020-02-04 19:01:12 INFO  userid_DLPro:64 - saveDataloaderProcesses: Saving dataloader process with processId = 561ae2c2-065a-4bd9-fdf1-767fd7a5853a.
2020-02-04 19:01:12 INFO  userid_DLPro:188 - Fetching all dataloader processes of type = pro.
2020-02-04 19:01:12 INFO  userid_DLPro:94 - getDataloaderProcess: Fetching dataloader process with orgname = autorabit.com-PmkSJi and processId = 561ae2c2-065a-4bd9-fdf1-767fd7a5853a.
2020-02-04 19:01:12 INFO  userid_DLPro:204 - getProcessObjects: Fetching dataloader process objects related to processId = 561ae2c2-065a-4bd9-fdf1-767fd7a5853a.
2020-02-04 19:01:12 INFO  userid_DLPro:94 - getDataloaderProcess: Fetching dataloader process with orgname = autorabit.com-PmkSJi and processId = 561ae2c2-065a-4bd9-fdf1-767fd7a5853a.
2020-02-04 19:01:12 INFO  userid_DLPro:204 - getProcessObjects: Fetching dataloader process objects related to processId = 561ae2c2-065a-4bd9-fdf1-767fd7a5853a.
2020-02-04 19:14:46 INFO  userid_DLPro:94 - getDataloaderProcess: Fetching dataloader process with orgname = autorabit.com-PmkSJi and processId = 561ae2c2-065a-4bd9-fdf1-767fd7a5853a.
2020-02-04 19:14:46 INFO  userid_DLPro:1166 - Dataloader pro process execution started- ProcessName: EswarOrg OrgName:autorabit.com-PmkSJi UserName:rajashekar.j1@autorabit.com
2020-02-04 19:14:46 INFO  userid_DLPro:64 - saveDataloaderProcesses: Saving dataloader process with processId = 561ae2c2-065a-4bd9-fdf1-767fd7a5853a.
2020-02-04 19:14:46 INFO  userid_DLPro:259 - getProcessObjectsofSpecificType: Fetching dataloader process objects of processId = 561ae2c2-065a-4bd9-fdf1-767fd7a5853a of type = selected.
2020-02-04 19:14:46 INFO  userid_DLPro:1412 - Deleting data files for process : 561ae2c2-065a-4bd9-fdf1-767fd7a5853a
2020-02-04 19:14:46 INFO  userid_DLPro:1423 - Deleting status files for process : 561ae2c2-065a-4bd9-fdf1-767fd7a5853a
2020-02-04 19:14:46 INFO  userid_DLPro:204 - getProcessObjects: Fetching dataloader process objects related to processId = 561ae2c2-065a-4bd9-fdf1-767fd7a5853a.
2020-02-04 19:14:46 INFO  userid_DLPro:138 - saveDataloaderProcessObjects: Saving dataloader process objects.List size : 27.
2020-02-04 19:14:47 INFO  userid_DLPro:188 - Fetching all dataloader processes of type = pro.
2020-02-04 19:14:48 INFO  userid_DLPro:94 - getDataloaderProcess: Fetching dataloader process with orgname = autorabit.com-PmkSJi and processId = 561ae2c2-065a-4bd9-fdf1-767fd7a5853a.
2020-02-04 19:14:48 INFO  userid_DLPro:94 - getDataloaderProcess: Fetching dataloader process with orgname = autorabit.com-PmkSJi and processId = 561ae2c2-065a-4bd9-fdf1-767fd7a5853a.
2020-02-04 19:14:48 INFO  userid_DLPro:204 - getProcessObjects: Fetching dataloader process objects related to processId = 561ae2c2-065a-4bd9-fdf1-767fd7a5853a.
2020-02-04 19:14:48 INFO  userid_DLPro:204 - getProcessObjects: Fetching dataloader process objects related to processId = 561ae2c2-065a-4bd9-fdf1-767fd7a5853a.
2020-02-04 19:14:59 INFO  userid_DLPro:94 - getDataloaderProcess: Fetching dataloader process with orgname = autorabit.com-PmkSJi and processId = 561ae2c2-065a-4bd9-fdf1-767fd7a5853a.
2020-02-04 19:14:59 INFO  userid_DLPro:94 - getDataloaderProcess: Fetching dataloader process with orgname = autorabit.com-PmkSJi and processId = 561ae2c2-065a-4bd9-fdf1-767fd7a5853a.
2020-02-04 19:14:59 INFO  userid_DLPro:204 - getProcessObjects: Fetching dataloader process objects related to processId = 561ae2c2-065a-4bd9-fdf1-767fd7a5853a.
2020-02-04 19:14:59 INFO  userid_DLPro:204 - getProcessObjects: Fetching dataloader process objects related to processId = 561ae2c2-065a-4bd9-fdf1-767fd7a5853a.
2020-02-04 19:15:03 INFO  userid_DLPro:188 - Fetching all dataloader processes of type = pro.
2020-02-04 19:15:04 INFO  userid_DLPro:94 - getDataloaderProcess: Fetching dataloader process with orgname = autorabit.com-PmkSJi and processId = 561ae2c2-065a-4bd9-fdf1-767fd7a5853a.
2020-02-04 19:15:04 INFO  userid_DLPro:204 - getProcessObjects: Fetching dataloader process objects related to processId = 561ae2c2-065a-4bd9-fdf1-767fd7a5853a.
2020-02-04 19:15:04 INFO  userid_DLPro:94 - getDataloaderProcess: Fetching dataloader process with orgname = autorabit.com-PmkSJi and processId = 561ae2c2-065a-4bd9-fdf1-767fd7a5853a.
2020-02-04 19:15:04 INFO  userid_DLPro:204 - getProcessObjects: Fetching dataloader process objects related to processId = 561ae2c2-065a-4bd9-fdf1-767fd7a5853a.
2020-02-04 19:15:08 INFO  userid_DLPro:259 - getProcessObjectsofSpecificType: Fetching dataloader process objects of processId = 561ae2c2-065a-4bd9-fdf1-767fd7a5853a of type = child.
2020-02-04 19:15:09 INFO  userid_DLPro:94 - getDataloaderProcess: Fetching dataloader process with orgname = autorabit.com-PmkSJi and processId = 561ae2c2-065a-4bd9-fdf1-767fd7a5853a.
2020-02-04 19:15:09 INFO  userid_DLPro:204 - getProcessObjects: Fetching dataloader process objects related to processId = 561ae2c2-065a-4bd9-fdf1-767fd7a5853a.
2020-02-04 19:15:14 INFO  userid_DLPro:94 - getDataloaderProcess: Fetching dataloader process with orgname = autorabit.com-PmkSJi and processId = 561ae2c2-065a-4bd9-fdf1-767fd7a5853a.
2020-02-04 19:15:14 INFO  userid_DLPro:204 - getProcessObjects: Fetching dataloader process objects related to processId = 561ae2c2-065a-4bd9-fdf1-767fd7a5853a.
2020-02-04 19:15:14 INFO  userid_DLPro:94 - getDataloaderProcess: Fetching dataloader process with orgname = autorabit.com-PmkSJi and processId = 561ae2c2-065a-4bd9-fdf1-767fd7a5853a.
2020-02-04 19:15:14 INFO  userid_DLPro:204 - getProcessObjects: Fetching dataloader process objects related to processId = 561ae2c2-065a-4bd9-fdf1-767fd7a5853a.
2020-02-04 19:15:19 INFO  userid_DLPro:94 - getDataloaderProcess: Fetching dataloader process with orgname = autorabit.com-PmkSJi and processId = 561ae2c2-065a-4bd9-fdf1-767fd7a5853a.
2020-02-04 19:15:19 INFO  userid_DLPro:204 - getProcessObjects: Fetching dataloader process objects related to processId = 561ae2c2-065a-4bd9-fdf1-767fd7a5853a.
2020-02-04 19:15:24 INFO  userid_DLPro:94 - getDataloaderProcess: Fetching dataloader process with orgname = autorabit.com-PmkSJi and processId = 561ae2c2-065a-4bd9-fdf1-767fd7a5853a.
2020-02-04 19:15:24 INFO  userid_DLPro:204 - getProcessObjects: Fetching dataloader process objects related to processId = 561ae2c2-065a-4bd9-fdf1-767fd7a5853a.
2020-02-04 19:15:24 INFO  userid_DLPro:94 - getDataloaderProcess: Fetching dataloader process with orgname = autorabit.com-PmkSJi and processId = 561ae2c2-065a-4bd9-fdf1-767fd7a5853a.
2020-02-04 19:15:24 INFO  userid_DLPro:204 - getProcessObjects: Fetching dataloader process objects related to processId = 561ae2c2-065a-4bd9-fdf1-767fd7a5853a.
2020-02-04 19:15:29 INFO  userid_DLPro:94 - getDataloaderProcess: Fetching dataloader process with orgname = autorabit.com-PmkSJi and processId = 561ae2c2-065a-4bd9-fdf1-767fd7a5853a.
2020-02-04 19:15:29 INFO  userid_DLPro:204 - getProcessObjects: Fetching dataloader process objects related to processId = 561ae2c2-065a-4bd9-fdf1-767fd7a5853a.
2020-02-04 19:15:34 INFO  userid_DLPro:94 - getDataloaderProcess: Fetching dataloader process with orgname = autorabit.com-PmkSJi and processId = 561ae2c2-065a-4bd9-fdf1-767fd7a5853a.
2020-02-04 19:15:34 INFO  userid_DLPro:204 - getProcessObjects: Fetching dataloader process objects related to processId = 561ae2c2-065a-4bd9-fdf1-767fd7a5853a.
2020-02-04 19:15:34 INFO  userid_DLPro:94 - getDataloaderProcess: Fetching dataloader process with orgname = autorabit.com-PmkSJi and processId = 561ae2c2-065a-4bd9-fdf1-767fd7a5853a.
2020-02-04 19:15:34 INFO  userid_DLPro:204 - getProcessObjects: Fetching dataloader process objects related to processId = 561ae2c2-065a-4bd9-fdf1-767fd7a5853a.
2020-02-04 19:15:39 INFO  userid_DLPro:64 - saveDataloaderProcesses: Saving dataloader process with processId = 561ae2c2-065a-4bd9-fdf1-767fd7a5853a.
2020-02-04 19:15:40 INFO  userid_DLPro:94 - getDataloaderProcess: Fetching dataloader process with orgname = autorabit.com-PmkSJi and processId = 561ae2c2-065a-4bd9-fdf1-767fd7a5853a.
2020-02-04 19:15:40 INFO  userid_DLPro:204 - getProcessObjects: Fetching dataloader process objects related to processId = 561ae2c2-065a-4bd9-fdf1-767fd7a5853a.
2020-02-04 19:15:44 INFO  userid_DLPro:94 - getDataloaderProcess: Fetching dataloader process with orgname = autorabit.com-PmkSJi and processId = 561ae2c2-065a-4bd9-fdf1-767fd7a5853a.
2020-02-04 19:15:44 INFO  userid_DLPro:204 - getProcessObjects: Fetching dataloader process objects related to processId = 561ae2c2-065a-4bd9-fdf1-767fd7a5853a.
2020-02-04 19:15:44 INFO  userid_DLPro:94 - getDataloaderProcess: Fetching dataloader process with orgname = autorabit.com-PmkSJi and processId = 561ae2c2-065a-4bd9-fdf1-767fd7a5853a.
2020-02-04 19:15:44 INFO  userid_DLPro:204 - getProcessObjects: Fetching dataloader process objects related to processId = 561ae2c2-065a-4bd9-fdf1-767fd7a5853a.
2020-02-04 19:15:47 INFO  userid_DLPro:204 - getProcessObjects: Fetching dataloader process objects related to processId = 561ae2c2-065a-4bd9-fdf1-767fd7a5853a.
2020-02-04 19:15:47 INFO  userid_DLPro:138 - saveDataloaderProcessObjects: Saving dataloader process objects.List size : 27.
2020-02-04 19:15:49 INFO  userid_DLPro:275 - getProcessObjectsBasedOnName: Fetching dataloader process of processId = 561ae2c2-065a-4bd9-fdf1-767fd7a5853aobject with name = Account.
2020-02-04 19:15:49 INFO  userid_DLPro:275 - getProcessObjectsBasedOnName: Fetching dataloader process of processId = 561ae2c2-065a-4bd9-fdf1-767fd7a5853aobject with name = ContentVersion.
2020-02-04 19:15:49 INFO  userid_DLPro:275 - getProcessObjectsBasedOnName: Fetching dataloader process of processId = 561ae2c2-065a-4bd9-fdf1-767fd7a5853aobject with name = Task.
2020-02-04 19:15:49 INFO  userid_DLPro:275 - getProcessObjectsBasedOnName: Fetching dataloader process of processId = 561ae2c2-065a-4bd9-fdf1-767fd7a5853aobject with name = ContactRequest.
2020-02-04 19:15:49 INFO  userid_DLPro:275 - getProcessObjectsBasedOnName: Fetching dataloader process of processId = 561ae2c2-065a-4bd9-fdf1-767fd7a5853aobject with name = AccountTeamMember.
2020-02-04 19:15:49 INFO  userid_DLPro:275 - getProcessObjectsBasedOnName: Fetching dataloader process of processId = 561ae2c2-065a-4bd9-fdf1-767fd7a5853aobject with name = AccountBrand.
2020-02-04 19:15:49 INFO  userid_DLPro:275 - getProcessObjectsBasedOnName: Fetching dataloader process of processId = 561ae2c2-065a-4bd9-fdf1-767fd7a5853aobject with name = PartnerMarketingBudget.
2020-02-04 19:15:49 INFO  userid_DLPro:275 - getProcessObjectsBasedOnName: Fetching dataloader process of processId = 561ae2c2-065a-4bd9-fdf1-767fd7a5853aobject with name = Alcon_AR__Benifit__c.
2020-02-04 19:15:49 INFO  userid_DLPro:275 - getProcessObjectsBasedOnName: Fetching dataloader process of processId = 561ae2c2-065a-4bd9-fdf1-767fd7a5853aobject with name = Attachment.
2020-02-04 19:15:49 INFO  userid_DLPro:275 - getProcessObjectsBasedOnName: Fetching dataloader process of processId = 561ae2c2-065a-4bd9-fdf1-767fd7a5853aobject with name = Case.
2020-02-04 19:15:49 INFO  userid_DLPro:275 - getProcessObjectsBasedOnName: Fetching dataloader process of processId = 561ae2c2-065a-4bd9-fdf1-767fd7a5853aobject with name = PartnerFundAllocation.
2020-02-04 19:15:49 INFO  userid_DLPro:275 - getProcessObjectsBasedOnName: Fetching dataloader process of processId = 561ae2c2-065a-4bd9-fdf1-767fd7a5853aobject with name = FeedItem.
2020-02-04 19:15:49 INFO  userid_DLPro:275 - getProcessObjectsBasedOnName: Fetching dataloader process of processId = 561ae2c2-065a-4bd9-fdf1-767fd7a5853aobject with name = FeedComment.
2020-02-04 19:15:49 INFO  userid_DLPro:275 - getProcessObjectsBasedOnName: Fetching dataloader process of processId = 561ae2c2-065a-4bd9-fdf1-767fd7a5853aobject with name = Opportunity.
2020-02-04 19:15:49 INFO  userid_DLPro:275 - getProcessObjectsBasedOnName: Fetching dataloader process of processId = 561ae2c2-065a-4bd9-fdf1-767fd7a5853aobject with name = Lead.
2020-02-04 19:15:49 INFO  userid_DLPro:275 - getProcessObjectsBasedOnName: Fetching dataloader process of processId = 561ae2c2-065a-4bd9-fdf1-767fd7a5853aobject with name = Asset.
2020-02-04 19:15:49 INFO  userid_DLPro:275 - getProcessObjectsBasedOnName: Fetching dataloader process of processId = 561ae2c2-065a-4bd9-fdf1-767fd7a5853aobject with name = PartnerFundClaim.
2020-02-04 19:15:49 INFO  userid_DLPro:275 - getProcessObjectsBasedOnName: Fetching dataloader process of processId = 561ae2c2-065a-4bd9-fdf1-767fd7a5853aobject with name = Order.
2020-02-04 19:15:49 INFO  userid_DLPro:275 - getProcessObjectsBasedOnName: Fetching dataloader process of processId = 561ae2c2-065a-4bd9-fdf1-767fd7a5853aobject with name = AccountCleanInfo.
2020-02-04 19:15:49 INFO  userid_DLPro:275 - getProcessObjectsBasedOnName: Fetching dataloader process of processId = 561ae2c2-065a-4bd9-fdf1-767fd7a5853aobject with name = NetworkSelfRegistration.
2020-02-04 19:15:49 INFO  userid_DLPro:275 - getProcessObjectsBasedOnName: Fetching dataloader process of processId = 561ae2c2-065a-4bd9-fdf1-767fd7a5853aobject with name = PartnerFundRequest.
2020-02-04 19:15:49 INFO  userid_DLPro:275 - getProcessObjectsBasedOnName: Fetching dataloader process of processId = 561ae2c2-065a-4bd9-fdf1-767fd7a5853aobject with name = Contact.
2020-02-04 19:15:49 INFO  userid_DLPro:275 - getProcessObjectsBasedOnName: Fetching dataloader process of processId = 561ae2c2-065a-4bd9-fdf1-767fd7a5853aobject with name = Event.
2020-02-04 19:15:49 INFO  userid_DLPro:275 - getProcessObjectsBasedOnName: Fetching dataloader process of processId = 561ae2c2-065a-4bd9-fdf1-767fd7a5853aobject with name = FlowRecordRelation.
2020-02-04 19:15:49 INFO  userid_DLPro:275 - getProcessObjectsBasedOnName: Fetching dataloader process of processId = 561ae2c2-065a-4bd9-fdf1-767fd7a5853aobject with name = RecordAction.
2020-02-04 19:15:49 INFO  userid_DLPro:275 - getProcessObjectsBasedOnName: Fetching dataloader process of processId = 561ae2c2-065a-4bd9-fdf1-767fd7a5853aobject with name = Contract.
2020-02-04 19:15:49 INFO  userid_DLPro:275 - getProcessObjectsBasedOnName: Fetching dataloader process of processId = 561ae2c2-065a-4bd9-fdf1-767fd7a5853aobject with name = ChannelProgramMember.
2020-02-04 19:15:50 INFO  userid_DLPro:94 - getDataloaderProcess: Fetching dataloader process with orgname = autorabit.com-PmkSJi and processId = 561ae2c2-065a-4bd9-fdf1-767fd7a5853a.
2020-02-04 19:15:50 INFO  userid_DLPro:204 - getProcessObjects: Fetching dataloader process objects related to processId = 561ae2c2-065a-4bd9-fdf1-767fd7a5853a.
2020-02-04 19:15:54 INFO  userid_DLPro:94 - getDataloaderProcess: Fetching dataloader process with orgname = autorabit.com-PmkSJi and processId = 561ae2c2-065a-4bd9-fdf1-767fd7a5853a.
2020-02-04 19:15:54 INFO  userid_DLPro:94 - getDataloaderProcess: Fetching dataloader process with orgname = autorabit.com-PmkSJi and processId = 561ae2c2-065a-4bd9-fdf1-767fd7a5853a.
2020-02-04 19:15:54 INFO  userid_DLPro:204 - getProcessObjects: Fetching dataloader process objects related to processId = 561ae2c2-065a-4bd9-fdf1-767fd7a5853a.
2020-02-04 19:15:54 INFO  userid_DLPro:204 - getProcessObjects: Fetching dataloader process objects related to processId = 561ae2c2-065a-4bd9-fdf1-767fd7a5853a.
2020-02-04 19:15:55 INFO  userid_DLPro:94 - getDataloaderProcess: Fetching dataloader process with orgname = autorabit.com-PmkSJi and processId = 561ae2c2-065a-4bd9-fdf1-767fd7a5853a.
2020-02-04 19:15:57 INFO  userid_DLPro:275 - getProcessObjectsBasedOnName: Fetching dataloader process of processId = 561ae2c2-065a-4bd9-fdf1-767fd7a5853aobject with name = Account.
2020-02-04 19:16:00 INFO  userid_DLPro:94 - getDataloaderProcess: Fetching dataloader process with orgname = autorabit.com-PmkSJi and processId = 561ae2c2-065a-4bd9-fdf1-767fd7a5853a.
2020-02-04 19:16:00 INFO  userid_DLPro:204 - getProcessObjects: Fetching dataloader process objects related to processId = 561ae2c2-065a-4bd9-fdf1-767fd7a5853a.
2020-02-04 19:16:03 INFO  userid_DLPro:3041 - the processId 561ae2c2-065a-4bd9-fdf1-767fd7a5853a folder under directory of mappings is created : D:\filesystem\193\rabit\.rabit\org\autorabit.com-PmkSJi\dataloader\dataloaderpro\mappings\Account_561ae2c2-065a-4bd9-fdf1-767fd7a5853a.sdl for the org name autorabit.com-PmkSJi
2020-02-04 19:16:04 INFO  userid_DLPro:94 - getDataloaderProcess: Fetching dataloader process with orgname = autorabit.com-PmkSJi and processId = 561ae2c2-065a-4bd9-fdf1-767fd7a5853a.
2020-02-04 19:16:04 INFO  userid_DLPro:204 - getProcessObjects: Fetching dataloader process objects related to processId = 561ae2c2-065a-4bd9-fdf1-767fd7a5853a.
2020-02-04 19:16:04 INFO  userid_DLPro:94 - getDataloaderProcess: Fetching dataloader process with orgname = autorabit.com-PmkSJi and processId = 561ae2c2-065a-4bd9-fdf1-767fd7a5853a.
2020-02-04 19:16:04 INFO  userid_DLPro:204 - getProcessObjects: Fetching dataloader process objects related to processId = 561ae2c2-065a-4bd9-fdf1-767fd7a5853a.
2020-02-04 19:16:11 INFO  userid_DLPro:94 - getDataloaderProcess: Fetching dataloader process with orgname = autorabit.com-PmkSJi and processId = 561ae2c2-065a-4bd9-fdf1-767fd7a5853a.
2020-02-04 19:16:11 INFO  userid_DLPro:204 - getProcessObjects: Fetching dataloader process objects related to processId = 561ae2c2-065a-4bd9-fdf1-767fd7a5853a.
2020-02-04 19:16:15 INFO  userid_DLPro:94 - getDataloaderProcess: Fetching dataloader process with orgname = autorabit.com-PmkSJi and processId = 561ae2c2-065a-4bd9-fdf1-767fd7a5853a.
2020-02-04 19:16:15 INFO  userid_DLPro:204 - getProcessObjects: Fetching dataloader process objects related to processId = 561ae2c2-065a-4bd9-fdf1-767fd7a5853a.
2020-02-04 19:16:15 INFO  userid_DLPro:94 - getDataloaderProcess: Fetching dataloader process with orgname = autorabit.com-PmkSJi and processId = 561ae2c2-065a-4bd9-fdf1-767fd7a5853a.
2020-02-04 19:16:15 INFO  userid_DLPro:204 - getProcessObjects: Fetching dataloader process objects related to processId = 561ae2c2-065a-4bd9-fdf1-767fd7a5853a.
2020-02-04 19:16:22 INFO  userid_DLPro:94 - getDataloaderProcess: Fetching dataloader process with orgname = autorabit.com-PmkSJi and processId = 561ae2c2-065a-4bd9-fdf1-767fd7a5853a.
2020-02-04 19:16:22 INFO  userid_DLPro:204 - getProcessObjects: Fetching dataloader process objects related to processId = 561ae2c2-065a-4bd9-fdf1-767fd7a5853a.
2020-02-04 19:16:25 INFO  userid_DLPro:94 - getDataloaderProcess: Fetching dataloader process with orgname = autorabit.com-PmkSJi and processId = 561ae2c2-065a-4bd9-fdf1-767fd7a5853a.
2020-02-04 19:16:25 INFO  userid_DLPro:204 - getProcessObjects: Fetching dataloader process objects related to processId = 561ae2c2-065a-4bd9-fdf1-767fd7a5853a.
2020-02-04 19:16:25 INFO  userid_DLPro:94 - getDataloaderProcess: Fetching dataloader process with orgname = autorabit.com-PmkSJi and processId = 561ae2c2-065a-4bd9-fdf1-767fd7a5853a.
2020-02-04 19:16:25 INFO  userid_DLPro:204 - getProcessObjects: Fetching dataloader process objects related to processId = 561ae2c2-065a-4bd9-fdf1-767fd7a5853a.
2020-02-04 19:16:32 INFO  userid_DLPro:94 - getDataloaderProcess: Fetching dataloader process with orgname = autorabit.com-PmkSJi and processId = 561ae2c2-065a-4bd9-fdf1-767fd7a5853a.
2020-02-04 19:16:32 INFO  userid_DLPro:204 - getProcessObjects: Fetching dataloader process objects related to processId = 561ae2c2-065a-4bd9-fdf1-767fd7a5853a.
2020-02-04 19:16:35 INFO  userid_DLPro:94 - getDataloaderProcess: Fetching dataloader process with orgname = autorabit.com-PmkSJi and processId = 561ae2c2-065a-4bd9-fdf1-767fd7a5853a.
2020-02-04 19:16:35 INFO  userid_DLPro:94 - getDataloaderProcess: Fetching dataloader process with orgname = autorabit.com-PmkSJi and processId = 561ae2c2-065a-4bd9-fdf1-767fd7a5853a.
2020-02-04 19:16:35 INFO  userid_DLPro:204 - getProcessObjects: Fetching dataloader process objects related to processId = 561ae2c2-065a-4bd9-fdf1-767fd7a5853a.
2020-02-04 19:16:35 INFO  userid_DLPro:204 - getProcessObjects: Fetching dataloader process objects related to processId = 561ae2c2-065a-4bd9-fdf1-767fd7a5853a.
2020-02-04 19:16:43 INFO  userid_DLPro:94 - getDataloaderProcess: Fetching dataloader process with orgname = autorabit.com-PmkSJi and processId = 561ae2c2-065a-4bd9-fdf1-767fd7a5853a.
2020-02-04 19:16:43 INFO  userid_DLPro:204 - getProcessObjects: Fetching dataloader process objects related to processId = 561ae2c2-065a-4bd9-fdf1-767fd7a5853a.
2020-02-04 19:16:45 INFO  userid_DLPro:94 - getDataloaderProcess: Fetching dataloader process with orgname = autorabit.com-PmkSJi and processId = 561ae2c2-065a-4bd9-fdf1-767fd7a5853a.
2020-02-04 19:16:45 INFO  userid_DLPro:94 - getDataloaderProcess: Fetching dataloader process with orgname = autorabit.com-PmkSJi and processId = 561ae2c2-065a-4bd9-fdf1-767fd7a5853a.
2020-02-04 19:16:45 INFO  userid_DLPro:204 - getProcessObjects: Fetching dataloader process objects related to processId = 561ae2c2-065a-4bd9-fdf1-767fd7a5853a.
2020-02-04 19:16:45 INFO  userid_DLPro:204 - getProcessObjects: Fetching dataloader process objects related to processId = 561ae2c2-065a-4bd9-fdf1-767fd7a5853a.
2020-02-04 19:16:53 INFO  userid_DLPro:94 - getDataloaderProcess: Fetching dataloader process with orgname = autorabit.com-PmkSJi and processId = 561ae2c2-065a-4bd9-fdf1-767fd7a5853a.
2020-02-04 19:16:54 INFO  userid_DLPro:204 - getProcessObjects: Fetching dataloader process objects related to processId = 561ae2c2-065a-4bd9-fdf1-767fd7a5853a.
2020-02-04 19:16:56 INFO  userid_DLPro:94 - getDataloaderProcess: Fetching dataloader process with orgname = autorabit.com-PmkSJi and processId = 561ae2c2-065a-4bd9-fdf1-767fd7a5853a.
2020-02-04 19:16:56 INFO  userid_DLPro:204 - getProcessObjects: Fetching dataloader process objects related to processId = 561ae2c2-065a-4bd9-fdf1-767fd7a5853a.
2020-02-04 19:16:56 INFO  userid_DLPro:94 - getDataloaderProcess: Fetching dataloader process with orgname = autorabit.com-PmkSJi and processId = 561ae2c2-065a-4bd9-fdf1-767fd7a5853a.
2020-02-04 19:16:56 INFO  userid_DLPro:204 - getProcessObjects: Fetching dataloader process objects related to processId = 561ae2c2-065a-4bd9-fdf1-767fd7a5853a.
2020-02-04 19:17:00 INFO  userid_DLPro:275 - getProcessObjectsBasedOnName: Fetching dataloader process of processId = 561ae2c2-065a-4bd9-fdf1-767fd7a5853aobject with name = Account.
2020-02-04 19:17:04 INFO  userid_DLPro:94 - getDataloaderProcess: Fetching dataloader process with orgname = autorabit.com-PmkSJi and processId = 561ae2c2-065a-4bd9-fdf1-767fd7a5853a.
2020-02-04 19:17:04 INFO  userid_DLPro:204 - getProcessObjects: Fetching dataloader process objects related to processId = 561ae2c2-065a-4bd9-fdf1-767fd7a5853a.
2020-02-04 19:17:06 INFO  userid_DLPro:94 - getDataloaderProcess: Fetching dataloader process with orgname = autorabit.com-PmkSJi and processId = 561ae2c2-065a-4bd9-fdf1-767fd7a5853a.
2020-02-04 19:17:06 INFO  userid_DLPro:204 - getProcessObjects: Fetching dataloader process objects related to processId = 561ae2c2-065a-4bd9-fdf1-767fd7a5853a.
2020-02-04 19:17:06 INFO  userid_DLPro:94 - getDataloaderProcess: Fetching dataloader process with orgname = autorabit.com-PmkSJi and processId = 561ae2c2-065a-4bd9-fdf1-767fd7a5853a.
2020-02-04 19:17:06 INFO  userid_DLPro:204 - getProcessObjects: Fetching dataloader process objects related to processId = 561ae2c2-065a-4bd9-fdf1-767fd7a5853a.
2020-02-04 19:17:07 INFO  userid_DLPro:3284 - file has been created : Account_561ae2c2-065a-4bd9-fdf1-767fd7a5853a_temp.csv
2020-02-04 19:17:08 INFO  userid_DLPro:3342 - csvtempFile file has been renamed : Account_561ae2c2-065a-4bd9-fdf1-767fd7a5853a_temp.csv
2020-02-04 19:17:08 INFO  userid_DLPro:123 - saveDataloaderProcessObjects: Saving dataloader process object name = Account.
2020-02-04 19:17:08 INFO  userid_DLPro:64 - saveDataloaderProcesses: Saving dataloader process with processId = 561ae2c2-065a-4bd9-fdf1-767fd7a5853a.
2020-02-04 19:17:08 INFO  userid_DLPro:2520 - csvFile file has been renamedAccount_561ae2c2-065a-4bd9-fdf1-767fd7a5853a_success.csv
2020-02-04 19:17:08 INFO  userid_DLPro:2523 - csvFile file has been renamedAccount_561ae2c2-065a-4bd9-fdf1-767fd7a5853a_success_temp.csv
2020-02-04 19:17:08 INFO  userid_DLPro:2520 - csvFile file has been renamedAccount_561ae2c2-065a-4bd9-fdf1-767fd7a5853a_error.csv
2020-02-04 19:17:08 INFO  userid_DLPro:2523 - csvFile file has been renamedAccount_561ae2c2-065a-4bd9-fdf1-767fd7a5853a_error_temp.csv
2020-02-04 19:17:08 INFO  userid_DLPro:275 - getProcessObjectsBasedOnName: Fetching dataloader process of processId = 561ae2c2-065a-4bd9-fdf1-767fd7a5853aobject with name = ContentVersion.
2020-02-04 19:17:14 INFO  userid_DLPro:275 - getProcessObjectsBasedOnName: Fetching dataloader process of processId = 561ae2c2-065a-4bd9-fdf1-767fd7a5853aobject with name = ContentVersion.
2020-02-04 19:17:14 INFO  userid_DLPro:123 - saveDataloaderProcessObjects: Saving dataloader process object name = ContentVersion.
2020-02-04 19:17:14 INFO  userid_DLPro:94 - getDataloaderProcess: Fetching dataloader process with orgname = autorabit.com-PmkSJi and processId = 561ae2c2-065a-4bd9-fdf1-767fd7a5853a.
2020-02-04 19:17:14 INFO  userid_DLPro:64 - saveDataloaderProcesses: Saving dataloader process with processId = 561ae2c2-065a-4bd9-fdf1-767fd7a5853a.
2020-02-04 19:17:14 INFO  userid_DLPro:204 - getProcessObjects: Fetching dataloader process objects related to processId = 561ae2c2-065a-4bd9-fdf1-767fd7a5853a.
2020-02-04 19:17:14 INFO  userid_DLPro:275 - getProcessObjectsBasedOnName: Fetching dataloader process of processId = 561ae2c2-065a-4bd9-fdf1-767fd7a5853aobject with name = Task.
2020-02-04 19:17:16 INFO  userid_DLPro:94 - getDataloaderProcess: Fetching dataloader process with orgname = autorabit.com-PmkSJi and processId = 561ae2c2-065a-4bd9-fdf1-767fd7a5853a.
2020-02-04 19:17:16 INFO  userid_DLPro:204 - getProcessObjects: Fetching dataloader process objects related to processId = 561ae2c2-065a-4bd9-fdf1-767fd7a5853a.
2020-02-04 19:17:16 INFO  userid_DLPro:94 - getDataloaderProcess: Fetching dataloader process with orgname = autorabit.com-PmkSJi and processId = 561ae2c2-065a-4bd9-fdf1-767fd7a5853a.
2020-02-04 19:17:16 INFO  userid_DLPro:204 - getProcessObjects: Fetching dataloader process objects related to processId = 561ae2c2-065a-4bd9-fdf1-767fd7a5853a.
2020-02-04 19:17:16 INFO  userid_DLPro:275 - getProcessObjectsBasedOnName: Fetching dataloader process of processId = 561ae2c2-065a-4bd9-fdf1-767fd7a5853aobject with name = ContactRequest.
2020-02-04 19:17:18 INFO  userid_DLPro:275 - getProcessObjectsBasedOnName: Fetching dataloader process of processId = 561ae2c2-065a-4bd9-fdf1-767fd7a5853aobject with name = AccountTeamMember.
2020-02-04 19:17:18 INFO  userid_DLPro:3041 - the processId 561ae2c2-065a-4bd9-fdf1-767fd7a5853a folder under directory of mappings is created : D:\filesystem\193\rabit\.rabit\org\autorabit.com-PmkSJi\dataloader\dataloaderpro\mappings\AccountTeamMember_561ae2c2-065a-4bd9-fdf1-767fd7a5853a.sdl for the org name autorabit.com-PmkSJi
2020-02-04 19:17:20 INFO  userid_DLPro:275 - getProcessObjectsBasedOnName: Fetching dataloader process of processId = 561ae2c2-065a-4bd9-fdf1-767fd7a5853aobject with name = AccountTeamMember.
2020-02-04 19:17:20 INFO  userid_DLPro:123 - saveDataloaderProcessObjects: Saving dataloader process object name = AccountTeamMember.
2020-02-04 19:17:20 INFO  userid_DLPro:64 - saveDataloaderProcesses: Saving dataloader process with processId = 561ae2c2-065a-4bd9-fdf1-767fd7a5853a.
2020-02-04 19:17:20 INFO  userid_DLPro:275 - getProcessObjectsBasedOnName: Fetching dataloader process of processId = 561ae2c2-065a-4bd9-fdf1-767fd7a5853aobject with name = Attachment.
2020-02-04 19:17:20 INFO  userid_DLPro:2914 -  the processId 561ae2c2-065a-4bd9-fdf1-767fd7a5853a folder under data directory of dataloader pro is created : D:\filesystem\193\rabit\.rabit\org\autorabit.com-PmkSJi\dataloader\dataloaderpro\data\Attachment_561ae2c2-065a-4bd9-fdf1-767fd7a5853a for the org name autorabit.com-PmkSJi
2020-02-04 19:17:21 INFO  userid_DLPro:3000 - csvFile file has been renamed :Attachment_561ae2c2-065a-4bd9-fdf1-767fd7a5853a_temp.csv
2020-02-04 19:17:25 INFO  userid_DLPro:94 - getDataloaderProcess: Fetching dataloader process with orgname = autorabit.com-PmkSJi and processId = 561ae2c2-065a-4bd9-fdf1-767fd7a5853a.
2020-02-04 19:17:25 INFO  userid_DLPro:204 - getProcessObjects: Fetching dataloader process objects related to processId = 561ae2c2-065a-4bd9-fdf1-767fd7a5853a.
2020-02-04 19:17:26 INFO  userid_DLPro:94 - getDataloaderProcess: Fetching dataloader process with orgname = autorabit.com-PmkSJi and processId = 561ae2c2-065a-4bd9-fdf1-767fd7a5853a.
2020-02-04 19:17:26 INFO  userid_DLPro:204 - getProcessObjects: Fetching dataloader process objects related to processId = 561ae2c2-065a-4bd9-fdf1-767fd7a5853a.
2020-02-04 19:17:26 INFO  userid_DLPro:94 - getDataloaderProcess: Fetching dataloader process with orgname = autorabit.com-PmkSJi and processId = 561ae2c2-065a-4bd9-fdf1-767fd7a5853a.
2020-02-04 19:17:26 INFO  userid_DLPro:204 - getProcessObjects: Fetching dataloader process objects related to processId = 561ae2c2-065a-4bd9-fdf1-767fd7a5853a.
2020-02-04 19:17:33 INFO  userid_DLPro:3650 - csv template has been renamed : Attachment_561ae2c2-065a-4bd9-fdf1-767fd7a5853a_temp.csv
2020-02-04 19:17:35 INFO  userid_DLPro:94 - getDataloaderProcess: Fetching dataloader process with orgname = autorabit.com-PmkSJi and processId = 561ae2c2-065a-4bd9-fdf1-767fd7a5853a.
2020-02-04 19:17:35 INFO  userid_DLPro:204 - getProcessObjects: Fetching dataloader process objects related to processId = 561ae2c2-065a-4bd9-fdf1-767fd7a5853a.
2020-02-04 19:17:36 INFO  userid_DLPro:94 - getDataloaderProcess: Fetching dataloader process with orgname = autorabit.com-PmkSJi and processId = 561ae2c2-065a-4bd9-fdf1-767fd7a5853a.
2020-02-04 19:17:36 INFO  userid_DLPro:204 - getProcessObjects: Fetching dataloader process objects related to processId = 561ae2c2-065a-4bd9-fdf1-767fd7a5853a.
2020-02-04 19:17:36 INFO  userid_DLPro:94 - getDataloaderProcess: Fetching dataloader process with orgname = autorabit.com-PmkSJi and processId = 561ae2c2-065a-4bd9-fdf1-767fd7a5853a.
2020-02-04 19:17:36 INFO  userid_DLPro:204 - getProcessObjects: Fetching dataloader process objects related to processId = 561ae2c2-065a-4bd9-fdf1-767fd7a5853a.
2020-02-04 19:17:46 INFO  userid_DLPro:94 - getDataloaderProcess: Fetching dataloader process with orgname = autorabit.com-PmkSJi and processId = 561ae2c2-065a-4bd9-fdf1-767fd7a5853a.
2020-02-04 19:17:46 INFO  userid_DLPro:204 - getProcessObjects: Fetching dataloader process objects related to processId = 561ae2c2-065a-4bd9-fdf1-767fd7a5853a.
2020-02-04 19:17:46 INFO  userid_DLPro:94 - getDataloaderProcess: Fetching dataloader process with orgname = autorabit.com-PmkSJi and processId = 561ae2c2-065a-4bd9-fdf1-767fd7a5853a.
2020-02-04 19:17:46 INFO  userid_DLPro:204 - getProcessObjects: Fetching dataloader process objects related to processId = 561ae2c2-065a-4bd9-fdf1-767fd7a5853a.
2020-02-04 19:17:46 INFO  userid_DLPro:94 - getDataloaderProcess: Fetching dataloader process with orgname = autorabit.com-PmkSJi and processId = 561ae2c2-065a-4bd9-fdf1-767fd7a5853a.
2020-02-04 19:17:46 INFO  userid_DLPro:204 - getProcessObjects: Fetching dataloader process objects related to processId = 561ae2c2-065a-4bd9-fdf1-767fd7a5853a.
2020-02-04 19:17:47 INFO  userid_DLPro:2143 - file renamed
2020-02-04 19:17:47 INFO  userid_DLPro:2143 - file renamed
2020-02-04 19:17:47 INFO  userid_DLPro:275 - getProcessObjectsBasedOnName: Fetching dataloader process of processId = 561ae2c2-065a-4bd9-fdf1-767fd7a5853aobject with name = Attachment.
2020-02-04 19:17:47 INFO  userid_DLPro:123 - saveDataloaderProcessObjects: Saving dataloader process object name = Attachment.
2020-02-04 19:17:47 INFO  userid_DLPro:64 - saveDataloaderProcesses: Saving dataloader process with processId = 561ae2c2-065a-4bd9-fdf1-767fd7a5853a.
2020-02-04 19:17:47 INFO  userid_DLPro:2520 - csvFile file has been renamedAttachment_561ae2c2-065a-4bd9-fdf1-767fd7a5853a_success.csv
2020-02-04 19:17:47 INFO  userid_DLPro:2523 - csvFile file has been renamedAttachment_561ae2c2-065a-4bd9-fdf1-767fd7a5853a_success_temp.csv
2020-02-04 19:17:47 INFO  userid_DLPro:2520 - csvFile file has been renamedAttachment_561ae2c2-065a-4bd9-fdf1-767fd7a5853a_error.csv
2020-02-04 19:17:47 INFO  userid_DLPro:2523 - csvFile file has been renamedAttachment_561ae2c2-065a-4bd9-fdf1-767fd7a5853a_error_temp.csv
2020-02-04 19:17:47 INFO  userid_DLPro:275 - getProcessObjectsBasedOnName: Fetching dataloader process of processId = 561ae2c2-065a-4bd9-fdf1-767fd7a5853aobject with name = Case.
2020-02-04 19:17:56 INFO  userid_DLPro:94 - getDataloaderProcess: Fetching dataloader process with orgname = autorabit.com-PmkSJi and processId = 561ae2c2-065a-4bd9-fdf1-767fd7a5853a.
2020-02-04 19:17:56 INFO  userid_DLPro:204 - getProcessObjects: Fetching dataloader process objects related to processId = 561ae2c2-065a-4bd9-fdf1-767fd7a5853a.
2020-02-04 19:17:56 INFO  userid_DLPro:94 - getDataloaderProcess: Fetching dataloader process with orgname = autorabit.com-PmkSJi and processId = 561ae2c2-065a-4bd9-fdf1-767fd7a5853a.
2020-02-04 19:17:56 INFO  userid_DLPro:204 - getProcessObjects: Fetching dataloader process objects related to processId = 561ae2c2-065a-4bd9-fdf1-767fd7a5853a.
2020-02-04 19:17:56 INFO  userid_DLPro:94 - getDataloaderProcess: Fetching dataloader process with orgname = autorabit.com-PmkSJi and processId = 561ae2c2-065a-4bd9-fdf1-767fd7a5853a.
2020-02-04 19:17:56 INFO  userid_DLPro:204 - getProcessObjects: Fetching dataloader process objects related to processId = 561ae2c2-065a-4bd9-fdf1-767fd7a5853a.
2020-02-04 19:17:57 INFO  userid_DLPro:275 - getProcessObjectsBasedOnName: Fetching dataloader process of processId = 561ae2c2-065a-4bd9-fdf1-767fd7a5853aobject with name = FeedItem.
2020-02-04 19:17:59 INFO  userid_DLPro:275 - getProcessObjectsBasedOnName: Fetching dataloader process of processId = 561ae2c2-065a-4bd9-fdf1-767fd7a5853aobject with name = FeedItem.
2020-02-04 19:17:59 INFO  userid_DLPro:123 - saveDataloaderProcessObjects: Saving dataloader process object name = FeedItem.
2020-02-04 19:17:59 INFO  userid_DLPro:64 - saveDataloaderProcesses: Saving dataloader process with processId = 561ae2c2-065a-4bd9-fdf1-767fd7a5853a.
2020-02-04 19:17:59 INFO  userid_DLPro:275 - getProcessObjectsBasedOnName: Fetching dataloader process of processId = 561ae2c2-065a-4bd9-fdf1-767fd7a5853aobject with name = FeedComment.
2020-02-04 19:18:02 INFO  userid_DLPro:275 - getProcessObjectsBasedOnName: Fetching dataloader process of processId = 561ae2c2-065a-4bd9-fdf1-767fd7a5853aobject with name = FeedComment.
2020-02-04 19:18:02 INFO  userid_DLPro:123 - saveDataloaderProcessObjects: Saving dataloader process object name = FeedComment.
2020-02-04 19:18:02 INFO  userid_DLPro:64 - saveDataloaderProcesses: Saving dataloader process with processId = 561ae2c2-065a-4bd9-fdf1-767fd7a5853a.
2020-02-04 19:18:02 INFO  userid_DLPro:275 - getProcessObjectsBasedOnName: Fetching dataloader process of processId = 561ae2c2-065a-4bd9-fdf1-767fd7a5853aobject with name = Opportunity.
2020-02-04 19:18:06 INFO  userid_DLPro:94 - getDataloaderProcess: Fetching dataloader process with orgname = autorabit.com-PmkSJi and processId = 561ae2c2-065a-4bd9-fdf1-767fd7a5853a.
2020-02-04 19:18:06 INFO  userid_DLPro:204 - getProcessObjects: Fetching dataloader process objects related to processId = 561ae2c2-065a-4bd9-fdf1-767fd7a5853a.
2020-02-04 19:18:06 INFO  userid_DLPro:94 - getDataloaderProcess: Fetching dataloader process with orgname = autorabit.com-PmkSJi and processId = 561ae2c2-065a-4bd9-fdf1-767fd7a5853a.
2020-02-04 19:18:06 INFO  userid_DLPro:204 - getProcessObjects: Fetching dataloader process objects related to processId = 561ae2c2-065a-4bd9-fdf1-767fd7a5853a.
2020-02-04 19:18:06 INFO  userid_DLPro:94 - getDataloaderProcess: Fetching dataloader process with orgname = autorabit.com-PmkSJi and processId = 561ae2c2-065a-4bd9-fdf1-767fd7a5853a.
2020-02-04 19:18:06 INFO  userid_DLPro:204 - getProcessObjects: Fetching dataloader process objects related to processId = 561ae2c2-065a-4bd9-fdf1-767fd7a5853a.
2020-02-04 19:18:14 INFO  userid_DLPro:275 - getProcessObjectsBasedOnName: Fetching dataloader process of processId = 561ae2c2-065a-4bd9-fdf1-767fd7a5853aobject with name = Lead.
2020-02-04 19:18:16 INFO  userid_DLPro:275 - getProcessObjectsBasedOnName: Fetching dataloader process of processId = 561ae2c2-065a-4bd9-fdf1-767fd7a5853aobject with name = Asset.
2020-02-04 19:18:16 INFO  userid_DLPro:94 - getDataloaderProcess: Fetching dataloader process with orgname = autorabit.com-PmkSJi and processId = 561ae2c2-065a-4bd9-fdf1-767fd7a5853a.
2020-02-04 19:18:16 INFO  userid_DLPro:204 - getProcessObjects: Fetching dataloader process objects related to processId = 561ae2c2-065a-4bd9-fdf1-767fd7a5853a.
2020-02-04 19:18:16 INFO  userid_DLPro:94 - getDataloaderProcess: Fetching dataloader process with orgname = autorabit.com-PmkSJi and processId = 561ae2c2-065a-4bd9-fdf1-767fd7a5853a.
2020-02-04 19:18:16 INFO  userid_DLPro:204 - getProcessObjects: Fetching dataloader process objects related to processId = 561ae2c2-065a-4bd9-fdf1-767fd7a5853a.
2020-02-04 19:18:16 INFO  userid_DLPro:94 - getDataloaderProcess: Fetching dataloader process with orgname = autorabit.com-PmkSJi and processId = 561ae2c2-065a-4bd9-fdf1-767fd7a5853a.
2020-02-04 19:18:16 INFO  userid_DLPro:204 - getProcessObjects: Fetching dataloader process objects related to processId = 561ae2c2-065a-4bd9-fdf1-767fd7a5853a.
2020-02-04 19:18:17 INFO  userid_DLPro:275 - getProcessObjectsBasedOnName: Fetching dataloader process of processId = 561ae2c2-065a-4bd9-fdf1-767fd7a5853aobject with name = Order.
2020-02-04 19:18:19 INFO  userid_DLPro:275 - getProcessObjectsBasedOnName: Fetching dataloader process of processId = 561ae2c2-065a-4bd9-fdf1-767fd7a5853aobject with name = AccountCleanInfo.
2020-02-04 19:18:20 INFO  userid_DLPro:275 - getProcessObjectsBasedOnName: Fetching dataloader process of processId = 561ae2c2-065a-4bd9-fdf1-767fd7a5853aobject with name = Contact.
2020-02-04 19:18:26 INFO  userid_DLPro:94 - getDataloaderProcess: Fetching dataloader process with orgname = autorabit.com-PmkSJi and processId = 561ae2c2-065a-4bd9-fdf1-767fd7a5853a.
2020-02-04 19:18:26 INFO  userid_DLPro:94 - getDataloaderProcess: Fetching dataloader process with orgname = autorabit.com-PmkSJi and processId = 561ae2c2-065a-4bd9-fdf1-767fd7a5853a.
2020-02-04 19:18:26 INFO  userid_DLPro:94 - getDataloaderProcess: Fetching dataloader process with orgname = autorabit.com-PmkSJi and processId = 561ae2c2-065a-4bd9-fdf1-767fd7a5853a.
2020-02-04 19:18:26 INFO  userid_DLPro:204 - getProcessObjects: Fetching dataloader process objects related to processId = 561ae2c2-065a-4bd9-fdf1-767fd7a5853a.
2020-02-04 19:18:26 INFO  userid_DLPro:204 - getProcessObjects: Fetching dataloader process objects related to processId = 561ae2c2-065a-4bd9-fdf1-767fd7a5853a.
2020-02-04 19:18:26 INFO  userid_DLPro:204 - getProcessObjects: Fetching dataloader process objects related to processId = 561ae2c2-065a-4bd9-fdf1-767fd7a5853a.
2020-02-04 19:18:29 INFO  userid_DLPro:64 - saveDataloaderProcesses: Saving dataloader process with processId = 561ae2c2-065a-4bd9-fdf1-767fd7a5853a.
2020-02-04 19:18:29 INFO  userid_DLPro:94 - getDataloaderProcess: Fetching dataloader process with orgname = autorabit.com-PmkSJi and processId = 561ae2c2-065a-4bd9-fdf1-767fd7a5853a.
2020-02-04 19:18:29 INFO  userid_DLPro:259 - getProcessObjectsofSpecificType: Fetching dataloader process objects of processId = 561ae2c2-065a-4bd9-fdf1-767fd7a5853a of type = selected.
2020-02-04 19:18:29 INFO  userid_DLPro:64 - saveDataloaderProcesses: Saving dataloader process with processId = 561ae2c2-065a-4bd9-fdf1-767fd7a5853a.
2020-02-04 19:18:29 INFO  userid_DLPro:1293 - Dataloader pro process execution ended- ProcessName: EswarOrg OrgName:autorabit.com-PmkSJi UserName:rajashekar.j1@autorabit.com
2020-02-04 19:18:36 INFO  userid_DLPro:94 - getDataloaderProcess: Fetching dataloader process with orgname = autorabit.com-PmkSJi and processId = 561ae2c2-065a-4bd9-fdf1-767fd7a5853a.
2020-02-04 19:18:36 INFO  userid_DLPro:204 - getProcessObjects: Fetching dataloader process objects related to processId = 561ae2c2-065a-4bd9-fdf1-767fd7a5853a.
2020-02-04 19:18:36 INFO  userid_DLPro:94 - getDataloaderProcess: Fetching dataloader process with orgname = autorabit.com-PmkSJi and processId = 561ae2c2-065a-4bd9-fdf1-767fd7a5853a.
2020-02-04 19:18:37 INFO  userid_DLPro:94 - getDataloaderProcess: Fetching dataloader process with orgname = autorabit.com-PmkSJi and processId = 561ae2c2-065a-4bd9-fdf1-767fd7a5853a.
2020-02-04 19:18:37 INFO  userid_DLPro:204 - getProcessObjects: Fetching dataloader process objects related to processId = 561ae2c2-065a-4bd9-fdf1-767fd7a5853a.
2020-02-04 19:18:37 INFO  userid_DLPro:204 - getProcessObjects: Fetching dataloader process objects related to processId = 561ae2c2-065a-4bd9-fdf1-767fd7a5853a.
2020-02-04 19:18:43 INFO  userid_DLPro:188 - Fetching all dataloader processes of type = pro.
2020-02-04 19:18:43 INFO  userid_DLPro:94 - getDataloaderProcess: Fetching dataloader process with orgname = autorabit.com-PmkSJi and processId = 561ae2c2-065a-4bd9-fdf1-767fd7a5853a.
2020-02-04 19:18:43 INFO  userid_DLPro:204 - getProcessObjects: Fetching dataloader process objects related to processId = 561ae2c2-065a-4bd9-fdf1-767fd7a5853a.
2020-02-04 19:18:44 INFO  userid_DLPro:94 - getDataloaderProcess: Fetching dataloader process with orgname = autorabit.com-PmkSJi and processId = 561ae2c2-065a-4bd9-fdf1-767fd7a5853a.
2020-02-04 19:18:44 INFO  userid_DLPro:204 - getProcessObjects: Fetching dataloader process objects related to processId = 561ae2c2-065a-4bd9-fdf1-767fd7a5853a.
2020-02-04 19:21:27 INFO  userid_DLPro:275 - getProcessObjectsBasedOnName: Fetching dataloader process of processId = 561ae2c2-065a-4bd9-fdf1-767fd7a5853aobject with name = Attachment.
2020-02-04 19:30:10 INFO  userid_DLPro:94 - getDataloaderProcess: Fetching dataloader process with orgname = autorabit.com-PmkSJi and processId = 561ae2c2-065a-4bd9-fdf1-767fd7a5853a.
2020-02-04 19:30:10 INFO  userid_DLPro:204 - getProcessObjects: Fetching dataloader process objects related to processId = 561ae2c2-065a-4bd9-fdf1-767fd7a5853a.
2020-02-04 19:30:56 INFO  userid_DLPro:94 - getDataloaderProcess: Fetching dataloader process with orgname = autorabit.com-PmkSJi and processId = 561ae2c2-065a-4bd9-fdf1-767fd7a5853a.
2020-02-04 19:31:13 INFO  userid_DLPro:94 - getDataloaderProcess: Fetching dataloader process with orgname = autorabit.com-PmkSJi and processId = 561ae2c2-065a-4bd9-fdf1-767fd7a5853a.
2020-02-04 19:31:13 INFO  userid_DLPro:6282 - invoked deleteDlpSchedule method start-- deleteDlpSchedule
2020-02-04 19:31:13 INFO  userid_DLPro:204 - getProcessObjects: Fetching dataloader process objects related to processId = 561ae2c2-065a-4bd9-fdf1-767fd7a5853a.
2020-02-04 19:31:13 INFO  userid_DLPro:250 - deleteDataloaderProcessObject: Deleting dataloader process object with name AccountBrand.
2020-02-04 19:31:13 INFO  userid_DLPro:250 - deleteDataloaderProcessObject: Deleting dataloader process object with name AccountCleanInfo.
2020-02-04 19:31:13 INFO  userid_DLPro:250 - deleteDataloaderProcessObject: Deleting dataloader process object with name AccountTeamMember.
2020-02-04 19:31:13 INFO  userid_DLPro:250 - deleteDataloaderProcessObject: Deleting dataloader process object with name Alcon_AR__Benifit__c.
2020-02-04 19:31:14 INFO  userid_DLPro:250 - deleteDataloaderProcessObject: Deleting dataloader process object with name Asset.
2020-02-04 19:31:14 INFO  userid_DLPro:250 - deleteDataloaderProcessObject: Deleting dataloader process object with name ChannelProgramMember.
2020-02-04 19:31:14 INFO  userid_DLPro:250 - deleteDataloaderProcessObject: Deleting dataloader process object with name Contact.
2020-02-04 19:31:14 INFO  userid_DLPro:250 - deleteDataloaderProcessObject: Deleting dataloader process object with name ContactRequest.
2020-02-04 19:31:14 INFO  userid_DLPro:250 - deleteDataloaderProcessObject: Deleting dataloader process object with name ContentVersion.
2020-02-04 19:31:14 INFO  userid_DLPro:250 - deleteDataloaderProcessObject: Deleting dataloader process object with name Contract.
2020-02-04 19:31:14 INFO  userid_DLPro:250 - deleteDataloaderProcessObject: Deleting dataloader process object with name Event.
2020-02-04 19:31:14 INFO  userid_DLPro:250 - deleteDataloaderProcessObject: Deleting dataloader process object with name FeedComment.
2020-02-04 19:31:14 INFO  userid_DLPro:250 - deleteDataloaderProcessObject: Deleting dataloader process object with name FeedItem.
2020-02-04 19:31:14 INFO  userid_DLPro:250 - deleteDataloaderProcessObject: Deleting dataloader process object with name FlowRecordRelation.
2020-02-04 19:31:14 INFO  userid_DLPro:250 - deleteDataloaderProcessObject: Deleting dataloader process object with name NetworkSelfRegistration.
2020-02-04 19:31:15 INFO  userid_DLPro:250 - deleteDataloaderProcessObject: Deleting dataloader process object with name Order.
2020-02-04 19:31:15 INFO  userid_DLPro:250 - deleteDataloaderProcessObject: Deleting dataloader process object with name PartnerFundAllocation.
2020-02-04 19:31:15 INFO  userid_DLPro:250 - deleteDataloaderProcessObject: Deleting dataloader process object with name PartnerFundClaim.
2020-02-04 19:31:15 INFO  userid_DLPro:250 - deleteDataloaderProcessObject: Deleting dataloader process object with name PartnerFundRequest.
2020-02-04 19:31:15 INFO  userid_DLPro:250 - deleteDataloaderProcessObject: Deleting dataloader process object with name PartnerMarketingBudget.
2020-02-04 19:31:15 INFO  userid_DLPro:250 - deleteDataloaderProcessObject: Deleting dataloader process object with name RecordAction.
2020-02-04 19:31:15 INFO  userid_DLPro:250 - deleteDataloaderProcessObject: Deleting dataloader process object with name Task.
2020-02-04 19:31:15 INFO  userid_DLPro:275 - getProcessObjectsBasedOnName: Fetching dataloader process of processId = 561ae2c2-065a-4bd9-fdf1-767fd7a5853aobject with name = Account.
2020-02-04 19:31:15 INFO  userid_DLPro:123 - saveDataloaderProcessObjects: Saving dataloader process object name = Account.
2020-02-04 19:31:15 INFO  userid_DLPro:275 - getProcessObjectsBasedOnName: Fetching dataloader process of processId = 561ae2c2-065a-4bd9-fdf1-767fd7a5853aobject with name = Attachment.
2020-02-04 19:31:15 INFO  userid_DLPro:123 - saveDataloaderProcessObjects: Saving dataloader process object name = Attachment.
2020-02-04 19:31:16 INFO  userid_DLPro:275 - getProcessObjectsBasedOnName: Fetching dataloader process of processId = 561ae2c2-065a-4bd9-fdf1-767fd7a5853aobject with name = Case.
2020-02-04 19:31:16 INFO  userid_DLPro:123 - saveDataloaderProcessObjects: Saving dataloader process object name = Case.
2020-02-04 19:31:16 INFO  userid_DLPro:275 - getProcessObjectsBasedOnName: Fetching dataloader process of processId = 561ae2c2-065a-4bd9-fdf1-767fd7a5853aobject with name = Lead.
2020-02-04 19:31:16 INFO  userid_DLPro:123 - saveDataloaderProcessObjects: Saving dataloader process object name = Lead.
2020-02-04 19:31:16 INFO  userid_DLPro:275 - getProcessObjectsBasedOnName: Fetching dataloader process of processId = 561ae2c2-065a-4bd9-fdf1-767fd7a5853aobject with name = Opportunity.
2020-02-04 19:31:16 INFO  userid_DLPro:123 - saveDataloaderProcessObjects: Saving dataloader process object name = Opportunity.
2020-02-04 19:31:24 INFO  userid_DLPro:64 - saveDataloaderProcesses: Saving dataloader process with processId = 561ae2c2-065a-4bd9-fdf1-767fd7a5853a.
2020-02-04 19:31:51 INFO  userid_DLPro:94 - getDataloaderProcess: Fetching dataloader process with orgname = autorabit.com-PmkSJi and processId = 561ae2c2-065a-4bd9-fdf1-767fd7a5853a.
2020-02-04 19:31:51 INFO  userid_DLPro:204 - getProcessObjects: Fetching dataloader process objects related to processId = 561ae2c2-065a-4bd9-fdf1-767fd7a5853a.
2020-02-04 19:31:51 INFO  userid_DLPro:138 - saveDataloaderProcessObjects: Saving dataloader process objects.List size : 5.
2020-02-04 19:31:52 INFO  userid_DLPro:64 - saveDataloaderProcesses: Saving dataloader process with processId = 561ae2c2-065a-4bd9-fdf1-767fd7a5853a.
2020-02-04 19:31:52 INFO  userid_DLPro:188 - Fetching all dataloader processes of type = pro.
2020-02-04 19:31:52 INFO  userid_DLPro:94 - getDataloaderProcess: Fetching dataloader process with orgname = autorabit.com-PmkSJi and processId = 561ae2c2-065a-4bd9-fdf1-767fd7a5853a.
2020-02-04 19:31:52 INFO  userid_DLPro:204 - getProcessObjects: Fetching dataloader process objects related to processId = 561ae2c2-065a-4bd9-fdf1-767fd7a5853a.
2020-02-04 19:31:52 INFO  userid_DLPro:94 - getDataloaderProcess: Fetching dataloader process with orgname = autorabit.com-PmkSJi and processId = 561ae2c2-065a-4bd9-fdf1-767fd7a5853a.
2020-02-04 19:31:53 INFO  userid_DLPro:204 - getProcessObjects: Fetching dataloader process objects related to processId = 561ae2c2-065a-4bd9-fdf1-767fd7a5853a.
2020-02-04 19:36:36 INFO  userid_DLPro:188 - Fetching all dataloader processes of type = pro.
2020-02-04 19:36:36 INFO  userid_DLPro:94 - getDataloaderProcess: Fetching dataloader process with orgname = autorabit.com-PmkSJi and processId = 561ae2c2-065a-4bd9-fdf1-767fd7a5853a.
2020-02-04 19:36:36 INFO  userid_DLPro:204 - getProcessObjects: Fetching dataloader process objects related to processId = 561ae2c2-065a-4bd9-fdf1-767fd7a5853a.
2020-02-04 19:36:36 INFO  userid_DLPro:94 - getDataloaderProcess: Fetching dataloader process with orgname = autorabit.com-PmkSJi and processId = 561ae2c2-065a-4bd9-fdf1-767fd7a5853a.
2020-02-04 19:36:36 INFO  userid_DLPro:204 - getProcessObjects: Fetching dataloader process objects related to processId = 561ae2c2-065a-4bd9-fdf1-767fd7a5853a.
2020-02-04 19:37:39 INFO  userid_DLPro:188 - Fetching all dataloader processes of type = pro.
2020-02-04 19:37:39 INFO  userid_DLPro:94 - getDataloaderProcess: Fetching dataloader process with orgname = autorabit.com-PmkSJi and processId = 561ae2c2-065a-4bd9-fdf1-767fd7a5853a.
2020-02-04 19:37:39 INFO  userid_DLPro:204 - getProcessObjects: Fetching dataloader process objects related to processId = 561ae2c2-065a-4bd9-fdf1-767fd7a5853a.
2020-02-04 19:37:39 INFO  userid_DLPro:94 - getDataloaderProcess: Fetching dataloader process with orgname = autorabit.com-PmkSJi and processId = 561ae2c2-065a-4bd9-fdf1-767fd7a5853a.
2020-02-04 19:37:39 INFO  userid_DLPro:204 - getProcessObjects: Fetching dataloader process objects related to processId = 561ae2c2-065a-4bd9-fdf1-767fd7a5853a.
2020-02-04 19:57:40 INFO  userid_DLPro:94 - getDataloaderProcess: Fetching dataloader process with orgname = autorabit.com-PmkSJi and processId = 561ae2c2-065a-4bd9-fdf1-767fd7a5853a.
2020-02-04 19:57:41 INFO  userid_DLPro:1166 - Dataloader pro process execution started- ProcessName: EswarOrg OrgName:autorabit.com-PmkSJi UserName:rajashekar.j1@autorabit.com
2020-02-04 19:57:41 INFO  userid_DLPro:64 - saveDataloaderProcesses: Saving dataloader process with processId = 561ae2c2-065a-4bd9-fdf1-767fd7a5853a.
2020-02-04 19:57:41 INFO  userid_DLPro:259 - getProcessObjectsofSpecificType: Fetching dataloader process objects of processId = 561ae2c2-065a-4bd9-fdf1-767fd7a5853a of type = selected.
2020-02-04 19:57:42 INFO  userid_DLPro:1412 - Deleting data files for process : 561ae2c2-065a-4bd9-fdf1-767fd7a5853a
2020-02-04 19:57:42 INFO  userid_DLPro:1423 - Deleting status files for process : 561ae2c2-065a-4bd9-fdf1-767fd7a5853a
2020-02-04 19:57:42 INFO  userid_DLPro:204 - getProcessObjects: Fetching dataloader process objects related to processId = 561ae2c2-065a-4bd9-fdf1-767fd7a5853a.
2020-02-04 19:57:43 INFO  userid_DLPro:138 - saveDataloaderProcessObjects: Saving dataloader process objects.List size : 5.
2020-02-04 19:59:22 INFO  userid_DLPro:259 - getProcessObjectsofSpecificType: Fetching dataloader process objects of processId = 561ae2c2-065a-4bd9-fdf1-767fd7a5853a of type = child.
2020-02-04 20:00:24 INFO  userid_DLPro:64 - saveDataloaderProcesses: Saving dataloader process with processId = 561ae2c2-065a-4bd9-fdf1-767fd7a5853a.
2020-02-04 20:00:34 INFO  userid_DLPro:204 - getProcessObjects: Fetching dataloader process objects related to processId = 561ae2c2-065a-4bd9-fdf1-767fd7a5853a.
2020-02-04 20:00:34 INFO  userid_DLPro:138 - saveDataloaderProcessObjects: Saving dataloader process objects.List size : 5.
2020-02-04 20:00:35 INFO  userid_DLPro:275 - getProcessObjectsBasedOnName: Fetching dataloader process of processId = 561ae2c2-065a-4bd9-fdf1-767fd7a5853aobject with name = Account.
2020-02-04 20:00:35 INFO  userid_DLPro:275 - getProcessObjectsBasedOnName: Fetching dataloader process of processId = 561ae2c2-065a-4bd9-fdf1-767fd7a5853aobject with name = Opportunity.
2020-02-04 20:00:35 INFO  userid_DLPro:275 - getProcessObjectsBasedOnName: Fetching dataloader process of processId = 561ae2c2-065a-4bd9-fdf1-767fd7a5853aobject with name = Lead.
2020-02-04 20:00:35 INFO  userid_DLPro:275 - getProcessObjectsBasedOnName: Fetching dataloader process of processId = 561ae2c2-065a-4bd9-fdf1-767fd7a5853aobject with name = Attachment.
2020-02-04 20:00:35 INFO  userid_DLPro:275 - getProcessObjectsBasedOnName: Fetching dataloader process of processId = 561ae2c2-065a-4bd9-fdf1-767fd7a5853aobject with name = Case.
2020-02-04 20:00:49 INFO  userid_DLPro:94 - getDataloaderProcess: Fetching dataloader process with orgname = autorabit.com-PmkSJi and processId = 561ae2c2-065a-4bd9-fdf1-767fd7a5853a.
2020-02-04 20:01:06 INFO  userid_DLPro:275 - getProcessObjectsBasedOnName: Fetching dataloader process of processId = 561ae2c2-065a-4bd9-fdf1-767fd7a5853aobject with name = Account.
2020-02-04 20:02:46 INFO  userid_DLPro:275 - getProcessObjectsBasedOnName: Fetching dataloader process of processId = 561ae2c2-065a-4bd9-fdf1-767fd7a5853aobject with name = Account.
2020-02-04 20:03:14 INFO  userid_DLPro:3284 - file has been created : Account_561ae2c2-065a-4bd9-fdf1-767fd7a5853a_temp.csv
2020-02-04 20:03:22 INFO  userid_DLPro:3342 - csvtempFile file has been renamed : Account_561ae2c2-065a-4bd9-fdf1-767fd7a5853a_temp.csv
2020-02-04 20:03:22 INFO  userid_DLPro:123 - saveDataloaderProcessObjects: Saving dataloader process object name = Account.
2020-02-04 20:03:23 INFO  userid_DLPro:64 - saveDataloaderProcesses: Saving dataloader process with processId = 561ae2c2-065a-4bd9-fdf1-767fd7a5853a.
2020-02-04 20:03:25 INFO  userid_DLPro:2520 - csvFile file has been renamedAccount_561ae2c2-065a-4bd9-fdf1-767fd7a5853a_success.csv
2020-02-04 20:03:25 INFO  userid_DLPro:2523 - csvFile file has been renamedAccount_561ae2c2-065a-4bd9-fdf1-767fd7a5853a_success_temp.csv
2020-02-04 20:03:27 INFO  userid_DLPro:2520 - csvFile file has been renamedAccount_561ae2c2-065a-4bd9-fdf1-767fd7a5853a_error.csv
2020-02-04 20:03:27 INFO  userid_DLPro:2523 - csvFile file has been renamedAccount_561ae2c2-065a-4bd9-fdf1-767fd7a5853a_error_temp.csv
2020-02-04 20:03:27 INFO  userid_DLPro:275 - getProcessObjectsBasedOnName: Fetching dataloader process of processId = 561ae2c2-065a-4bd9-fdf1-767fd7a5853aobject with name = Opportunity.
2020-02-04 20:03:52 INFO  userid_DLPro:275 - getProcessObjectsBasedOnName: Fetching dataloader process of processId = 561ae2c2-065a-4bd9-fdf1-767fd7a5853aobject with name = Lead.
2020-02-04 20:04:01 INFO  userid_DLPro:275 - getProcessObjectsBasedOnName: Fetching dataloader process of processId = 561ae2c2-065a-4bd9-fdf1-767fd7a5853aobject with name = Attachment.
2020-02-04 20:04:01 INFO  userid_DLPro:2914 -  the processId 561ae2c2-065a-4bd9-fdf1-767fd7a5853a folder under data directory of dataloader pro is created : D:\filesystem\193\rabit\.rabit\org\autorabit.com-PmkSJi\dataloader\dataloaderpro\data\Attachment_561ae2c2-065a-4bd9-fdf1-767fd7a5853a for the org name autorabit.com-PmkSJi
2020-02-04 20:04:01 INFO  userid_DLPro:3000 - csvFile file has been renamed :Attachment_561ae2c2-065a-4bd9-fdf1-767fd7a5853a_temp.csv
2020-02-04 20:04:25 INFO  userid_DLPro:3650 - csv template has been renamed : Attachment_561ae2c2-065a-4bd9-fdf1-767fd7a5853a_temp.csv
2020-02-04 20:05:23 INFO  userid_DLPro:2143 - file renamed
2020-02-04 20:05:24 INFO  userid_DLPro:2143 - file renamed
2020-02-04 20:05:24 INFO  userid_DLPro:275 - getProcessObjectsBasedOnName: Fetching dataloader process of processId = 561ae2c2-065a-4bd9-fdf1-767fd7a5853aobject with name = Attachment.
2020-02-04 20:05:24 INFO  userid_DLPro:123 - saveDataloaderProcessObjects: Saving dataloader process object name = Attachment.
2020-02-04 20:05:25 INFO  userid_DLPro:64 - saveDataloaderProcesses: Saving dataloader process with processId = 561ae2c2-065a-4bd9-fdf1-767fd7a5853a.
2020-02-04 20:05:25 INFO  userid_DLPro:2520 - csvFile file has been renamedAttachment_561ae2c2-065a-4bd9-fdf1-767fd7a5853a_success.csv
2020-02-04 20:05:25 INFO  userid_DLPro:2523 - csvFile file has been renamedAttachment_561ae2c2-065a-4bd9-fdf1-767fd7a5853a_success_temp.csv
2020-02-04 20:05:25 INFO  userid_DLPro:2520 - csvFile file has been renamedAttachment_561ae2c2-065a-4bd9-fdf1-767fd7a5853a_error.csv
2020-02-04 20:05:25 INFO  userid_DLPro:2523 - csvFile file has been renamedAttachment_561ae2c2-065a-4bd9-fdf1-767fd7a5853a_error_temp.csv
2020-02-04 20:05:26 INFO  userid_DLPro:275 - getProcessObjectsBasedOnName: Fetching dataloader process of processId = 561ae2c2-065a-4bd9-fdf1-767fd7a5853aobject with name = Case.
2020-02-04 20:05:49 INFO  userid_DLPro:64 - saveDataloaderProcesses: Saving dataloader process with processId = 561ae2c2-065a-4bd9-fdf1-767fd7a5853a.
2020-02-04 20:05:50 INFO  userid_DLPro:94 - getDataloaderProcess: Fetching dataloader process with orgname = autorabit.com-PmkSJi and processId = 561ae2c2-065a-4bd9-fdf1-767fd7a5853a.
2020-02-04 20:05:50 INFO  userid_DLPro:259 - getProcessObjectsofSpecificType: Fetching dataloader process objects of processId = 561ae2c2-065a-4bd9-fdf1-767fd7a5853a of type = selected.
2020-02-04 20:05:50 INFO  userid_DLPro:64 - saveDataloaderProcesses: Saving dataloader process with processId = 561ae2c2-065a-4bd9-fdf1-767fd7a5853a.
2020-02-04 20:05:51 INFO  userid_DLPro:1293 - Dataloader pro process execution ended- ProcessName: EswarOrg OrgName:autorabit.com-PmkSJi UserName:rajashekar.j1@autorabit.com
2020-02-04 20:06:07 INFO  userid_DLPro:188 - Fetching all dataloader processes of type = pro.
2020-02-04 20:06:08 INFO  userid_DLPro:94 - getDataloaderProcess: Fetching dataloader process with orgname = autorabit.com-PmkSJi and processId = 561ae2c2-065a-4bd9-fdf1-767fd7a5853a.
2020-02-04 20:06:08 INFO  userid_DLPro:204 - getProcessObjects: Fetching dataloader process objects related to processId = 561ae2c2-065a-4bd9-fdf1-767fd7a5853a.
2020-02-04 20:06:08 INFO  userid_DLPro:94 - getDataloaderProcess: Fetching dataloader process with orgname = autorabit.com-PmkSJi and processId = 561ae2c2-065a-4bd9-fdf1-767fd7a5853a.
2020-02-04 20:06:08 INFO  userid_DLPro:204 - getProcessObjects: Fetching dataloader process objects related to processId = 561ae2c2-065a-4bd9-fdf1-767fd7a5853a.
2020-02-04 20:09:20 INFO  userid_DLPro:188 - Fetching all dataloader processes of type = pro.
2020-02-04 20:09:20 INFO  userid_DLPro:94 - getDataloaderProcess: Fetching dataloader process with orgname = autorabit.com-PmkSJi and processId = 561ae2c2-065a-4bd9-fdf1-767fd7a5853a.
2020-02-04 20:09:20 INFO  userid_DLPro:204 - getProcessObjects: Fetching dataloader process objects related to processId = 561ae2c2-065a-4bd9-fdf1-767fd7a5853a.
2020-02-04 20:09:20 INFO  userid_DLPro:94 - getDataloaderProcess: Fetching dataloader process with orgname = autorabit.com-PmkSJi and processId = 561ae2c2-065a-4bd9-fdf1-767fd7a5853a.
2020-02-04 20:09:20 INFO  userid_DLPro:204 - getProcessObjects: Fetching dataloader process objects related to processId = 561ae2c2-065a-4bd9-fdf1-767fd7a5853a.
2020-02-04 20:13:13 INFO  userid_DLPro:94 - getDataloaderProcess: Fetching dataloader process with orgname = autorabit.com-PmkSJi and processId = 561ae2c2-065a-4bd9-fdf1-767fd7a5853a.
2020-02-04 20:49:19 INFO  userid_DLPro:1166 - Dataloader pro process execution started- ProcessName: EswarOrg OrgName:autorabit.com-PmkSJi UserName:rajashekar.j1@autorabit.com
2020-02-04 20:50:49 INFO  userid_DLPro:64 - saveDataloaderProcesses: Saving dataloader process with processId = 561ae2c2-065a-4bd9-fdf1-767fd7a5853a.
2020-02-04 20:51:36 INFO  userid_DLPro:259 - getProcessObjectsofSpecificType: Fetching dataloader process objects of processId = 561ae2c2-065a-4bd9-fdf1-767fd7a5853a of type = selected.
2020-02-04 20:54:24 INFO  userid_DLPro:1412 - Deleting data files for process : 561ae2c2-065a-4bd9-fdf1-767fd7a5853a
2020-02-04 20:56:50 INFO  userid_DLPro:1423 - Deleting status files for process : 561ae2c2-065a-4bd9-fdf1-767fd7a5853a
2020-02-04 21:01:04 INFO  userid_DLPro:204 - getProcessObjects: Fetching dataloader process objects related to processId = 561ae2c2-065a-4bd9-fdf1-767fd7a5853a.
2020-02-04 21:05:17 INFO  userid_DLPro:138 - saveDataloaderProcessObjects: Saving dataloader process objects.List size : 5.
2020-02-04 21:24:04 INFO  userid_DLPro:259 - getProcessObjectsofSpecificType: Fetching dataloader process objects of processId = 561ae2c2-065a-4bd9-fdf1-767fd7a5853a of type = child.
2020-02-04 21:31:04 INFO  userid_DLPro:64 - saveDataloaderProcesses: Saving dataloader process with processId = 561ae2c2-065a-4bd9-fdf1-767fd7a5853a.
2020-02-04 21:31:09 INFO  userid_DLPro:204 - getProcessObjects: Fetching dataloader process objects related to processId = 561ae2c2-065a-4bd9-fdf1-767fd7a5853a.
2020-02-04 21:31:10 INFO  userid_DLPro:138 - saveDataloaderProcessObjects: Saving dataloader process objects.List size : 5.
2020-02-04 21:31:10 INFO  userid_DLPro:275 - getProcessObjectsBasedOnName: Fetching dataloader process of processId = 561ae2c2-065a-4bd9-fdf1-767fd7a5853aobject with name = Account.
2020-02-04 21:31:10 INFO  userid_DLPro:275 - getProcessObjectsBasedOnName: Fetching dataloader process of processId = 561ae2c2-065a-4bd9-fdf1-767fd7a5853aobject with name = Opportunity.
2020-02-04 21:31:11 INFO  userid_DLPro:275 - getProcessObjectsBasedOnName: Fetching dataloader process of processId = 561ae2c2-065a-4bd9-fdf1-767fd7a5853aobject with name = Lead.
2020-02-04 21:31:11 INFO  userid_DLPro:275 - getProcessObjectsBasedOnName: Fetching dataloader process of processId = 561ae2c2-065a-4bd9-fdf1-767fd7a5853aobject with name = Attachment.
2020-02-04 21:31:11 INFO  userid_DLPro:275 - getProcessObjectsBasedOnName: Fetching dataloader process of processId = 561ae2c2-065a-4bd9-fdf1-767fd7a5853aobject with name = Case.
2020-02-04 21:34:09 INFO  userid_DLPro:94 - getDataloaderProcess: Fetching dataloader process with orgname = autorabit.com-PmkSJi and processId = 561ae2c2-065a-4bd9-fdf1-767fd7a5853a.
2020-02-04 22:02:23 INFO  userid_DLPro:275 - getProcessObjectsBasedOnName: Fetching dataloader process of processId = 561ae2c2-065a-4bd9-fdf1-767fd7a5853aobject with name = Account.
2020-02-05 15:02:51 INFO  userid_DLPro:64 - saveDataloaderProcesses: Saving dataloader process with processId = 561ae2c2-065a-4bd9-fdf1-767fd7a5853a.
2020-02-05 15:02:52 INFO  userid_DLPro:94 - getDataloaderProcess: Fetching dataloader process with orgname = autorabit.com-PmkSJi and processId = 561ae2c2-065a-4bd9-fdf1-767fd7a5853a.
2020-02-05 15:02:53 INFO  userid_DLPro:259 - getProcessObjectsofSpecificType: Fetching dataloader process objects of processId = 561ae2c2-065a-4bd9-fdf1-767fd7a5853a of type = selected.
2020-02-05 15:02:53 INFO  userid_DLPro:64 - saveDataloaderProcesses: Saving dataloader process with processId = 561ae2c2-065a-4bd9-fdf1-767fd7a5853a.
2020-02-05 15:02:53 INFO  userid_DLPro:1293 - Dataloader pro process execution ended- ProcessName: EswarOrg OrgName:autorabit.com-PmkSJi UserName:rajashekar.j1@autorabit.com
