2020-04-18 17:10:02 INFO  20200418171002325:2741 - Process started for deleting Prevalidation Label Auto Rejection Scheduled job: [ar 50.2 9032 - ae v1]
2020-04-18 17:10:02 INFO  20200418171002325:2749 - End of deleting Prevalidation Label Auto Rejection Scheduled job
2020-04-18 18:42:45 INFO  20200418184245556:2741 - Process started for deleting Prevalidation Label Auto Rejection Scheduled job: [ar 50.2 9032 - ae v1]
2020-04-18 18:42:45 INFO  20200418184245556:2749 - End of deleting Prevalidation Label Auto Rejection Scheduled job
2020-04-20 16:32:31 INFO  20200420163231398:2741 - Process started for deleting Prevalidation Label Auto Rejection Scheduled job: [ar 50.2 9032 - ae v1]
2020-04-20 16:32:31 INFO  20200420163231398:2749 - End of deleting Prevalidation Label Auto Rejection Scheduled job
2020-04-21 17:43:57 INFO  20200421174357624:2741 - Process started for deleting Prevalidation Label Auto Rejection Scheduled job: [ar 50.2 9032 - ae v1]
2020-04-21 17:43:57 INFO  20200421174357624:2749 - End of deleting Prevalidation Label Auto Rejection Scheduled job
