2020-04-18 16:40:10 INFO  20190220210247246:2741 - Process started for deleting Prevalidation Label Auto Rejection Scheduled job: [ar 56.2 - 16248 to mr v1]
2020-04-18 16:40:10 INFO  20190220210247246:2749 - End of deleting Prevalidation Label Auto Rejection Scheduled job
2020-04-18 17:10:02 INFO  20190220210247246:2741 - Process started for deleting Prevalidation Label Auto Rejection Scheduled job: [ar 56.2 - 16248 to mr v1]
2020-04-18 17:10:02 INFO  20190220210247246:2749 - End of deleting Prevalidation Label Auto Rejection Scheduled job
2020-04-18 18:42:46 INFO  20190220210247246:2741 - Process started for deleting Prevalidation Label Auto Rejection Scheduled job: [ar 56.2 - 16248 to mr v1]
2020-04-18 18:42:46 INFO  20190220210247246:2749 - End of deleting Prevalidation Label Auto Rejection Scheduled job
2020-04-20 16:32:31 INFO  20190220210247246:2741 - Process started for deleting Prevalidation Label Auto Rejection Scheduled job: [ar 56.2 - 16248 to mr v1]
2020-04-20 16:32:31 INFO  20190220210247246:2749 - End of deleting Prevalidation Label Auto Rejection Scheduled job
2020-04-21 17:43:59 INFO  20190220210247246:2741 - Process started for deleting Prevalidation Label Auto Rejection Scheduled job: [ar 56.2 - 16248 to mr v1]
2020-04-21 17:43:59 INFO  20190220210247246:2749 - End of deleting Prevalidation Label Auto Rejection Scheduled job
2020-04-21 17:58:11 INFO  20190220210247246:2741 - Process started for deleting Prevalidation Label Auto Rejection Scheduled job: [ar 56.2 - 16248 to mr v1]
2020-04-21 17:58:11 INFO  20190220210247246:2749 - End of deleting Prevalidation Label Auto Rejection Scheduled job
2020-04-21 18:06:00 INFO  20190220210247246:2741 - Process started for deleting Prevalidation Label Auto Rejection Scheduled job: [ar 56.2 - 16248 to mr v1]
2020-04-21 18:06:00 INFO  20190220210247246:2749 - End of deleting Prevalidation Label Auto Rejection Scheduled job
