2020-04-18 17:10:02 INFO  20200418171002333:2741 - Process started for deleting Prevalidation Label Auto Rejection Scheduled job: [ar 50.3 11284 - ae]
2020-04-18 17:10:02 INFO  20200418171002333:2749 - End of deleting Prevalidation Label Auto Rejection Scheduled job
2020-04-18 18:42:45 INFO  20200418184245587:2741 - Process started for deleting Prevalidation Label Auto Rejection Scheduled job: [ar 50.3 11284 - ae]
2020-04-18 18:42:45 INFO  20200418184245587:2749 - End of deleting Prevalidation Label Auto Rejection Scheduled job
2020-04-20 16:32:31 INFO  20200420163231465:2741 - Process started for deleting Prevalidation Label Auto Rejection Scheduled job: [ar 50.3 11284 - ae]
2020-04-20 16:32:31 INFO  20200420163231465:2749 - End of deleting Prevalidation Label Auto Rejection Scheduled job
2020-04-21 17:43:57 INFO  20200421174357889:2741 - Process started for deleting Prevalidation Label Auto Rejection Scheduled job: [ar 50.3 11284 - ae]
2020-04-21 17:43:57 INFO  20200421174357889:2749 - End of deleting Prevalidation Label Auto Rejection Scheduled job
2020-04-21 17:58:11 INFO  20200421175811185:2741 - Process started for deleting Prevalidation Label Auto Rejection Scheduled job: [ar 50.3 11284 - ae]
2020-04-21 17:58:11 INFO  20200421175811185:2749 - End of deleting Prevalidation Label Auto Rejection Scheduled job
2020-04-21 18:06:00 INFO  20200421180600255:2741 - Process started for deleting Prevalidation Label Auto Rejection Scheduled job: [ar 50.3 11284 - ae]
2020-04-21 18:06:00 INFO  20200421180600255:2749 - End of deleting Prevalidation Label Auto Rejection Scheduled job
2020-04-21 18:06:00 INFO  20200421180600255:2741 - Process started for deleting Prevalidation Label Auto Rejection Scheduled job: [commit for intelligent lead routing engine changes v 1.5]
2020-04-21 18:06:00 INFO  20200421180600255:2749 - End of deleting Prevalidation Label Auto Rejection Scheduled job
