2020-04-18 16:40:10 INFO  20181120215501466:2741 - Process started for deleting Prevalidation Label Auto Rejection Scheduled job: [ar 53.3 - 11424 ae]
2020-04-18 16:40:10 INFO  20181120215501466:2749 - End of deleting Prevalidation Label Auto Rejection Scheduled job
2020-04-18 17:10:02 INFO  20181120215501466:2741 - Process started for deleting Prevalidation Label Auto Rejection Scheduled job: [ar 53.3 - 11424 ae]
2020-04-18 17:10:02 INFO  20181120215501466:2749 - End of deleting Prevalidation Label Auto Rejection Scheduled job
2020-04-18 18:42:45 INFO  20181120215501466:2741 - Process started for deleting Prevalidation Label Auto Rejection Scheduled job: [ar 53.3 - 11424 ae]
2020-04-18 18:42:45 INFO  20181120215501466:2749 - End of deleting Prevalidation Label Auto Rejection Scheduled job
2020-04-20 16:32:31 INFO  20181120215501466:2741 - Process started for deleting Prevalidation Label Auto Rejection Scheduled job: [ar 53.3 - 11424 ae]
2020-04-20 16:32:31 INFO  20181120215501466:2749 - End of deleting Prevalidation Label Auto Rejection Scheduled job
2020-04-21 17:43:58 INFO  20181120215501466:2741 - Process started for deleting Prevalidation Label Auto Rejection Scheduled job: [ar 53.3 - 11424 ae]
2020-04-21 17:43:58 INFO  20181120215501466:2749 - End of deleting Prevalidation Label Auto Rejection Scheduled job
2020-04-21 17:58:11 INFO  20181120215501466:2741 - Process started for deleting Prevalidation Label Auto Rejection Scheduled job: [ar 53.3 - 11424 ae]
2020-04-21 17:58:11 INFO  20181120215501466:2749 - End of deleting Prevalidation Label Auto Rejection Scheduled job
2020-04-21 18:06:00 INFO  20181120215501466:2741 - Process started for deleting Prevalidation Label Auto Rejection Scheduled job: [ar 53.3 - 11424 ae]
2020-04-21 18:06:00 INFO  20181120215501466:2749 - End of deleting Prevalidation Label Auto Rejection Scheduled job
