2020-04-18 16:40:10 INFO  20190116221420863:2741 - Process started for deleting Prevalidation Label Auto Rejection Scheduled job: [ar 55.1 13532 - ae v4]
2020-04-18 16:40:10 INFO  20190116221420863:2749 - End of deleting Prevalidation Label Auto Rejection Scheduled job
2020-04-18 17:10:02 INFO  20190116221420863:2741 - Process started for deleting Prevalidation Label Auto Rejection Scheduled job: [ar 55.1 13532 - ae v4]
2020-04-18 17:10:02 INFO  20190116221420863:2749 - End of deleting Prevalidation Label Auto Rejection Scheduled job
2020-04-18 18:42:45 INFO  20190116221420863:2741 - Process started for deleting Prevalidation Label Auto Rejection Scheduled job: [ar 55.1 13532 - ae v4]
2020-04-18 18:42:45 INFO  20190116221420863:2749 - End of deleting Prevalidation Label Auto Rejection Scheduled job
2020-04-20 16:32:31 INFO  20190116221420863:2741 - Process started for deleting Prevalidation Label Auto Rejection Scheduled job: [ar 55.1 13532 - ae v4]
2020-04-20 16:32:31 INFO  20190116221420863:2749 - End of deleting Prevalidation Label Auto Rejection Scheduled job
2020-04-21 17:43:59 INFO  20190116221420863:2741 - Process started for deleting Prevalidation Label Auto Rejection Scheduled job: [ar 55.1 13532 - ae v4]
2020-04-21 17:43:59 INFO  20190116221420863:2749 - End of deleting Prevalidation Label Auto Rejection Scheduled job
2020-04-21 17:58:11 INFO  20190116221420863:2741 - Process started for deleting Prevalidation Label Auto Rejection Scheduled job: [ar 55.1 13532 - ae v4]
2020-04-21 17:58:11 INFO  20190116221420863:2749 - End of deleting Prevalidation Label Auto Rejection Scheduled job
2020-04-21 18:06:00 INFO  20190116221420863:2741 - Process started for deleting Prevalidation Label Auto Rejection Scheduled job: [ar 55.1 13532 - ae v4]
2020-04-21 18:06:00 INFO  20190116221420863:2749 - End of deleting Prevalidation Label Auto Rejection Scheduled job
