2020-04-18 16:40:10 INFO  20190411180646834:2741 - Process started for deleting Prevalidation Label Auto Rejection Scheduled job: [ar 58.2 15318 pt1 - ae]
2020-04-18 16:40:10 INFO  20190411180646834:2749 - End of deleting Prevalidation Label Auto Rejection Scheduled job
2020-04-18 17:10:02 INFO  20190411180646834:2741 - Process started for deleting Prevalidation Label Auto Rejection Scheduled job: [ar 58.2 15318 pt1 - ae]
2020-04-18 17:10:02 INFO  20190411180646834:2749 - End of deleting Prevalidation Label Auto Rejection Scheduled job
2020-04-18 18:42:46 INFO  20190411180646834:2741 - Process started for deleting Prevalidation Label Auto Rejection Scheduled job: [ar 58.2 15318 pt1 - ae]
2020-04-18 18:42:46 INFO  20190411180646834:2749 - End of deleting Prevalidation Label Auto Rejection Scheduled job
2020-04-20 16:32:32 INFO  20190411180646834:2741 - Process started for deleting Prevalidation Label Auto Rejection Scheduled job: [ar 58.2 15318 pt1 - ae]
2020-04-20 16:32:32 INFO  20190411180646834:2749 - End of deleting Prevalidation Label Auto Rejection Scheduled job
2020-04-21 17:44:00 INFO  20190411180646834:2741 - Process started for deleting Prevalidation Label Auto Rejection Scheduled job: [ar 58.2 15318 pt1 - ae]
2020-04-21 17:44:00 INFO  20190411180646834:2749 - End of deleting Prevalidation Label Auto Rejection Scheduled job
2020-04-21 17:58:11 INFO  20190411180646834:2741 - Process started for deleting Prevalidation Label Auto Rejection Scheduled job: [ar 58.2 15318 pt1 - ae]
2020-04-21 17:58:11 INFO  20190411180646834:2749 - End of deleting Prevalidation Label Auto Rejection Scheduled job
2020-04-21 18:06:00 INFO  20190411180646834:2741 - Process started for deleting Prevalidation Label Auto Rejection Scheduled job: [ar 58.2 15318 pt1 - ae]
2020-04-21 18:06:00 INFO  20190411180646834:2749 - End of deleting Prevalidation Label Auto Rejection Scheduled job
