2020-04-18 16:40:11 INFO  20190621192102318:2741 - Process started for deleting Prevalidation Label Auto Rejection Scheduled job: [ar 60.3 333283 20803 - ae]
2020-04-18 16:40:11 INFO  20190621192102318:2749 - End of deleting Prevalidation Label Auto Rejection Scheduled job
2020-04-18 17:10:02 INFO  20190621192102318:2741 - Process started for deleting Prevalidation Label Auto Rejection Scheduled job: [ar 60.3 333283 20803 - ae]
2020-04-18 17:10:02 INFO  20190621192102318:2749 - End of deleting Prevalidation Label Auto Rejection Scheduled job
2020-04-18 18:42:46 INFO  20190621192102318:2741 - Process started for deleting Prevalidation Label Auto Rejection Scheduled job: [ar 60.3 333283 20803 - ae]
2020-04-18 18:42:46 INFO  20190621192102318:2749 - End of deleting Prevalidation Label Auto Rejection Scheduled job
2020-04-20 16:32:33 INFO  20190621192102318:2741 - Process started for deleting Prevalidation Label Auto Rejection Scheduled job: [ar 60.3 333283 20803 - ae]
2020-04-20 16:32:33 INFO  20190621192102318:2749 - End of deleting Prevalidation Label Auto Rejection Scheduled job
2020-04-21 17:44:02 INFO  20190621192102318:2741 - Process started for deleting Prevalidation Label Auto Rejection Scheduled job: [ar 60.3 333283 20803 - ae]
2020-04-21 17:44:02 INFO  20190621192102318:2749 - End of deleting Prevalidation Label Auto Rejection Scheduled job
2020-04-21 17:58:11 INFO  20190621192102318:2741 - Process started for deleting Prevalidation Label Auto Rejection Scheduled job: [ar 60.3 333283 20803 - ae]
2020-04-21 17:58:11 INFO  20190621192102318:2749 - End of deleting Prevalidation Label Auto Rejection Scheduled job
2020-04-21 18:06:00 INFO  20190621192102318:2741 - Process started for deleting Prevalidation Label Auto Rejection Scheduled job: [ar 60.3 333283 20803 - ae]
2020-04-21 18:06:00 INFO  20190621192102318:2749 - End of deleting Prevalidation Label Auto Rejection Scheduled job
