2020-04-18 18:42:46 INFO  20200418184246890:2741 - Process started for deleting Prevalidation Label Auto Rejection Scheduled job: [ar50.2 sp - 10431 -1]
2020-04-18 18:42:46 INFO  20200418184246890:2749 - End of deleting Prevalidation Label Auto Rejection Scheduled job
2020-04-21 17:44:04 INFO  20200421174404086:2741 - Process started for deleting Prevalidation Label Auto Rejection Scheduled job: [ar50.2 sp - 10431 -1]
2020-04-21 17:44:04 INFO  20200421174404086:2749 - End of deleting Prevalidation Label Auto Rejection Scheduled job
2020-04-21 17:58:11 INFO  20200421175811784:2741 - Process started for deleting Prevalidation Label Auto Rejection Scheduled job: [ar50.2 sp - 10431 -1]
2020-04-21 17:58:11 INFO  20200421175811784:2749 - End of deleting Prevalidation Label Auto Rejection Scheduled job
