2020-04-18 18:42:46 INFO  20200418184246918:2741 - Process started for deleting Prevalidation Label Auto Rejection Scheduled job: [ar50.3-vs-12629]
2020-04-18 18:42:46 INFO  20200418184246918:2749 - End of deleting Prevalidation Label Auto Rejection Scheduled job
2020-04-21 18:06:01 INFO  20200421180601100:2741 - Process started for deleting Prevalidation Label Auto Rejection Scheduled job: [ar50.3-vs-12629]
2020-04-21 18:06:01 INFO  20200421180601100:2749 - End of deleting Prevalidation Label Auto Rejection Scheduled job
