2020-04-18 16:40:11 INFO  20190301175047552:2741 - Process started for deleting Prevalidation Label Auto Rejection Scheduled job: [ar57.1-sk-11209]
2020-04-18 16:40:11 INFO  20190301175047552:2749 - End of deleting Prevalidation Label Auto Rejection Scheduled job
2020-04-18 17:10:03 INFO  20190301175047552:2741 - Process started for deleting Prevalidation Label Auto Rejection Scheduled job: [ar57.1-sk-11209]
2020-04-18 17:10:03 INFO  20190301175047552:2749 - End of deleting Prevalidation Label Auto Rejection Scheduled job
2020-04-18 18:42:48 INFO  20190301175047552:2741 - Process started for deleting Prevalidation Label Auto Rejection Scheduled job: [ar57.1-sk-11209]
2020-04-18 18:42:48 INFO  20190301175047552:2749 - End of deleting Prevalidation Label Auto Rejection Scheduled job
2020-04-20 16:32:34 INFO  20190301175047552:2741 - Process started for deleting Prevalidation Label Auto Rejection Scheduled job: [ar57.1-sk-11209]
2020-04-20 16:32:34 INFO  20190301175047552:2749 - End of deleting Prevalidation Label Auto Rejection Scheduled job
2020-04-21 17:44:06 INFO  20190301175047552:2741 - Process started for deleting Prevalidation Label Auto Rejection Scheduled job: [ar57.1-sk-11209]
2020-04-21 17:44:06 INFO  20190301175047552:2749 - End of deleting Prevalidation Label Auto Rejection Scheduled job
2020-04-21 17:58:12 INFO  20190301175047552:2741 - Process started for deleting Prevalidation Label Auto Rejection Scheduled job: [ar57.1-sk-11209]
2020-04-21 17:58:12 INFO  20190301175047552:2749 - End of deleting Prevalidation Label Auto Rejection Scheduled job
2020-04-21 18:06:01 INFO  20190301175047552:2741 - Process started for deleting Prevalidation Label Auto Rejection Scheduled job: [ar57.1-sk-11209]
2020-04-21 18:06:01 INFO  20190301175047552:2749 - End of deleting Prevalidation Label Auto Rejection Scheduled job
