2020-04-18 16:40:11 INFO  20181105180701424:2741 - Process started for deleting Prevalidation Label Auto Rejection Scheduled job: [ar53.1-sk-apac-v1.0]
2020-04-18 16:40:11 INFO  20181105180701424:2749 - End of deleting Prevalidation Label Auto Rejection Scheduled job
2020-04-18 17:10:02 INFO  20181105180701424:2741 - Process started for deleting Prevalidation Label Auto Rejection Scheduled job: [ar53.1-sk-apac-v1.0]
2020-04-18 17:10:02 INFO  20181105180701424:2749 - End of deleting Prevalidation Label Auto Rejection Scheduled job
2020-04-18 18:42:47 INFO  20181105180701424:2741 - Process started for deleting Prevalidation Label Auto Rejection Scheduled job: [ar53.1-sk-apac-v1.0]
2020-04-18 18:42:47 INFO  20181105180701424:2749 - End of deleting Prevalidation Label Auto Rejection Scheduled job
2020-04-20 16:32:33 INFO  20181105180701424:2741 - Process started for deleting Prevalidation Label Auto Rejection Scheduled job: [ar53.1-sk-apac-v1.0]
2020-04-20 16:32:33 INFO  20181105180701424:2749 - End of deleting Prevalidation Label Auto Rejection Scheduled job
2020-04-21 17:44:04 INFO  20181105180701424:2741 - Process started for deleting Prevalidation Label Auto Rejection Scheduled job: [ar53.1-sk-apac-v1.0]
2020-04-21 17:44:04 INFO  20181105180701424:2749 - End of deleting Prevalidation Label Auto Rejection Scheduled job
2020-04-21 17:58:11 INFO  20181105180701424:2741 - Process started for deleting Prevalidation Label Auto Rejection Scheduled job: [ar53.1-sk-apac-v1.0]
2020-04-21 17:58:11 INFO  20181105180701424:2749 - End of deleting Prevalidation Label Auto Rejection Scheduled job
2020-04-21 18:06:01 INFO  20181105180701424:2741 - Process started for deleting Prevalidation Label Auto Rejection Scheduled job: [ar53.1-sk-apac-v1.0]
2020-04-21 18:06:01 INFO  20181105180701424:2749 - End of deleting Prevalidation Label Auto Rejection Scheduled job
