2020-04-18 16:40:11 INFO  20190129152441903:2741 - Process started for deleting Prevalidation Label Auto Rejection Scheduled job: [ar55.2 sp 14312]
2020-04-18 16:40:11 INFO  20190129152441903:2749 - End of deleting Prevalidation Label Auto Rejection Scheduled job
2020-04-18 17:10:03 INFO  20190129152441903:2741 - Process started for deleting Prevalidation Label Auto Rejection Scheduled job: [ar55.2 sp 14312]
2020-04-18 17:10:03 INFO  20190129152441903:2749 - End of deleting Prevalidation Label Auto Rejection Scheduled job
2020-04-18 18:42:47 INFO  20190129152441903:2741 - Process started for deleting Prevalidation Label Auto Rejection Scheduled job: [ar55.2 sp 14312]
2020-04-18 18:42:47 INFO  20190129152441903:2749 - End of deleting Prevalidation Label Auto Rejection Scheduled job
2020-04-20 16:32:34 INFO  20190129152441903:2741 - Process started for deleting Prevalidation Label Auto Rejection Scheduled job: [ar55.2 sp 14312]
2020-04-20 16:32:34 INFO  20190129152441903:2749 - End of deleting Prevalidation Label Auto Rejection Scheduled job
2020-04-21 17:44:05 INFO  20190129152441903:2741 - Process started for deleting Prevalidation Label Auto Rejection Scheduled job: [ar55.2 sp 14312]
2020-04-21 17:44:05 INFO  20190129152441903:2749 - End of deleting Prevalidation Label Auto Rejection Scheduled job
2020-04-21 17:58:11 INFO  20190129152441903:2741 - Process started for deleting Prevalidation Label Auto Rejection Scheduled job: [ar55.2 sp 14312]
2020-04-21 17:58:11 INFO  20190129152441903:2749 - End of deleting Prevalidation Label Auto Rejection Scheduled job
2020-04-21 18:06:01 INFO  20190129152441903:2741 - Process started for deleting Prevalidation Label Auto Rejection Scheduled job: [ar55.2 sp 14312]
2020-04-21 18:06:01 INFO  20190129152441903:2749 - End of deleting Prevalidation Label Auto Rejection Scheduled job
