2020-04-18 16:40:12 INFO  20190920162007990:2741 - Process started for deleting Prevalidation Label Auto Rejection Scheduled job: [ar63.3 us560042 and 560043 jm]
2020-04-18 16:40:12 INFO  20190920162007990:2749 - End of deleting Prevalidation Label Auto Rejection Scheduled job
2020-04-18 17:10:03 INFO  20190920162007990:2741 - Process started for deleting Prevalidation Label Auto Rejection Scheduled job: [ar63.3 us560042 and 560043 jm]
2020-04-18 17:10:03 INFO  20190920162007990:2749 - End of deleting Prevalidation Label Auto Rejection Scheduled job
2020-04-18 18:42:50 INFO  20190920162007990:2741 - Process started for deleting Prevalidation Label Auto Rejection Scheduled job: [ar63.3 us560042 and 560043 jm]
2020-04-18 18:42:50 INFO  20190920162007990:2749 - End of deleting Prevalidation Label Auto Rejection Scheduled job
2020-04-20 16:32:38 INFO  20190920162007990:2741 - Process started for deleting Prevalidation Label Auto Rejection Scheduled job: [ar63.3 us560042 and 560043 jm]
2020-04-20 16:32:38 INFO  20190920162007990:2749 - End of deleting Prevalidation Label Auto Rejection Scheduled job
2020-04-21 17:44:21 INFO  20190920162007990:2741 - Process started for deleting Prevalidation Label Auto Rejection Scheduled job: [ar63.3 us560042 and 560043 jm]
2020-04-21 17:44:21 INFO  20190920162007990:2749 - End of deleting Prevalidation Label Auto Rejection Scheduled job
2020-04-21 17:58:12 INFO  20190920162007990:2741 - Process started for deleting Prevalidation Label Auto Rejection Scheduled job: [ar63.3 us560042 and 560043 jm]
2020-04-21 17:58:12 INFO  20190920162007990:2749 - End of deleting Prevalidation Label Auto Rejection Scheduled job
2020-04-21 18:06:01 INFO  20190920162007990:2741 - Process started for deleting Prevalidation Label Auto Rejection Scheduled job: [ar63.3 us560042 and 560043 jm]
2020-04-21 18:06:01 INFO  20190920162007990:2749 - End of deleting Prevalidation Label Auto Rejection Scheduled job
