2020-04-18 16:40:12 INFO  20190718185520585:2741 - Process started for deleting Prevalidation Label Auto Rejection Scheduled job: [ar61.2 us336508 jm]
2020-04-18 16:40:12 INFO  20190718185520585:2749 - End of deleting Prevalidation Label Auto Rejection Scheduled job
2020-04-18 17:10:03 INFO  20190718185520585:2741 - Process started for deleting Prevalidation Label Auto Rejection Scheduled job: [ar61.2 us336508 jm]
2020-04-18 17:10:03 INFO  20190718185520585:2749 - End of deleting Prevalidation Label Auto Rejection Scheduled job
2020-04-18 18:42:48 INFO  20190718185520585:2741 - Process started for deleting Prevalidation Label Auto Rejection Scheduled job: [ar61.2 us336508 jm]
2020-04-18 18:42:48 INFO  20190718185520585:2749 - End of deleting Prevalidation Label Auto Rejection Scheduled job
2020-04-20 16:32:35 INFO  20190718185520585:2741 - Process started for deleting Prevalidation Label Auto Rejection Scheduled job: [ar61.2 us336508 jm]
2020-04-20 16:32:35 INFO  20190718185520585:2749 - End of deleting Prevalidation Label Auto Rejection Scheduled job
2020-04-21 17:44:21 INFO  20190718185520585:2741 - Process started for deleting Prevalidation Label Auto Rejection Scheduled job: [ar61.2 us336508 jm]
2020-04-21 17:44:21 INFO  20190718185520585:2749 - End of deleting Prevalidation Label Auto Rejection Scheduled job
2020-04-21 17:58:12 INFO  20190718185520585:2741 - Process started for deleting Prevalidation Label Auto Rejection Scheduled job: [ar61.2 us336508 jm]
2020-04-21 17:58:12 INFO  20190718185520585:2749 - End of deleting Prevalidation Label Auto Rejection Scheduled job
2020-04-21 18:06:01 INFO  20190718185520585:2741 - Process started for deleting Prevalidation Label Auto Rejection Scheduled job: [ar61.2 us336508 jm]
2020-04-21 18:06:01 INFO  20190718185520585:2749 - End of deleting Prevalidation Label Auto Rejection Scheduled job
