2020-04-18 16:40:12 INFO  20191220173800922:2741 - Process started for deleting Prevalidation Label Auto Rejection Scheduled job: [cr-00000097-1]
2020-04-18 16:40:12 INFO  20191220173800922:2749 - End of deleting Prevalidation Label Auto Rejection Scheduled job
2020-04-18 17:10:03 INFO  20191220173800922:2741 - Process started for deleting Prevalidation Label Auto Rejection Scheduled job: [cr-00000097-1]
2020-04-18 17:10:03 INFO  20191220173800922:2749 - End of deleting Prevalidation Label Auto Rejection Scheduled job
2020-04-18 18:42:50 INFO  20191220173800922:2741 - Process started for deleting Prevalidation Label Auto Rejection Scheduled job: [cr-00000097-1]
2020-04-18 18:42:50 INFO  20191220173800922:2749 - End of deleting Prevalidation Label Auto Rejection Scheduled job
2020-04-20 16:32:40 INFO  20191220173800922:2741 - Process started for deleting Prevalidation Label Auto Rejection Scheduled job: [cr-00000097-1]
2020-04-20 16:32:40 INFO  20191220173800922:2749 - End of deleting Prevalidation Label Auto Rejection Scheduled job
2020-04-21 17:44:22 INFO  20191220173800922:2741 - Process started for deleting Prevalidation Label Auto Rejection Scheduled job: [cr-00000097-1]
2020-04-21 17:44:22 INFO  20191220173800922:2749 - End of deleting Prevalidation Label Auto Rejection Scheduled job
2020-04-21 17:58:12 INFO  20191220173800922:2741 - Process started for deleting Prevalidation Label Auto Rejection Scheduled job: [cr-00000097-1]
2020-04-21 17:58:12 INFO  20191220173800922:2749 - End of deleting Prevalidation Label Auto Rejection Scheduled job
2020-04-21 18:06:01 INFO  20191220173800922:2741 - Process started for deleting Prevalidation Label Auto Rejection Scheduled job: [cr-00000097-1]
2020-04-21 18:06:01 INFO  20191220173800922:2749 - End of deleting Prevalidation Label Auto Rejection Scheduled job
