2020-04-18 16:40:12 INFO  20181108224428859:2741 - Process started for deleting Prevalidation Label Auto Rejection Scheduled job: [prod fix - msp deactivate validation rule]
2020-04-18 16:40:12 INFO  20181108224428859:2749 - End of deleting Prevalidation Label Auto Rejection Scheduled job
2020-04-18 17:10:04 INFO  20181108224428859:2741 - Process started for deleting Prevalidation Label Auto Rejection Scheduled job: [prod fix - msp deactivate validation rule]
2020-04-18 17:10:04 INFO  20181108224428859:2749 - End of deleting Prevalidation Label Auto Rejection Scheduled job
2020-04-18 18:42:53 INFO  20181108224428859:2741 - Process started for deleting Prevalidation Label Auto Rejection Scheduled job: [prod fix - msp deactivate validation rule]
2020-04-18 18:42:53 INFO  20181108224428859:2749 - End of deleting Prevalidation Label Auto Rejection Scheduled job
2020-04-20 16:32:42 INFO  20181108224428859:2741 - Process started for deleting Prevalidation Label Auto Rejection Scheduled job: [prod fix - msp deactivate validation rule]
2020-04-20 16:32:42 INFO  20181108224428859:2749 - End of deleting Prevalidation Label Auto Rejection Scheduled job
2020-04-21 17:44:22 INFO  20181108224428859:2741 - Process started for deleting Prevalidation Label Auto Rejection Scheduled job: [prod fix - msp deactivate validation rule]
2020-04-21 17:44:22 INFO  20181108224428859:2749 - End of deleting Prevalidation Label Auto Rejection Scheduled job
2020-04-21 17:58:13 INFO  20181108224428859:2741 - Process started for deleting Prevalidation Label Auto Rejection Scheduled job: [prod fix - msp deactivate validation rule]
2020-04-21 17:58:13 INFO  20181108224428859:2749 - End of deleting Prevalidation Label Auto Rejection Scheduled job
2020-04-21 18:06:01 INFO  20181108224428859:2741 - Process started for deleting Prevalidation Label Auto Rejection Scheduled job: [prod fix - msp deactivate validation rule]
2020-04-21 18:06:01 INFO  20181108224428859:2749 - End of deleting Prevalidation Label Auto Rejection Scheduled job
