2020-04-18 18:42:53 INFO  20200418184253732:2741 - Process started for deleting Prevalidation Label Auto Rejection Scheduled job: [r50-287046-287048-16]
2020-04-18 18:42:53 INFO  20200418184253732:2749 - End of deleting Prevalidation Label Auto Rejection Scheduled job
2020-04-20 16:32:43 INFO  20200420163243078:2741 - Process started for deleting Prevalidation Label Auto Rejection Scheduled job: [r50-287046-287048-16]
2020-04-20 16:32:43 INFO  20200420163243078:2749 - End of deleting Prevalidation Label Auto Rejection Scheduled job
2020-04-21 17:44:23 INFO  20200421174423193:2741 - Process started for deleting Prevalidation Label Auto Rejection Scheduled job: [r50-287046-287048-16]
2020-04-21 17:44:23 INFO  20200421174423193:2749 - End of deleting Prevalidation Label Auto Rejection Scheduled job
