2020-04-18 18:42:53 INFO  20200418184253752:2741 - Process started for deleting Prevalidation Label Auto Rejection Scheduled job: [r50-gridfixes-uat2]
2020-04-18 18:42:53 INFO  20200418184253752:2749 - End of deleting Prevalidation Label Auto Rejection Scheduled job
2020-04-18 18:42:53 INFO  20200418184253752:2741 - Process started for deleting Prevalidation Label Auto Rejection Scheduled job: [r50-testclass1]
2020-04-18 18:42:53 INFO  20200418184253752:2749 - End of deleting Prevalidation Label Auto Rejection Scheduled job
2020-04-18 18:42:53 INFO  20200418184253752:2741 - Process started for deleting Prevalidation Label Auto Rejection Scheduled job: [r50-testclasscoverage-techdebt-2]
2020-04-18 18:42:53 INFO  20200418184253752:2749 - End of deleting Prevalidation Label Auto Rejection Scheduled job
2020-04-21 17:44:23 INFO  20200421174423259:2741 - Process started for deleting Prevalidation Label Auto Rejection Scheduled job: [r50-gridfixes-uat2]
2020-04-21 17:44:23 INFO  20200421174423259:2749 - End of deleting Prevalidation Label Auto Rejection Scheduled job
2020-04-21 17:58:13 INFO  20200421175813414:2741 - Process started for deleting Prevalidation Label Auto Rejection Scheduled job: [r50-gridfixes-uat2]
2020-04-21 17:58:13 INFO  20200421175813414:2749 - End of deleting Prevalidation Label Auto Rejection Scheduled job
2020-04-21 17:58:13 INFO  20200421175813414:2741 - Process started for deleting Prevalidation Label Auto Rejection Scheduled job: [r50-testclass1]
2020-04-21 17:58:13 INFO  20200421175813414:2749 - End of deleting Prevalidation Label Auto Rejection Scheduled job
