2020-04-18 16:40:13 INFO  20181005230057183:2741 - Process started for deleting Prevalidation Label Auto Rejection Scheduled job: [r52-299057-enquirysharing]
2020-04-18 16:40:13 INFO  20181005230057183:2749 - End of deleting Prevalidation Label Auto Rejection Scheduled job
2020-04-18 17:10:05 INFO  20181005230057183:2741 - Process started for deleting Prevalidation Label Auto Rejection Scheduled job: [r52-299057-enquirysharing]
2020-04-18 17:10:05 INFO  20181005230057183:2749 - End of deleting Prevalidation Label Auto Rejection Scheduled job
2020-04-18 18:43:04 INFO  20181005230057183:2741 - Process started for deleting Prevalidation Label Auto Rejection Scheduled job: [r52-299057-enquirysharing]
2020-04-18 18:43:04 INFO  20181005230057183:2749 - End of deleting Prevalidation Label Auto Rejection Scheduled job
2020-04-20 16:32:53 INFO  20181005230057183:2741 - Process started for deleting Prevalidation Label Auto Rejection Scheduled job: [r52-299057-enquirysharing]
2020-04-20 16:32:53 INFO  20181005230057183:2749 - End of deleting Prevalidation Label Auto Rejection Scheduled job
2020-04-21 17:44:40 INFO  20181005230057183:2741 - Process started for deleting Prevalidation Label Auto Rejection Scheduled job: [r52-299057-enquirysharing]
2020-04-21 17:44:40 INFO  20181005230057183:2749 - End of deleting Prevalidation Label Auto Rejection Scheduled job
2020-04-21 17:58:13 INFO  20181005230057183:2741 - Process started for deleting Prevalidation Label Auto Rejection Scheduled job: [r52-299057-enquirysharing]
2020-04-21 17:58:13 INFO  20181005230057183:2749 - End of deleting Prevalidation Label Auto Rejection Scheduled job
2020-04-21 18:06:02 INFO  20181005230057183:2741 - Process started for deleting Prevalidation Label Auto Rejection Scheduled job: [r52-299057-enquirysharing]
2020-04-21 18:06:02 INFO  20181005230057183:2749 - End of deleting Prevalidation Label Auto Rejection Scheduled job
