2020-04-18 16:40:12 INFO  20180912164636193:2741 - Process started for deleting Prevalidation Label Auto Rejection Scheduled job: [r52 - 295599 - consolidate gws profiles v1]
2020-04-18 16:40:12 INFO  20180912164636193:2749 - End of deleting Prevalidation Label Auto Rejection Scheduled job
2020-04-18 17:10:04 INFO  20180912164636193:2741 - Process started for deleting Prevalidation Label Auto Rejection Scheduled job: [r52 - 295599 - consolidate gws profiles v1]
2020-04-18 17:10:04 INFO  20180912164636193:2749 - End of deleting Prevalidation Label Auto Rejection Scheduled job
2020-04-18 18:42:53 INFO  20180912164636193:2741 - Process started for deleting Prevalidation Label Auto Rejection Scheduled job: [r52 - 295599 - consolidate gws profiles v1]
2020-04-18 18:42:53 INFO  20180912164636193:2749 - End of deleting Prevalidation Label Auto Rejection Scheduled job
2020-04-20 16:32:43 INFO  20180912164636193:2741 - Process started for deleting Prevalidation Label Auto Rejection Scheduled job: [r52 - 295599 - consolidate gws profiles v1]
2020-04-20 16:32:43 INFO  20180912164636193:2749 - End of deleting Prevalidation Label Auto Rejection Scheduled job
2020-04-21 17:44:23 INFO  20180912164636193:2741 - Process started for deleting Prevalidation Label Auto Rejection Scheduled job: [r52 - 295599 - consolidate gws profiles v1]
2020-04-21 17:44:23 INFO  20180912164636193:2749 - End of deleting Prevalidation Label Auto Rejection Scheduled job
2020-04-21 17:58:13 INFO  20180912164636193:2741 - Process started for deleting Prevalidation Label Auto Rejection Scheduled job: [r52 - 295599 - consolidate gws profiles v1]
2020-04-21 17:58:13 INFO  20180912164636193:2749 - End of deleting Prevalidation Label Auto Rejection Scheduled job
2020-04-21 18:06:02 INFO  20180912164636193:2741 - Process started for deleting Prevalidation Label Auto Rejection Scheduled job: [r52 - 295599 - consolidate gws profiles v1]
2020-04-21 18:06:02 INFO  20180912164636193:2749 - End of deleting Prevalidation Label Auto Rejection Scheduled job
