2020-04-18 16:40:13 INFO  20181120110941588:2741 - Process started for deleting Prevalidation Label Auto Rejection Scheduled job: [r54-296166-offshore-mrdev-v1]
2020-04-18 16:40:13 INFO  20181120110941588:2749 - End of deleting Prevalidation Label Auto Rejection Scheduled job
2020-04-18 17:10:05 INFO  20181120110941588:2741 - Process started for deleting Prevalidation Label Auto Rejection Scheduled job: [r54-296166-offshore-mrdev-v1]
2020-04-18 17:10:05 INFO  20181120110941588:2749 - End of deleting Prevalidation Label Auto Rejection Scheduled job
2020-04-18 18:43:05 INFO  20181120110941588:2741 - Process started for deleting Prevalidation Label Auto Rejection Scheduled job: [r54-296166-offshore-mrdev-v1]
2020-04-18 18:43:05 INFO  20181120110941588:2749 - End of deleting Prevalidation Label Auto Rejection Scheduled job
2020-04-20 16:32:53 INFO  20181120110941588:2741 - Process started for deleting Prevalidation Label Auto Rejection Scheduled job: [r54-296166-offshore-mrdev-v1]
2020-04-20 16:32:53 INFO  20181120110941588:2749 - End of deleting Prevalidation Label Auto Rejection Scheduled job
2020-04-21 17:44:42 INFO  20181120110941588:2741 - Process started for deleting Prevalidation Label Auto Rejection Scheduled job: [r54-296166-offshore-mrdev-v1]
2020-04-21 17:44:42 INFO  20181120110941588:2749 - End of deleting Prevalidation Label Auto Rejection Scheduled job
2020-04-21 17:58:14 INFO  20181120110941588:2741 - Process started for deleting Prevalidation Label Auto Rejection Scheduled job: [r54-296166-offshore-mrdev-v1]
2020-04-21 17:58:14 INFO  20181120110941588:2749 - End of deleting Prevalidation Label Auto Rejection Scheduled job
2020-04-21 18:06:02 INFO  20181120110941588:2741 - Process started for deleting Prevalidation Label Auto Rejection Scheduled job: [r54-296166-offshore-mrdev-v1]
2020-04-21 18:06:02 INFO  20181120110941588:2749 - End of deleting Prevalidation Label Auto Rejection Scheduled job
