2020-04-18 16:40:14 INFO  20190104105338725:2741 - Process started for deleting Prevalidation Label Auto Rejection Scheduled job: [r55-309268-offshorefix-mrdev0104]
2020-04-18 16:40:14 INFO  20190104105338725:2749 - End of deleting Prevalidation Label Auto Rejection Scheduled job
2020-04-18 17:10:05 INFO  20190104105338725:2741 - Process started for deleting Prevalidation Label Auto Rejection Scheduled job: [r55-309268-offshorefix-mrdev0104]
2020-04-18 17:10:05 INFO  20190104105338725:2749 - End of deleting Prevalidation Label Auto Rejection Scheduled job
2020-04-18 18:43:06 INFO  20190104105338725:2741 - Process started for deleting Prevalidation Label Auto Rejection Scheduled job: [r55-309268-offshorefix-mrdev0104]
2020-04-18 18:43:06 INFO  20190104105338725:2749 - End of deleting Prevalidation Label Auto Rejection Scheduled job
2020-04-20 16:32:54 INFO  20190104105338725:2741 - Process started for deleting Prevalidation Label Auto Rejection Scheduled job: [r55-309268-offshorefix-mrdev0104]
2020-04-20 16:32:54 INFO  20190104105338725:2749 - End of deleting Prevalidation Label Auto Rejection Scheduled job
2020-04-21 17:44:49 INFO  20190104105338725:2741 - Process started for deleting Prevalidation Label Auto Rejection Scheduled job: [r55-309268-offshorefix-mrdev0104]
2020-04-21 17:44:49 INFO  20190104105338725:2749 - End of deleting Prevalidation Label Auto Rejection Scheduled job
2020-04-21 17:58:14 INFO  20190104105338725:2741 - Process started for deleting Prevalidation Label Auto Rejection Scheduled job: [r55-309268-offshorefix-mrdev0104]
2020-04-21 17:58:14 INFO  20190104105338725:2749 - End of deleting Prevalidation Label Auto Rejection Scheduled job
2020-04-21 18:06:03 INFO  20190104105338725:2741 - Process started for deleting Prevalidation Label Auto Rejection Scheduled job: [r55-309268-offshorefix-mrdev0104]
2020-04-21 18:06:03 INFO  20190104105338725:2749 - End of deleting Prevalidation Label Auto Rejection Scheduled job
