2020-04-18 16:40:14 INFO  20190213222305241:2741 - Process started for deleting Prevalidation Label Auto Rejection Scheduled job: [r57 - edp streaming spike]
2020-04-18 16:40:14 INFO  20190213222305241:2749 - End of deleting Prevalidation Label Auto Rejection Scheduled job
2020-04-18 17:10:06 INFO  20190213222305241:2741 - Process started for deleting Prevalidation Label Auto Rejection Scheduled job: [r57 - edp streaming spike]
2020-04-18 17:10:06 INFO  20190213222305241:2749 - End of deleting Prevalidation Label Auto Rejection Scheduled job
2020-04-18 18:43:06 INFO  20190213222305241:2741 - Process started for deleting Prevalidation Label Auto Rejection Scheduled job: [r57 - edp streaming spike]
2020-04-18 18:43:06 INFO  20190213222305241:2749 - End of deleting Prevalidation Label Auto Rejection Scheduled job
2020-04-20 16:32:54 INFO  20190213222305241:2741 - Process started for deleting Prevalidation Label Auto Rejection Scheduled job: [r57 - edp streaming spike]
2020-04-20 16:32:54 INFO  20190213222305241:2749 - End of deleting Prevalidation Label Auto Rejection Scheduled job
2020-04-21 17:44:49 INFO  20190213222305241:2741 - Process started for deleting Prevalidation Label Auto Rejection Scheduled job: [r57 - edp streaming spike]
2020-04-21 17:44:49 INFO  20190213222305241:2749 - End of deleting Prevalidation Label Auto Rejection Scheduled job
2020-04-21 17:58:14 INFO  20190213222305241:2741 - Process started for deleting Prevalidation Label Auto Rejection Scheduled job: [r57 - edp streaming spike]
2020-04-21 17:58:14 INFO  20190213222305241:2749 - End of deleting Prevalidation Label Auto Rejection Scheduled job
2020-04-21 18:06:03 INFO  20190213222305241:2741 - Process started for deleting Prevalidation Label Auto Rejection Scheduled job: [r57 - edp streaming spike]
2020-04-21 18:06:03 INFO  20190213222305241:2749 - End of deleting Prevalidation Label Auto Rejection Scheduled job
