2020-04-18 16:40:15 INFO  20190702180838302:2741 - Process started for deleting Prevalidation Label Auto Rejection Scheduled job: [r62 -330078 missing standard field on opportunity ]
2020-04-18 16:40:15 INFO  20190702180838302:2749 - End of deleting Prevalidation Label Auto Rejection Scheduled job
2020-04-18 17:10:06 INFO  20190702180838302:2741 - Process started for deleting Prevalidation Label Auto Rejection Scheduled job: [r62 -330078 missing standard field on opportunity ]
2020-04-18 17:10:06 INFO  20190702180838302:2749 - End of deleting Prevalidation Label Auto Rejection Scheduled job
2020-04-18 18:43:08 INFO  20190702180838302:2741 - Process started for deleting Prevalidation Label Auto Rejection Scheduled job: [r62 -330078 missing standard field on opportunity ]
2020-04-18 18:43:08 INFO  20190702180838302:2749 - End of deleting Prevalidation Label Auto Rejection Scheduled job
2020-04-20 16:32:59 INFO  20190702180838302:2741 - Process started for deleting Prevalidation Label Auto Rejection Scheduled job: [r62 -330078 missing standard field on opportunity ]
2020-04-20 16:32:59 INFO  20190702180838302:2749 - End of deleting Prevalidation Label Auto Rejection Scheduled job
2020-04-21 17:44:51 INFO  20190702180838302:2741 - Process started for deleting Prevalidation Label Auto Rejection Scheduled job: [r62 -330078 missing standard field on opportunity ]
2020-04-21 17:44:51 INFO  20190702180838302:2749 - End of deleting Prevalidation Label Auto Rejection Scheduled job
2020-04-21 17:58:14 INFO  20190702180838302:2741 - Process started for deleting Prevalidation Label Auto Rejection Scheduled job: [r62 -330078 missing standard field on opportunity ]
2020-04-21 17:58:14 INFO  20190702180838302:2749 - End of deleting Prevalidation Label Auto Rejection Scheduled job
2020-04-21 18:06:03 INFO  20190702180838302:2741 - Process started for deleting Prevalidation Label Auto Rejection Scheduled job: [r62 -330078 missing standard field on opportunity ]
2020-04-21 18:06:03 INFO  20190702180838302:2749 - End of deleting Prevalidation Label Auto Rejection Scheduled job
