2020-04-18 16:40:15 INFO  20190701170404885:2741 - Process started for deleting Prevalidation Label Auto Rejection Scheduled job: [r62- 337005 location object changes - v2]
2020-04-18 16:40:15 INFO  20190701170404885:2749 - End of deleting Prevalidation Label Auto Rejection Scheduled job
2020-04-18 17:10:06 INFO  20190701170404885:2741 - Process started for deleting Prevalidation Label Auto Rejection Scheduled job: [r62- 337005 location object changes - v2]
2020-04-18 17:10:06 INFO  20190701170404885:2749 - End of deleting Prevalidation Label Auto Rejection Scheduled job
2020-04-18 18:43:08 INFO  20190701170404885:2741 - Process started for deleting Prevalidation Label Auto Rejection Scheduled job: [r62- 337005 location object changes - v2]
2020-04-18 18:43:08 INFO  20190701170404885:2749 - End of deleting Prevalidation Label Auto Rejection Scheduled job
2020-04-20 16:33:00 INFO  20190701170404885:2741 - Process started for deleting Prevalidation Label Auto Rejection Scheduled job: [r62- 337005 location object changes - v2]
2020-04-20 16:33:00 INFO  20190701170404885:2749 - End of deleting Prevalidation Label Auto Rejection Scheduled job
2020-04-21 17:44:51 INFO  20190701170404885:2741 - Process started for deleting Prevalidation Label Auto Rejection Scheduled job: [r62- 337005 location object changes - v2]
2020-04-21 17:44:51 INFO  20190701170404885:2749 - End of deleting Prevalidation Label Auto Rejection Scheduled job
2020-04-21 17:58:14 INFO  20190701170404885:2741 - Process started for deleting Prevalidation Label Auto Rejection Scheduled job: [r62- 337005 location object changes - v2]
2020-04-21 17:58:14 INFO  20190701170404885:2749 - End of deleting Prevalidation Label Auto Rejection Scheduled job
2020-04-21 18:06:03 INFO  20190701170404885:2741 - Process started for deleting Prevalidation Label Auto Rejection Scheduled job: [r62- 337005 location object changes - v2]
2020-04-21 18:06:03 INFO  20190701170404885:2749 - End of deleting Prevalidation Label Auto Rejection Scheduled job
