2020-04-18 16:40:15 INFO  20200418164015597:2741 - Process started for deleting Prevalidation Label Auto Rejection Scheduled job: [r63-enqrelcontacts-v1.0]
2020-04-18 16:40:15 INFO  20200418164015597:2749 - End of deleting Prevalidation Label Auto Rejection Scheduled job
2020-04-18 17:10:07 INFO  20200418171007206:2741 - Process started for deleting Prevalidation Label Auto Rejection Scheduled job: [r63-enqrelcontacts-v1.0]
2020-04-18 17:10:07 INFO  20200418171007206:2749 - End of deleting Prevalidation Label Auto Rejection Scheduled job
2020-04-21 17:44:52 INFO  20200421174452422:2741 - Process started for deleting Prevalidation Label Auto Rejection Scheduled job: [r63-enqrelcontacts-v1.0]
2020-04-21 17:44:52 INFO  20200421174452422:2749 - End of deleting Prevalidation Label Auto Rejection Scheduled job
2020-04-21 17:58:15 INFO  20200421175815318:2741 - Process started for deleting Prevalidation Label Auto Rejection Scheduled job: [r63-enqrelcontacts-v1.0]
2020-04-21 17:58:15 INFO  20200421175815318:2749 - End of deleting Prevalidation Label Auto Rejection Scheduled job
2020-04-21 18:06:04 INFO  20200421180604018:2741 - Process started for deleting Prevalidation Label Auto Rejection Scheduled job: [r63-enqrelcontacts-v1.0]
2020-04-21 18:06:04 INFO  20200421180604018:2749 - End of deleting Prevalidation Label Auto Rejection Scheduled job
