2020-04-18 16:40:15 INFO  20191030190201466:2741 - Process started for deleting Prevalidation Label Auto Rejection Scheduled job: [r65 - opp helper - improve coverage]
2020-04-18 16:40:15 INFO  20191030190201466:2749 - End of deleting Prevalidation Label Auto Rejection Scheduled job
2020-04-18 17:10:07 INFO  20191030190201466:2741 - Process started for deleting Prevalidation Label Auto Rejection Scheduled job: [r65 - opp helper - improve coverage]
2020-04-18 17:10:07 INFO  20191030190201466:2749 - End of deleting Prevalidation Label Auto Rejection Scheduled job
2020-04-18 18:43:09 INFO  20191030190201466:2741 - Process started for deleting Prevalidation Label Auto Rejection Scheduled job: [r65 - opp helper - improve coverage]
2020-04-18 18:43:09 INFO  20191030190201466:2749 - End of deleting Prevalidation Label Auto Rejection Scheduled job
2020-04-20 16:33:04 INFO  20191030190201466:2741 - Process started for deleting Prevalidation Label Auto Rejection Scheduled job: [r65 - opp helper - improve coverage]
2020-04-20 16:33:04 INFO  20191030190201466:2749 - End of deleting Prevalidation Label Auto Rejection Scheduled job
2020-04-21 17:44:54 INFO  20191030190201466:2741 - Process started for deleting Prevalidation Label Auto Rejection Scheduled job: [r65 - opp helper - improve coverage]
2020-04-21 17:44:54 INFO  20191030190201466:2749 - End of deleting Prevalidation Label Auto Rejection Scheduled job
2020-04-21 17:58:15 INFO  20191030190201466:2741 - Process started for deleting Prevalidation Label Auto Rejection Scheduled job: [r65 - opp helper - improve coverage]
2020-04-21 17:58:15 INFO  20191030190201466:2749 - End of deleting Prevalidation Label Auto Rejection Scheduled job
2020-04-21 18:06:04 INFO  20191030190201466:2741 - Process started for deleting Prevalidation Label Auto Rejection Scheduled job: [r65 - opp helper - improve coverage]
2020-04-21 18:06:04 INFO  20191030190201466:2749 - End of deleting Prevalidation Label Auto Rejection Scheduled job
