2020-04-18 16:40:16 INFO  20191126035056317:2741 - Process started for deleting Prevalidation Label Auto Rejection Scheduled job: [r66-hypercare-20569fixv1]
2020-04-18 16:40:16 INFO  20191126035056317:2749 - End of deleting Prevalidation Label Auto Rejection Scheduled job
2020-04-18 17:10:08 INFO  20191126035056317:2741 - Process started for deleting Prevalidation Label Auto Rejection Scheduled job: [r66-hypercare-20569fixv1]
2020-04-18 17:10:08 INFO  20191126035056317:2749 - End of deleting Prevalidation Label Auto Rejection Scheduled job
2020-04-18 18:43:10 INFO  20191126035056317:2741 - Process started for deleting Prevalidation Label Auto Rejection Scheduled job: [r66-hypercare-20569fixv1]
2020-04-18 18:43:10 INFO  20191126035056317:2749 - End of deleting Prevalidation Label Auto Rejection Scheduled job
2020-04-20 16:33:05 INFO  20191126035056317:2741 - Process started for deleting Prevalidation Label Auto Rejection Scheduled job: [r66-hypercare-20569fixv1]
2020-04-20 16:33:05 INFO  20191126035056317:2749 - End of deleting Prevalidation Label Auto Rejection Scheduled job
2020-04-21 17:44:59 INFO  20191126035056317:2741 - Process started for deleting Prevalidation Label Auto Rejection Scheduled job: [r66-hypercare-20569fixv1]
2020-04-21 17:44:59 INFO  20191126035056317:2749 - End of deleting Prevalidation Label Auto Rejection Scheduled job
2020-04-21 17:58:15 INFO  20191126035056317:2741 - Process started for deleting Prevalidation Label Auto Rejection Scheduled job: [r66-hypercare-20569fixv1]
2020-04-21 17:58:15 INFO  20191126035056317:2749 - End of deleting Prevalidation Label Auto Rejection Scheduled job
2020-04-21 18:06:04 INFO  20191126035056317:2741 - Process started for deleting Prevalidation Label Auto Rejection Scheduled job: [r66-hypercare-20569fixv1]
2020-04-21 18:06:04 INFO  20191126035056317:2749 - End of deleting Prevalidation Label Auto Rejection Scheduled job
