2020-04-18 16:40:16 INFO  20191127090944937:2741 - Process started for deleting Prevalidation Label Auto Rejection Scheduled job: [r66-24485-managemycontacts2v6 bk]
2020-04-18 16:40:16 INFO  20191127090944937:2749 - End of deleting Prevalidation Label Auto Rejection Scheduled job
2020-04-18 17:10:08 INFO  20191127090944937:2741 - Process started for deleting Prevalidation Label Auto Rejection Scheduled job: [r66-24485-managemycontacts2v6 bk]
2020-04-18 17:10:08 INFO  20191127090944937:2749 - End of deleting Prevalidation Label Auto Rejection Scheduled job
2020-04-18 18:43:10 INFO  20191127090944937:2741 - Process started for deleting Prevalidation Label Auto Rejection Scheduled job: [r66-24485-managemycontacts2v6 bk]
2020-04-18 18:43:10 INFO  20191127090944937:2749 - End of deleting Prevalidation Label Auto Rejection Scheduled job
2020-04-20 16:33:04 INFO  20191127090944937:2741 - Process started for deleting Prevalidation Label Auto Rejection Scheduled job: [r66-24485-managemycontacts2v6 bk]
2020-04-20 16:33:04 INFO  20191127090944937:2749 - End of deleting Prevalidation Label Auto Rejection Scheduled job
2020-04-21 17:44:58 INFO  20191127090944937:2741 - Process started for deleting Prevalidation Label Auto Rejection Scheduled job: [r66-24485-managemycontacts2v6 bk]
2020-04-21 17:44:58 INFO  20191127090944937:2749 - End of deleting Prevalidation Label Auto Rejection Scheduled job
2020-04-21 17:58:15 INFO  20191127090944937:2741 - Process started for deleting Prevalidation Label Auto Rejection Scheduled job: [r66-24485-managemycontacts2v6 bk]
2020-04-21 17:58:15 INFO  20191127090944937:2749 - End of deleting Prevalidation Label Auto Rejection Scheduled job
2020-04-21 18:06:04 INFO  20191127090944937:2741 - Process started for deleting Prevalidation Label Auto Rejection Scheduled job: [r66-24485-managemycontacts2v6 bk]
2020-04-21 18:06:04 INFO  20191127090944937:2749 - End of deleting Prevalidation Label Auto Rejection Scheduled job
