2020-04-18 16:40:16 INFO  20191217070723889:2741 - Process started for deleting Prevalidation Label Auto Rejection Scheduled job: [r67_us_27143_pr_1217_v5]
2020-04-18 16:40:16 INFO  20191217070723889:2749 - End of deleting Prevalidation Label Auto Rejection Scheduled job
2020-04-18 17:10:08 INFO  20191217070723889:2741 - Process started for deleting Prevalidation Label Auto Rejection Scheduled job: [r67_us_27143_pr_1217_v5]
2020-04-18 17:10:08 INFO  20191217070723889:2749 - End of deleting Prevalidation Label Auto Rejection Scheduled job
2020-04-18 18:43:11 INFO  20191217070723889:2741 - Process started for deleting Prevalidation Label Auto Rejection Scheduled job: [r67_us_27143_pr_1217_v5]
2020-04-18 18:43:11 INFO  20191217070723889:2749 - End of deleting Prevalidation Label Auto Rejection Scheduled job
2020-04-20 16:33:06 INFO  20191217070723889:2741 - Process started for deleting Prevalidation Label Auto Rejection Scheduled job: [r67_us_27143_pr_1217_v5]
2020-04-20 16:33:06 INFO  20191217070723889:2749 - End of deleting Prevalidation Label Auto Rejection Scheduled job
2020-04-21 17:45:00 INFO  20191217070723889:2741 - Process started for deleting Prevalidation Label Auto Rejection Scheduled job: [r67_us_27143_pr_1217_v5]
2020-04-21 17:45:00 INFO  20191217070723889:2749 - End of deleting Prevalidation Label Auto Rejection Scheduled job
2020-04-21 17:58:16 INFO  20191217070723889:2741 - Process started for deleting Prevalidation Label Auto Rejection Scheduled job: [r67_us_27143_pr_1217_v5]
2020-04-21 17:58:16 INFO  20191217070723889:2749 - End of deleting Prevalidation Label Auto Rejection Scheduled job
2020-04-21 18:06:04 INFO  20191217070723889:2741 - Process started for deleting Prevalidation Label Auto Rejection Scheduled job: [r67_us_27143_pr_1217_v5]
2020-04-21 18:06:04 INFO  20191217070723889:2749 - End of deleting Prevalidation Label Auto Rejection Scheduled job
