2020-04-18 16:40:16 INFO  20200116060929996:2741 - Process started for deleting Prevalidation Label Auto Rejection Scheduled job: [r68_22912_sa_643998_v3]
2020-04-18 16:40:16 INFO  20200116060929996:2749 - End of deleting Prevalidation Label Auto Rejection Scheduled job
2020-04-18 17:10:08 INFO  20200116060929996:2741 - Process started for deleting Prevalidation Label Auto Rejection Scheduled job: [r68_22912_sa_643998_v3]
2020-04-18 17:10:08 INFO  20200116060929996:2749 - End of deleting Prevalidation Label Auto Rejection Scheduled job
2020-04-18 18:43:12 INFO  20200116060929996:2741 - Process started for deleting Prevalidation Label Auto Rejection Scheduled job: [r68_22912_sa_643998_v3]
2020-04-18 18:43:12 INFO  20200116060929996:2749 - End of deleting Prevalidation Label Auto Rejection Scheduled job
2020-04-20 16:33:07 INFO  20200116060929996:2741 - Process started for deleting Prevalidation Label Auto Rejection Scheduled job: [r68_22912_sa_643998_v3]
2020-04-20 16:33:07 INFO  20200116060929996:2749 - End of deleting Prevalidation Label Auto Rejection Scheduled job
2020-04-21 17:45:00 INFO  20200116060929996:2741 - Process started for deleting Prevalidation Label Auto Rejection Scheduled job: [r68_22912_sa_643998_v3]
2020-04-21 17:45:00 INFO  20200116060929996:2749 - End of deleting Prevalidation Label Auto Rejection Scheduled job
2020-04-21 17:58:16 INFO  20200116060929996:2741 - Process started for deleting Prevalidation Label Auto Rejection Scheduled job: [r68_22912_sa_643998_v3]
2020-04-21 17:58:16 INFO  20200116060929996:2749 - End of deleting Prevalidation Label Auto Rejection Scheduled job
2020-04-21 18:06:04 INFO  20200116060929996:2741 - Process started for deleting Prevalidation Label Auto Rejection Scheduled job: [r68_22912_sa_643998_v3]
2020-04-21 18:06:04 INFO  20200116060929996:2749 - End of deleting Prevalidation Label Auto Rejection Scheduled job
