2020-04-18 16:40:16 INFO  20200207171518654:2741 - Process started for deleting Prevalidation Label Auto Rejection Scheduled job: [r68 - case 16224 25893 - uat fix - ae - cn]
2020-04-18 16:40:16 INFO  20200207171518654:2749 - End of deleting Prevalidation Label Auto Rejection Scheduled job
2020-04-18 17:10:08 INFO  20200207171518654:2741 - Process started for deleting Prevalidation Label Auto Rejection Scheduled job: [r68 - case 16224 25893 - uat fix - ae - cn]
2020-04-18 17:10:08 INFO  20200207171518654:2749 - End of deleting Prevalidation Label Auto Rejection Scheduled job
2020-04-18 18:43:11 INFO  20200207171518654:2741 - Process started for deleting Prevalidation Label Auto Rejection Scheduled job: [r68 - case 16224 25893 - uat fix - ae - cn]
2020-04-18 18:43:11 INFO  20200207171518654:2749 - End of deleting Prevalidation Label Auto Rejection Scheduled job
2020-04-20 16:33:06 INFO  20200207171518654:2741 - Process started for deleting Prevalidation Label Auto Rejection Scheduled job: [r68 - case 16224 25893 - uat fix - ae - cn]
2020-04-20 16:33:06 INFO  20200207171518654:2749 - End of deleting Prevalidation Label Auto Rejection Scheduled job
2020-04-21 17:45:00 INFO  20200207171518654:2741 - Process started for deleting Prevalidation Label Auto Rejection Scheduled job: [r68 - case 16224 25893 - uat fix - ae - cn]
2020-04-21 17:45:00 INFO  20200207171518654:2749 - End of deleting Prevalidation Label Auto Rejection Scheduled job
2020-04-21 17:58:16 INFO  20200207171518654:2741 - Process started for deleting Prevalidation Label Auto Rejection Scheduled job: [r68 - case 16224 25893 - uat fix - ae - cn]
2020-04-21 17:58:16 INFO  20200207171518654:2749 - End of deleting Prevalidation Label Auto Rejection Scheduled job
2020-04-21 18:06:04 INFO  20200207171518654:2741 - Process started for deleting Prevalidation Label Auto Rejection Scheduled job: [r68 - case 16224 25893 - uat fix - ae - cn]
2020-04-21 18:06:04 INFO  20200207171518654:2749 - End of deleting Prevalidation Label Auto Rejection Scheduled job
