2020-04-18 16:40:16 INFO  20200127125731006:2741 - Process started for deleting Prevalidation Label Auto Rejection Scheduled job: [r68_us_653297_case_00026541_fn_mk_v4]
2020-04-18 16:40:16 INFO  20200127125731006:2749 - End of deleting Prevalidation Label Auto Rejection Scheduled job
2020-04-18 17:10:08 INFO  20200127125731006:2741 - Process started for deleting Prevalidation Label Auto Rejection Scheduled job: [r68_us_653297_case_00026541_fn_mk_v4]
2020-04-18 17:10:08 INFO  20200127125731006:2749 - End of deleting Prevalidation Label Auto Rejection Scheduled job
2020-04-18 18:43:12 INFO  20200127125731006:2741 - Process started for deleting Prevalidation Label Auto Rejection Scheduled job: [r68_us_653297_case_00026541_fn_mk_v4]
2020-04-18 18:43:12 INFO  20200127125731006:2749 - End of deleting Prevalidation Label Auto Rejection Scheduled job
2020-04-20 16:33:07 INFO  20200127125731006:2741 - Process started for deleting Prevalidation Label Auto Rejection Scheduled job: [r68_us_653297_case_00026541_fn_mk_v4]
2020-04-20 16:33:07 INFO  20200127125731006:2749 - End of deleting Prevalidation Label Auto Rejection Scheduled job
2020-04-21 17:45:00 INFO  20200127125731006:2741 - Process started for deleting Prevalidation Label Auto Rejection Scheduled job: [r68_us_653297_case_00026541_fn_mk_v4]
2020-04-21 17:45:00 INFO  20200127125731006:2749 - End of deleting Prevalidation Label Auto Rejection Scheduled job
2020-04-21 17:58:16 INFO  20200127125731006:2741 - Process started for deleting Prevalidation Label Auto Rejection Scheduled job: [r68_us_653297_case_00026541_fn_mk_v4]
2020-04-21 17:58:16 INFO  20200127125731006:2749 - End of deleting Prevalidation Label Auto Rejection Scheduled job
2020-04-21 18:06:04 INFO  20200127125731006:2741 - Process started for deleting Prevalidation Label Auto Rejection Scheduled job: [r68_us_653297_case_00026541_fn_mk_v4]
2020-04-21 18:06:04 INFO  20200127125731006:2749 - End of deleting Prevalidation Label Auto Rejection Scheduled job
