2020-04-18 16:40:16 INFO  20200212163227269:2741 - Process started for deleting Prevalidation Label Auto Rejection Scheduled job: [r69-655763-25601-sp-str-v5]
2020-04-18 16:40:16 INFO  20200212163227269:2749 - End of deleting Prevalidation Label Auto Rejection Scheduled job
2020-04-18 17:10:08 INFO  20200212163227269:2741 - Process started for deleting Prevalidation Label Auto Rejection Scheduled job: [r69-655763-25601-sp-str-v5]
2020-04-18 17:10:08 INFO  20200212163227269:2749 - End of deleting Prevalidation Label Auto Rejection Scheduled job
2020-04-18 18:43:12 INFO  20200212163227269:2741 - Process started for deleting Prevalidation Label Auto Rejection Scheduled job: [r69-655763-25601-sp-str-v5]
2020-04-18 18:43:12 INFO  20200212163227269:2749 - End of deleting Prevalidation Label Auto Rejection Scheduled job
2020-04-20 16:33:07 INFO  20200212163227269:2741 - Process started for deleting Prevalidation Label Auto Rejection Scheduled job: [r69-655763-25601-sp-str-v5]
2020-04-20 16:33:07 INFO  20200212163227269:2749 - End of deleting Prevalidation Label Auto Rejection Scheduled job
2020-04-21 17:45:00 INFO  20200212163227269:2741 - Process started for deleting Prevalidation Label Auto Rejection Scheduled job: [r69-655763-25601-sp-str-v5]
2020-04-21 17:45:00 INFO  20200212163227269:2749 - End of deleting Prevalidation Label Auto Rejection Scheduled job
2020-04-21 17:58:17 INFO  20200212163227269:2741 - Process started for deleting Prevalidation Label Auto Rejection Scheduled job: [r69-655763-25601-sp-str-v5]
2020-04-21 17:58:17 INFO  20200212163227269:2749 - End of deleting Prevalidation Label Auto Rejection Scheduled job
2020-04-21 18:06:04 INFO  20200212163227269:2741 - Process started for deleting Prevalidation Label Auto Rejection Scheduled job: [r69-655763-25601-sp-str-v5]
2020-04-21 18:06:04 INFO  20200212163227269:2749 - End of deleting Prevalidation Label Auto Rejection Scheduled job
