2020-04-18 16:40:17 INFO  20200411043425261:2741 - Process started for deleting Prevalidation Label Auto Rejection Scheduled job: [r71_27281_us_686845_fc_0411]
2020-04-18 16:40:17 INFO  20200411043425261:2749 - End of deleting Prevalidation Label Auto Rejection Scheduled job
2020-04-18 17:10:08 INFO  20200411043425261:2741 - Process started for deleting Prevalidation Label Auto Rejection Scheduled job: [r71_27281_us_686845_fc_0411]
2020-04-18 17:10:08 INFO  20200411043425261:2749 - End of deleting Prevalidation Label Auto Rejection Scheduled job
2020-04-18 18:43:13 INFO  20200411043425261:2741 - Process started for deleting Prevalidation Label Auto Rejection Scheduled job: [r71_27281_us_686845_fc_0411]
2020-04-18 18:43:13 INFO  20200411043425261:2749 - End of deleting Prevalidation Label Auto Rejection Scheduled job
2020-04-20 16:33:07 INFO  20200411043425261:2741 - Process started for deleting Prevalidation Label Auto Rejection Scheduled job: [r71_27281_us_686845_fc_0411]
2020-04-20 16:33:07 INFO  20200411043425261:2749 - End of deleting Prevalidation Label Auto Rejection Scheduled job
2020-04-21 17:45:01 INFO  20200411043425261:2741 - Process started for deleting Prevalidation Label Auto Rejection Scheduled job: [r71_27281_us_686845_fc_0411]
2020-04-21 17:45:01 INFO  20200411043425261:2749 - End of deleting Prevalidation Label Auto Rejection Scheduled job
2020-04-21 17:58:17 INFO  20200411043425261:2741 - Process started for deleting Prevalidation Label Auto Rejection Scheduled job: [r71_27281_us_686845_fc_0411]
2020-04-21 17:58:17 INFO  20200411043425261:2749 - End of deleting Prevalidation Label Auto Rejection Scheduled job
2020-04-21 18:06:04 INFO  20200411043425261:2741 - Process started for deleting Prevalidation Label Auto Rejection Scheduled job: [r71_27281_us_686845_fc_0411]
2020-04-21 18:06:04 INFO  20200411043425261:2749 - End of deleting Prevalidation Label Auto Rejection Scheduled job
