2020-04-18 16:40:20 INFO  20200410155610672:2741 - Process started for deleting Prevalidation Label Auto Rejection Scheduled job: [s10_us-12345_as_v1]
2020-04-18 16:40:20 INFO  20200410155610672:2749 - End of deleting Prevalidation Label Auto Rejection Scheduled job
2020-04-18 17:10:08 INFO  20200410155610672:2741 - Process started for deleting Prevalidation Label Auto Rejection Scheduled job: [s10_us-12345_as_v1]
2020-04-18 17:10:08 INFO  20200410155610672:2749 - End of deleting Prevalidation Label Auto Rejection Scheduled job
2020-04-18 18:43:13 INFO  20200410155610672:2741 - Process started for deleting Prevalidation Label Auto Rejection Scheduled job: [s10_us-12345_as_v1]
2020-04-18 18:43:13 INFO  20200410155610672:2749 - End of deleting Prevalidation Label Auto Rejection Scheduled job
2020-04-20 16:33:07 INFO  20200410155610672:2741 - Process started for deleting Prevalidation Label Auto Rejection Scheduled job: [s10_us-12345_as_v1]
2020-04-20 16:33:07 INFO  20200410155610672:2749 - End of deleting Prevalidation Label Auto Rejection Scheduled job
2020-04-21 17:45:01 INFO  20200410155610672:2741 - Process started for deleting Prevalidation Label Auto Rejection Scheduled job: [s10_us-12345_as_v1]
2020-04-21 17:45:01 INFO  20200410155610672:2749 - End of deleting Prevalidation Label Auto Rejection Scheduled job
2020-04-21 17:58:17 INFO  20200410155610672:2741 - Process started for deleting Prevalidation Label Auto Rejection Scheduled job: [s10_us-12345_as_v1]
2020-04-21 17:58:17 INFO  20200410155610672:2749 - End of deleting Prevalidation Label Auto Rejection Scheduled job
2020-04-21 18:06:05 INFO  20200410155610672:2741 - Process started for deleting Prevalidation Label Auto Rejection Scheduled job: [s10_us-12345_as_v1]
2020-04-21 18:06:05 INFO  20200410155610672:2749 - End of deleting Prevalidation Label Auto Rejection Scheduled job
