2020-04-18 16:40:20 INFO  20200418164020230:2741 - Process started for deleting Prevalidation Label Auto Rejection Scheduled job: [test commit ci]
2020-04-18 16:40:20 INFO  20200418164020230:2749 - End of deleting Prevalidation Label Auto Rejection Scheduled job
2020-04-18 17:10:08 INFO  20200418171008952:2741 - Process started for deleting Prevalidation Label Auto Rejection Scheduled job: [test commit ci]
2020-04-18 17:10:08 INFO  20200418171008952:2749 - End of deleting Prevalidation Label Auto Rejection Scheduled job
2020-04-18 18:43:13 INFO  20200418184313146:2741 - Process started for deleting Prevalidation Label Auto Rejection Scheduled job: [test commit ci]
2020-04-18 18:43:13 INFO  20200418184313146:2749 - End of deleting Prevalidation Label Auto Rejection Scheduled job
2020-04-20 16:33:07 INFO  20200420163307759:2741 - Process started for deleting Prevalidation Label Auto Rejection Scheduled job: [test commit ci]
2020-04-20 16:33:07 INFO  20200420163307759:2749 - End of deleting Prevalidation Label Auto Rejection Scheduled job
2020-04-21 17:45:01 INFO  20200421174501680:2741 - Process started for deleting Prevalidation Label Auto Rejection Scheduled job: [test commit ci]
2020-04-21 17:45:01 INFO  20200421174501680:2749 - End of deleting Prevalidation Label Auto Rejection Scheduled job
2020-04-21 17:58:17 INFO  20200421175817431:2741 - Process started for deleting Prevalidation Label Auto Rejection Scheduled job: [test commit ci]
2020-04-21 17:58:17 INFO  20200421175817431:2749 - End of deleting Prevalidation Label Auto Rejection Scheduled job
2020-04-21 18:06:05 INFO  20200421180605029:2741 - Process started for deleting Prevalidation Label Auto Rejection Scheduled job: [test commit ci]
2020-04-21 18:06:05 INFO  20200421180605029:2749 - End of deleting Prevalidation Label Auto Rejection Scheduled job
