2020-04-18 16:40:20 INFO  20180920170548591:2741 - Process started for deleting Prevalidation Label Auto Rejection Scheduled job: [test opp layout revert]
2020-04-18 16:40:20 INFO  20180920170548591:2749 - End of deleting Prevalidation Label Auto Rejection Scheduled job
2020-04-18 17:10:08 INFO  20180920170548591:2741 - Process started for deleting Prevalidation Label Auto Rejection Scheduled job: [test opp layout revert]
2020-04-18 17:10:08 INFO  20180920170548591:2749 - End of deleting Prevalidation Label Auto Rejection Scheduled job
2020-04-18 18:43:13 INFO  20180920170548591:2741 - Process started for deleting Prevalidation Label Auto Rejection Scheduled job: [test opp layout revert]
2020-04-18 18:43:13 INFO  20180920170548591:2749 - End of deleting Prevalidation Label Auto Rejection Scheduled job
2020-04-20 16:33:07 INFO  20180920170548591:2741 - Process started for deleting Prevalidation Label Auto Rejection Scheduled job: [test opp layout revert]
2020-04-20 16:33:07 INFO  20180920170548591:2749 - End of deleting Prevalidation Label Auto Rejection Scheduled job
2020-04-21 17:45:01 INFO  20180920170548591:2741 - Process started for deleting Prevalidation Label Auto Rejection Scheduled job: [test opp layout revert]
2020-04-21 17:45:01 INFO  20180920170548591:2749 - End of deleting Prevalidation Label Auto Rejection Scheduled job
2020-04-21 17:58:17 INFO  20180920170548591:2741 - Process started for deleting Prevalidation Label Auto Rejection Scheduled job: [test opp layout revert]
2020-04-21 17:58:17 INFO  20180920170548591:2749 - End of deleting Prevalidation Label Auto Rejection Scheduled job
2020-04-21 18:06:05 INFO  20180920170548591:2741 - Process started for deleting Prevalidation Label Auto Rejection Scheduled job: [test opp layout revert]
2020-04-21 18:06:05 INFO  20180920170548591:2749 - End of deleting Prevalidation Label Auto Rejection Scheduled job
