2020-04-15 23:11:46 INFO  1586972495142_429:342 - Package manifest on scm preparation started
2020-04-15 23:11:46 INFO  1586972495142_429:407 - Retrieving data from scm was started.
2020-04-15 23:11:46 INFO  1586972495142_429:196 - SCM URL : https://bitbucket.org/bitbucketrenuka/renuka-repo.git
2020-04-15 23:11:46 INFO  1586972495142_429:727 - OrgName : autorabit.com-PmkSJi Executing custom API
2020-04-15 23:11:48 INFO  1586972495142_429:60 - 20042c280a63607b627a45d2f5b1eec701756abe	HEAD
2020-04-15 23:11:48 INFO  1586972495142_429:60 - abd22844f501d9d62936652a87e35a41b6110f8e	refs/heads/ABC
2020-04-15 23:11:48 INFO  1586972495142_429:60 - efe2f9a8dfefb655b4294caa2a45983d686b3e99	refs/heads/Branch1
2020-04-15 23:11:48 INFO  1586972495142_429:60 - 2d417d8db8a0e1c90bbb8626647dff41589e4b1f	refs/heads/Branch2
2020-04-15 23:11:48 INFO  1586972495142_429:60 - 22a0e074309a53b38a6c4ad85f6f028192e7b284	refs/heads/Branch3
2020-04-15 23:11:48 INFO  1586972495142_429:60 - ee1568e94859d6d8cb537700cef7702503dd55e2	refs/heads/Testbranch
2020-04-15 23:11:48 INFO  1586972495142_429:60 - f3f7c14b094461cef2f0016059f5b01f7671eb95	refs/heads/devclone
2020-04-15 23:11:48 INFO  1586972495142_429:60 - a50aa1764f2fb11c91c12b436c9f3ad25b11a4f1	refs/heads/development
2020-04-15 23:11:48 INFO  1586972495142_429:60 - 20042c280a63607b627a45d2f5b1eec701756abe	refs/heads/master
2020-04-15 23:11:48 INFO  1586972495142_429:60 - 60de9c2f0d89310e94a56254319d842b7525b729	refs/remotes/origin/ABC
2020-04-15 23:11:48 INFO  1586972495142_429:60 - 2d7f04a1f611120feb06c65c9e4a34626b99a856	refs/remotes/origin/Branch1
2020-04-15 23:11:48 INFO  1586972495142_429:60 - 7ff810fa60f95c3cfe16bd42324b99d87aeaa3f9	refs/remotes/origin/Branch2
2020-04-15 23:11:48 INFO  1586972495142_429:60 - c1d1ee5be7093496f44439f46944dd8a8a5a314d	refs/remotes/origin/Branch3
2020-04-15 23:11:48 INFO  1586972495142_429:60 - 96b92b0a31be915a112bd5b34352a3ea53d20cbe	refs/remotes/origin/Testbranch
2020-04-15 23:11:48 INFO  1586972495142_429:60 - 68fa3d17b009cef1d8e8dabbef5ca3d6b289e33a	refs/remotes/origin/devclone
2020-04-15 23:11:48 INFO  1586972495142_429:60 - 9c51360171e3700477bade584dc3a178e749f9e2	refs/remotes/origin/development
2020-04-15 23:11:48 INFO  1586972495142_429:60 - 70dad6490b2c0a61b4442e542520a88660cb1fbd	refs/remotes/origin/master
2020-04-15 23:11:48 INFO  1586972495142_429:1358 - OrgName : autorabit.com-PmkSJi Executing custom API
2020-04-15 23:11:48 INFO  1586972495142_429:616 - Executing the following command : [Ljava.lang.String;@45f4380b
2020-04-15 23:11:50 INFO  1586972495142_429:511 - Started the checkout.
2020-04-15 23:11:50 INFO  1586972495142_429:513 - AR-Debug::  Checkout start time: Wed Apr 15 23:11:50 IST 2020
2020-04-15 23:11:50 INFO  1586972495142_429:196 - SCM URL : https://bitbucket.org/bitbucketrenuka/renuka-repo.git
2020-04-15 23:11:50 INFO  1586972495142_429:727 - OrgName : autorabit.com-PmkSJi Executing custom API
2020-04-15 23:11:53 INFO  1586972495142_429:60 - 20042c280a63607b627a45d2f5b1eec701756abe	HEAD
2020-04-15 23:11:53 INFO  1586972495142_429:60 - abd22844f501d9d62936652a87e35a41b6110f8e	refs/heads/ABC
2020-04-15 23:11:53 INFO  1586972495142_429:60 - efe2f9a8dfefb655b4294caa2a45983d686b3e99	refs/heads/Branch1
2020-04-15 23:11:53 INFO  1586972495142_429:60 - 2d417d8db8a0e1c90bbb8626647dff41589e4b1f	refs/heads/Branch2
2020-04-15 23:11:53 INFO  1586972495142_429:60 - 22a0e074309a53b38a6c4ad85f6f028192e7b284	refs/heads/Branch3
2020-04-15 23:11:53 INFO  1586972495142_429:60 - ee1568e94859d6d8cb537700cef7702503dd55e2	refs/heads/Testbranch
2020-04-15 23:11:53 INFO  1586972495142_429:60 - f3f7c14b094461cef2f0016059f5b01f7671eb95	refs/heads/devclone
2020-04-15 23:11:53 INFO  1586972495142_429:60 - a50aa1764f2fb11c91c12b436c9f3ad25b11a4f1	refs/heads/development
2020-04-15 23:11:53 INFO  1586972495142_429:60 - 20042c280a63607b627a45d2f5b1eec701756abe	refs/heads/master
2020-04-15 23:11:53 INFO  1586972495142_429:60 - 60de9c2f0d89310e94a56254319d842b7525b729	refs/remotes/origin/ABC
2020-04-15 23:11:53 INFO  1586972495142_429:60 - 2d7f04a1f611120feb06c65c9e4a34626b99a856	refs/remotes/origin/Branch1
2020-04-15 23:11:53 INFO  1586972495142_429:60 - 7ff810fa60f95c3cfe16bd42324b99d87aeaa3f9	refs/remotes/origin/Branch2
2020-04-15 23:11:53 INFO  1586972495142_429:60 - c1d1ee5be7093496f44439f46944dd8a8a5a314d	refs/remotes/origin/Branch3
2020-04-15 23:11:53 INFO  1586972495142_429:60 - 96b92b0a31be915a112bd5b34352a3ea53d20cbe	refs/remotes/origin/Testbranch
2020-04-15 23:11:53 INFO  1586972495142_429:60 - 68fa3d17b009cef1d8e8dabbef5ca3d6b289e33a	refs/remotes/origin/devclone
2020-04-15 23:11:53 INFO  1586972495142_429:60 - 9c51360171e3700477bade584dc3a178e749f9e2	refs/remotes/origin/development
2020-04-15 23:11:53 INFO  1586972495142_429:60 - 70dad6490b2c0a61b4442e542520a88660cb1fbd	refs/remotes/origin/master
2020-04-15 23:11:53 INFO  1586972495142_429:1358 - OrgName : autorabit.com-PmkSJi Executing custom API
2020-04-15 23:11:53 INFO  1586972495142_429:616 - Executing the following command : [Ljava.lang.String;@7322eff8
2020-04-15 23:11:55 INFO  1586972495142_429:1407 - Executing custom API
2020-04-15 23:11:55 INFO  1586972495142_429:1000 - AR-Debug::  Checkout dir deletion started.
2020-04-15 23:11:55 INFO  1586972495142_429:1002 - AR-Debug::  Checkout dir deletion completed.
2020-04-15 23:11:55 INFO  1586972495142_429:1004 - AR-Debug::  Master checkout started copying.
2020-04-15 23:11:56 INFO  1586972495142_429:1006 - AR-Debug::  Master checkout successfully completed.
2020-04-15 23:11:56 INFO  1586972495142_429:1407 - Executing custom API
2020-04-15 23:11:56 INFO  1586972495142_429:1241 - Executing custom API
2020-04-15 23:11:56 INFO  1586972495142_429:1246 - OrgName : autorabit.com-PmkSJiSame remote url found. Updating working copy.
2020-04-15 23:11:56 INFO  1586972495142_429:1315 - Fetching remote branches.
2020-04-15 23:11:56 INFO  1586972495142_429:1317 - Executing custom API
2020-04-15 23:11:56 INFO  1586972495142_429:60 - Fetching origin
2020-04-15 23:11:58 INFO  1586972495142_429:180 - Fetch result : 0
2020-04-15 23:11:58 INFO  1586972495142_429:1269 - OrgName : autorabit.com-PmkSJiUpdating head refs
2020-04-15 23:11:58 INFO  1586972495142_429:1274 - OrgName : autorabit.com-PmkSJi Executing custom API
2020-04-15 23:12:01 WARN  1586972495142_429:60 - From https://bitbucket.org/bitbucketrenuka/renuka-repo
2020-04-15 23:12:01 WARN  1586972495142_429:60 -  * branch            master     -> FETCH_HEAD
2020-04-15 23:12:01 INFO  1586972495142_429:60 - Already up to date.
2020-04-15 23:12:01 INFO  1586972495142_429:152 - pull result : 0
2020-04-15 23:12:01 INFO  1586972495142_429:1013 - AR-Debug::  Checkout to specific revision started.
2020-04-15 23:12:01 INFO  1586972495142_429:312 - Switching the revision: Branch1
2020-04-15 23:12:01 INFO  1586972495142_429:324 - Orgname : autorabit.com-PmkSJiCheckout Revision is : AbbreviatedObjectId[20042c2]
2020-04-15 23:12:01 INFO  1586972495142_429:1017 - AR-Debug::  Checkout to specific revision completed.
2020-04-15 23:12:01 INFO  1586972495142_429:1407 - Executing custom API
2020-04-15 23:12:01 INFO  1586972495142_429:1036 - Working copy already exists. Updating the working copy
2020-04-15 23:12:01 INFO  1586972495142_429:1241 - Executing custom API
2020-04-15 23:12:01 INFO  1586972495142_429:1246 - OrgName : autorabit.com-PmkSJiSame remote url found. Updating working copy.
2020-04-15 23:12:01 INFO  1586972495142_429:1315 - Fetching remote branches.
2020-04-15 23:12:01 INFO  1586972495142_429:1317 - Executing custom API
2020-04-15 23:12:01 INFO  1586972495142_429:60 - Fetching origin
2020-04-15 23:12:04 INFO  1586972495142_429:180 - Fetch result : 0
2020-04-15 23:12:04 INFO  1586972495142_429:1269 - OrgName : autorabit.com-PmkSJiUpdating head refs
2020-04-15 23:12:06 INFO  1586972495142_429:1274 - OrgName : autorabit.com-PmkSJi Executing custom API
2020-04-15 23:12:08 WARN  1586972495142_429:60 - From https://bitbucket.org/bitbucketrenuka/renuka-repo
2020-04-15 23:12:08 WARN  1586972495142_429:60 -  * branch            Branch1    -> FETCH_HEAD
2020-04-15 23:12:08 INFO  1586972495142_429:60 - Already up to date.
2020-04-15 23:12:08 INFO  1586972495142_429:152 - pull result : 0
2020-04-15 23:12:08 INFO  1586972495142_429:517 - AR-Debug::  Checkout end time: Wed Apr 15 23:12:08 IST 2020
2020-04-15 23:12:08 INFO  1586972495142_429:518 - Total checkout time in sec: 17
2020-04-15 23:12:08 INFO  1586972495142_429:523 - Checkout process has been completed.
2020-04-15 23:12:08 INFO  1586972495142_429:536 - Generating the change list.
2020-04-15 23:12:08 INFO  1586972495142_429:510 - OrgName : autorabit.com-PmkSJiFrom Revision : 0c2851c To Revision : 0c2851c
2020-04-15 23:12:08 INFO  1586972495142_429:517 - OrgName : autorabit.com-PmkSJiRevision numbers are same so getting complete log and filtering.
2020-04-15 23:12:08 INFO  1586972495142_429:1358 - OrgName : autorabit.com-PmkSJi Executing custom API
2020-04-15 23:12:08 INFO  1586972495142_429:616 - Executing the following command : [Ljava.lang.String;@367d0be1
2020-04-15 23:12:10 INFO  1586972495142_429:3420 - SCM log generated for processing changes.
2020-04-15 23:12:10 INFO  1586972495142_429:538 - Generated the change list.
2020-04-15 23:12:10 INFO  1586972495142_429:540 - AR-Debug::  Total change list preparation time: 2
2020-04-15 23:12:10 INFO  1586972495142_429:541 - Switching to revision 0c2851c
2020-04-15 23:12:10 INFO  1586972495142_429:312 - Switching the revision: 0c2851c
2020-04-15 23:12:10 INFO  1586972495142_429:318 - Resetting the repository to head and switching it to specific revision.
2020-04-15 23:12:11 INFO  1586972495142_429:543 - Switched to revision 0c2851c
2020-04-15 23:12:45 INFO  1586972495142_429:2811 - Copying files to custom deploy
2020-04-15 23:12:45 INFO  1586972495142_429:2819 - AR-Debug::  package filename: objects/Track__c.object
2020-04-15 23:12:45 INFO  1586972495142_429:2821 - AR-Debug::  package cpFile: D:\filesystem\193\rabit\.rabit\org\autorabit.com-PmkSJi\metadatatemp\rajashekar.j1@autorabit.com\teaat\source\checkout\objects\Track__c.object
2020-04-15 23:12:47 INFO  1586972495142_429:312 - Switching the revision: 3524b5e0f63f1ffdc27d64b04dd62598053af9f8
2020-04-15 23:12:47 INFO  1586972495142_429:318 - Resetting the repository to head and switching it to specific revision.
2020-04-15 23:12:47 INFO  1586972495142_429:693 - Changed files count : 1
2020-04-15 23:13:27 INFO  1586972495142_429:779 - Destructive Members count : 2
2020-04-15 23:13:27 INFO  1586972495142_429:781 - Adding 0 CustomField for destructive
2020-04-15 23:13:27 INFO  1586972495142_429:781 - Adding 0 ListView for destructive
2020-04-15 23:13:27 INFO  1586972495142_429:572 - Destructive members : 2
2020-04-15 23:13:27 INFO  1586972495142_429:550 - Package manifest prepared successfully.
2020-04-15 23:13:28 INFO  1586972495142_429:417 - Retrieving data from scm completed.
