2020-03-11 18:23:05 INFO  1583931185481_467:172 - Deploy request received
2020-03-11 18:23:05 INFO  1583931185481_467:490 - Ignore missing visibility settings: false
2020-03-11 18:23:05 INFO  1583931185481_467:491 - Removing the userPermissions: false
2020-03-11 18:23:05 INFO  1583931185481_467:492 - Removing the IpRanegs: false
2020-03-11 18:23:05 INFO  1583931185481_467:493 - Removing the Skip Members: false
2020-03-11 18:23:05 INFO  1583931185481_467:494 - Is Search and Substitute configured: false
2020-03-11 18:23:05 INFO  1583931185481_467:536 - Search and Substitute is not configured.
2020-03-11 18:23:05 INFO  1583931185481_467:584 - Deployment files preparing started.
2020-03-11 18:23:05 INFO  1583931185481_467:655 - Deployment issues not configured.
2020-03-11 18:23:05 INFO  1583931185481_467:724 - SCA not configured.
2020-03-11 18:23:05 INFO  1583931185481_467:147 - Depolyment process started
2020-03-11 18:23:06 INFO  1583931185481_467:203 - Deployment request has been invoked.
2020-03-11 18:23:07 INFO  1583931185481_467:208 - Deployment request sent with Async Request Id: 0Af2w00000ACP8cCAH
2020-03-11 18:23:08 INFO  1583931185481_467:240 - Deployment request invoked, Kindly wait for completion.
2020-03-11 18:23:15 INFO  1583931185481_467:566 - Metadata was successfully deployed.
2020-03-11 18:23:17 INFO  1583931185481_467:681 - *********** DEPLOYMENT SUCCEEDED ***********
2020-03-11 18:23:17 INFO  1583931185481_467:682 - Finished request 0Af2w00000ACP8cCAH successfully.
2020-03-11 18:23:17 INFO  1583931185481_467:763 - Component successes count : 1
2020-03-11 18:23:17 INFO  1583931185481_467:686 - *********** DEPLOYMENT SUCCEEDED ***********
2020-03-11 18:23:17 INFO  1583931185481_467:734 - Deployment request processed successfully.
