2020-04-18 16:39:41 INFO  20190627213435879:2741 - Process started for deleting Prevalidation Label Auto Rejection Scheduled job: [c-1511-sstratusdev-bstratusdev-v1]
2020-04-18 16:39:41 INFO  20190627213435879:2749 - End of deleting Prevalidation Label Auto Rejection Scheduled job
2020-04-18 17:10:00 INFO  20190627213435879:2741 - Process started for deleting Prevalidation Label Auto Rejection Scheduled job: [c-1511-sstratusdev-bstratusdev-v1]
2020-04-18 17:10:00 INFO  20190627213435879:2749 - End of deleting Prevalidation Label Auto Rejection Scheduled job
2020-04-18 18:42:11 INFO  20190627213435879:2741 - Process started for deleting Prevalidation Label Auto Rejection Scheduled job: [c-1511-sstratusdev-bstratusdev-v1]
2020-04-18 18:42:11 INFO  20190627213435879:2749 - End of deleting Prevalidation Label Auto Rejection Scheduled job
2020-04-20 16:31:57 INFO  20190627213435879:2741 - Process started for deleting Prevalidation Label Auto Rejection Scheduled job: [c-1511-sstratusdev-bstratusdev-v1]
2020-04-20 16:31:57 INFO  20190627213435879:2749 - End of deleting Prevalidation Label Auto Rejection Scheduled job
2020-04-21 17:43:00 INFO  20190627213435879:2741 - Process started for deleting Prevalidation Label Auto Rejection Scheduled job: [c-1511-sstratusdev-bstratusdev-v1]
2020-04-21 17:43:00 INFO  20190627213435879:2749 - End of deleting Prevalidation Label Auto Rejection Scheduled job
2020-04-21 17:58:10 INFO  20190627213435879:2741 - Process started for deleting Prevalidation Label Auto Rejection Scheduled job: [c-1511-sstratusdev-bstratusdev-v1]
2020-04-21 17:58:10 INFO  20190627213435879:2749 - End of deleting Prevalidation Label Auto Rejection Scheduled job
2020-04-21 18:05:59 INFO  20190627213435879:2741 - Process started for deleting Prevalidation Label Auto Rejection Scheduled job: [c-1511-sstratusdev-bstratusdev-v1]
2020-04-21 18:05:59 INFO  20190627213435879:2749 - End of deleting Prevalidation Label Auto Rejection Scheduled job
