2020-04-18 16:39:41 INFO  20200418163941112:2741 - Process started for deleting Prevalidation Label Auto Rejection Scheduled job: [c-acndev-sp14-20180726-v1-sf2987-buildingtypemanagement]
2020-04-18 16:39:41 INFO  20200418163941112:2749 - End of deleting Prevalidation Label Auto Rejection Scheduled job
2020-04-18 17:10:00 INFO  20200418171000885:2741 - Process started for deleting Prevalidation Label Auto Rejection Scheduled job: [c-acndev-sp14-20180726-v1-sf2987-buildingtypemanagement]
2020-04-18 17:10:00 INFO  20200418171000885:2749 - End of deleting Prevalidation Label Auto Rejection Scheduled job
2020-04-18 18:42:11 INFO  20200418184211563:2741 - Process started for deleting Prevalidation Label Auto Rejection Scheduled job: [c-acndev-sp14-20180726-v1-sf2987-buildingtypemanagement]
2020-04-18 18:42:11 INFO  20200418184211563:2749 - End of deleting Prevalidation Label Auto Rejection Scheduled job
2020-04-20 16:31:57 INFO  20200420163157898:2741 - Process started for deleting Prevalidation Label Auto Rejection Scheduled job: [c-acndev-sp14-20180726-v1-sf2987-buildingtypemanagement]
2020-04-20 16:31:57 INFO  20200420163157898:2749 - End of deleting Prevalidation Label Auto Rejection Scheduled job
2020-04-21 17:43:00 INFO  20200421174300920:2741 - Process started for deleting Prevalidation Label Auto Rejection Scheduled job: [c-acndev-sp14-20180726-v1-sf2987-buildingtypemanagement]
2020-04-21 17:43:00 INFO  20200421174300920:2749 - End of deleting Prevalidation Label Auto Rejection Scheduled job
