2020-04-18 16:39:41 INFO  20190316141846651:2741 - Process started for deleting Prevalidation Label Auto Rejection Scheduled job: [c-corebuild-baseline-20190316-v1-flexipage]
2020-04-18 16:39:41 INFO  20190316141846651:2749 - End of deleting Prevalidation Label Auto Rejection Scheduled job
2020-04-18 17:10:02 INFO  20190316141846651:2741 - Process started for deleting Prevalidation Label Auto Rejection Scheduled job: [c-corebuild-baseline-20190316-v1-flexipage]
2020-04-18 17:10:02 INFO  20190316141846651:2749 - End of deleting Prevalidation Label Auto Rejection Scheduled job
2020-04-18 18:42:12 INFO  20190316141846651:2741 - Process started for deleting Prevalidation Label Auto Rejection Scheduled job: [c-corebuild-baseline-20190316-v1-flexipage]
2020-04-18 18:42:12 INFO  20190316141846651:2749 - End of deleting Prevalidation Label Auto Rejection Scheduled job
2020-04-20 16:31:59 INFO  20190316141846651:2741 - Process started for deleting Prevalidation Label Auto Rejection Scheduled job: [c-corebuild-baseline-20190316-v1-flexipage]
2020-04-20 16:31:59 INFO  20190316141846651:2749 - End of deleting Prevalidation Label Auto Rejection Scheduled job
2020-04-21 17:43:03 INFO  20190316141846651:2741 - Process started for deleting Prevalidation Label Auto Rejection Scheduled job: [c-corebuild-baseline-20190316-v1-flexipage]
2020-04-21 17:43:03 INFO  20190316141846651:2749 - End of deleting Prevalidation Label Auto Rejection Scheduled job
2020-04-21 17:58:10 INFO  20190316141846651:2741 - Process started for deleting Prevalidation Label Auto Rejection Scheduled job: [c-corebuild-baseline-20190316-v1-flexipage]
2020-04-21 17:58:10 INFO  20190316141846651:2749 - End of deleting Prevalidation Label Auto Rejection Scheduled job
2020-04-21 18:05:59 INFO  20190316141846651:2741 - Process started for deleting Prevalidation Label Auto Rejection Scheduled job: [c-corebuild-baseline-20190316-v1-flexipage]
2020-04-21 18:05:59 INFO  20190316141846651:2749 - End of deleting Prevalidation Label Auto Rejection Scheduled job
