2020-04-18 16:39:41 INFO  20181221001113999:2741 - Process started for deleting Prevalidation Label Auto Rejection Scheduled job: [c-evedev-hotfix-20181220-v1-autoherokuexternalid]
2020-04-18 16:39:41 INFO  20181221001113999:2749 - End of deleting Prevalidation Label Auto Rejection Scheduled job
2020-04-18 17:10:02 INFO  20181221001113999:2741 - Process started for deleting Prevalidation Label Auto Rejection Scheduled job: [c-evedev-hotfix-20181220-v1-autoherokuexternalid]
2020-04-18 17:10:02 INFO  20181221001113999:2749 - End of deleting Prevalidation Label Auto Rejection Scheduled job
2020-04-18 18:42:12 INFO  20181221001113999:2741 - Process started for deleting Prevalidation Label Auto Rejection Scheduled job: [c-evedev-hotfix-20181220-v1-autoherokuexternalid]
2020-04-18 18:42:12 INFO  20181221001113999:2749 - End of deleting Prevalidation Label Auto Rejection Scheduled job
2020-04-20 16:31:59 INFO  20181221001113999:2741 - Process started for deleting Prevalidation Label Auto Rejection Scheduled job: [c-evedev-hotfix-20181220-v1-autoherokuexternalid]
2020-04-20 16:31:59 INFO  20181221001113999:2749 - End of deleting Prevalidation Label Auto Rejection Scheduled job
2020-04-21 17:43:04 INFO  20181221001113999:2741 - Process started for deleting Prevalidation Label Auto Rejection Scheduled job: [c-evedev-hotfix-20181220-v1-autoherokuexternalid]
2020-04-21 17:43:04 INFO  20181221001113999:2749 - End of deleting Prevalidation Label Auto Rejection Scheduled job
2020-04-21 17:58:10 INFO  20181221001113999:2741 - Process started for deleting Prevalidation Label Auto Rejection Scheduled job: [c-evedev-hotfix-20181220-v1-autoherokuexternalid]
2020-04-21 17:58:10 INFO  20181221001113999:2749 - End of deleting Prevalidation Label Auto Rejection Scheduled job
2020-04-21 18:05:59 INFO  20181221001113999:2741 - Process started for deleting Prevalidation Label Auto Rejection Scheduled job: [c-evedev-hotfix-20181220-v1-autoherokuexternalid]
2020-04-21 18:05:59 INFO  20181221001113999:2749 - End of deleting Prevalidation Label Auto Rejection Scheduled job
