2020-04-18 16:39:41 INFO  20191001114121802:2741 - Process started for deleting Prevalidation Label Auto Rejection Scheduled job: [sf-12509 c-sacndev-bcorebuild-baseline - v3.1]
2020-04-18 16:39:41 INFO  20191001114121802:2749 - End of deleting Prevalidation Label Auto Rejection Scheduled job
2020-04-18 17:10:02 INFO  20191001114121802:2741 - Process started for deleting Prevalidation Label Auto Rejection Scheduled job: [sf-12509 c-sacndev-bcorebuild-baseline - v3.1]
2020-04-18 17:10:02 INFO  20191001114121802:2749 - End of deleting Prevalidation Label Auto Rejection Scheduled job
2020-04-18 18:42:13 INFO  20191001114121802:2741 - Process started for deleting Prevalidation Label Auto Rejection Scheduled job: [sf-12509 c-sacndev-bcorebuild-baseline - v3.1]
2020-04-18 18:42:13 INFO  20191001114121802:2749 - End of deleting Prevalidation Label Auto Rejection Scheduled job
2020-04-20 16:32:00 INFO  20191001114121802:2741 - Process started for deleting Prevalidation Label Auto Rejection Scheduled job: [sf-12509 c-sacndev-bcorebuild-baseline - v3.1]
2020-04-20 16:32:00 INFO  20191001114121802:2749 - End of deleting Prevalidation Label Auto Rejection Scheduled job
2020-04-21 17:43:07 INFO  20191001114121802:2741 - Process started for deleting Prevalidation Label Auto Rejection Scheduled job: [sf-12509 c-sacndev-bcorebuild-baseline - v3.1]
2020-04-21 17:43:07 INFO  20191001114121802:2749 - End of deleting Prevalidation Label Auto Rejection Scheduled job
2020-04-21 17:58:10 INFO  20191001114121802:2741 - Process started for deleting Prevalidation Label Auto Rejection Scheduled job: [sf-12509 c-sacndev-bcorebuild-baseline - v3.1]
2020-04-21 17:58:10 INFO  20191001114121802:2749 - End of deleting Prevalidation Label Auto Rejection Scheduled job
2020-04-21 18:06:00 INFO  20191001114121802:2741 - Process started for deleting Prevalidation Label Auto Rejection Scheduled job: [sf-12509 c-sacndev-bcorebuild-baseline - v3.1]
2020-04-21 18:06:00 INFO  20191001114121802:2749 - End of deleting Prevalidation Label Auto Rejection Scheduled job
