2020-04-18 16:39:41 INFO  20200227012010579:2741 - Process started for deleting Prevalidation Label Auto Rejection Scheduled job: [sf-13973 c-ssarumugam2 -bsarumugam-v3]
2020-04-18 16:39:41 INFO  20200227012010579:2749 - End of deleting Prevalidation Label Auto Rejection Scheduled job
2020-04-18 17:10:03 INFO  20200227012010579:2741 - Process started for deleting Prevalidation Label Auto Rejection Scheduled job: [sf-13973 c-ssarumugam2 -bsarumugam-v3]
2020-04-18 17:10:03 INFO  20200227012010579:2749 - End of deleting Prevalidation Label Auto Rejection Scheduled job
2020-04-18 18:42:18 INFO  20200227012010579:2741 - Process started for deleting Prevalidation Label Auto Rejection Scheduled job: [sf-13973 c-ssarumugam2 -bsarumugam-v3]
2020-04-18 18:42:18 INFO  20200227012010579:2749 - End of deleting Prevalidation Label Auto Rejection Scheduled job
2020-04-20 16:32:09 INFO  20200227012010579:2741 - Process started for deleting Prevalidation Label Auto Rejection Scheduled job: [sf-13973 c-ssarumugam2 -bsarumugam-v3]
2020-04-20 16:32:09 INFO  20200227012010579:2749 - End of deleting Prevalidation Label Auto Rejection Scheduled job
2020-04-21 17:43:21 INFO  20200227012010579:2741 - Process started for deleting Prevalidation Label Auto Rejection Scheduled job: [sf-13973 c-ssarumugam2 -bsarumugam-v3]
2020-04-21 17:43:21 INFO  20200227012010579:2749 - End of deleting Prevalidation Label Auto Rejection Scheduled job
2020-04-21 17:58:11 INFO  20200227012010579:2741 - Process started for deleting Prevalidation Label Auto Rejection Scheduled job: [sf-13973 c-ssarumugam2 -bsarumugam-v3]
2020-04-21 17:58:11 INFO  20200227012010579:2749 - End of deleting Prevalidation Label Auto Rejection Scheduled job
2020-04-21 18:06:01 INFO  20200227012010579:2741 - Process started for deleting Prevalidation Label Auto Rejection Scheduled job: [sf-13973 c-ssarumugam2 -bsarumugam-v3]
2020-04-21 18:06:01 INFO  20200227012010579:2749 - End of deleting Prevalidation Label Auto Rejection Scheduled job
