2020-04-18 16:39:41 INFO  20200109154326816:2741 - Process started for deleting Prevalidation Label Auto Rejection Scheduled job: [sf-13160 c-sssahni-bssahni-v1]
2020-04-18 16:39:41 INFO  20200109154326816:2749 - End of deleting Prevalidation Label Auto Rejection Scheduled job
2020-04-18 17:10:02 INFO  20200109154326816:2741 - Process started for deleting Prevalidation Label Auto Rejection Scheduled job: [sf-13160 c-sssahni-bssahni-v1]
2020-04-18 17:10:02 INFO  20200109154326816:2749 - End of deleting Prevalidation Label Auto Rejection Scheduled job
2020-04-18 18:42:15 INFO  20200109154326816:2741 - Process started for deleting Prevalidation Label Auto Rejection Scheduled job: [sf-13160 c-sssahni-bssahni-v1]
2020-04-18 18:42:15 INFO  20200109154326816:2749 - End of deleting Prevalidation Label Auto Rejection Scheduled job
2020-04-20 16:32:04 INFO  20200109154326816:2741 - Process started for deleting Prevalidation Label Auto Rejection Scheduled job: [sf-13160 c-sssahni-bssahni-v1]
2020-04-20 16:32:04 INFO  20200109154326816:2749 - End of deleting Prevalidation Label Auto Rejection Scheduled job
2020-04-21 17:43:15 INFO  20200109154326816:2741 - Process started for deleting Prevalidation Label Auto Rejection Scheduled job: [sf-13160 c-sssahni-bssahni-v1]
2020-04-21 17:43:15 INFO  20200109154326816:2749 - End of deleting Prevalidation Label Auto Rejection Scheduled job
2020-04-21 17:58:11 INFO  20200109154326816:2741 - Process started for deleting Prevalidation Label Auto Rejection Scheduled job: [sf-13160 c-sssahni-bssahni-v1]
2020-04-21 17:58:11 INFO  20200109154326816:2749 - End of deleting Prevalidation Label Auto Rejection Scheduled job
2020-04-21 18:06:00 INFO  20200109154326816:2741 - Process started for deleting Prevalidation Label Auto Rejection Scheduled job: [sf-13160 c-sssahni-bssahni-v1]
2020-04-21 18:06:00 INFO  20200109154326816:2749 - End of deleting Prevalidation Label Auto Rejection Scheduled job
