2020-04-18 16:39:41 INFO  20200117134431296:2741 - Process started for deleting Prevalidation Label Auto Rejection Scheduled job: [sf-13632 c-svgutta-bvgutta v3]
2020-04-18 16:39:41 INFO  20200117134431296:2749 - End of deleting Prevalidation Label Auto Rejection Scheduled job
2020-04-18 17:10:03 INFO  20200117134431296:2741 - Process started for deleting Prevalidation Label Auto Rejection Scheduled job: [sf-13632 c-svgutta-bvgutta v3]
2020-04-18 17:10:03 INFO  20200117134431296:2749 - End of deleting Prevalidation Label Auto Rejection Scheduled job
2020-04-18 18:42:17 INFO  20200117134431296:2741 - Process started for deleting Prevalidation Label Auto Rejection Scheduled job: [sf-13632 c-svgutta-bvgutta v3]
2020-04-18 18:42:17 INFO  20200117134431296:2749 - End of deleting Prevalidation Label Auto Rejection Scheduled job
2020-04-20 16:32:07 INFO  20200117134431296:2741 - Process started for deleting Prevalidation Label Auto Rejection Scheduled job: [sf-13632 c-svgutta-bvgutta v3]
2020-04-20 16:32:07 INFO  20200117134431296:2749 - End of deleting Prevalidation Label Auto Rejection Scheduled job
2020-04-21 17:43:18 INFO  20200117134431296:2741 - Process started for deleting Prevalidation Label Auto Rejection Scheduled job: [sf-13632 c-svgutta-bvgutta v3]
2020-04-21 17:43:18 INFO  20200117134431296:2749 - End of deleting Prevalidation Label Auto Rejection Scheduled job
2020-04-21 17:58:11 INFO  20200117134431296:2741 - Process started for deleting Prevalidation Label Auto Rejection Scheduled job: [sf-13632 c-svgutta-bvgutta v3]
2020-04-21 17:58:11 INFO  20200117134431296:2749 - End of deleting Prevalidation Label Auto Rejection Scheduled job
2020-04-21 18:06:00 INFO  20200117134431296:2741 - Process started for deleting Prevalidation Label Auto Rejection Scheduled job: [sf-13632 c-svgutta-bvgutta v3]
2020-04-21 18:06:00 INFO  20200117134431296:2749 - End of deleting Prevalidation Label Auto Rejection Scheduled job
