2020-04-18 16:39:41 INFO  20200311145209921:2741 - Process started for deleting Prevalidation Label Auto Rejection Scheduled job: [sf-13756 c-slkota-blkota-v3]
2020-04-18 16:39:41 INFO  20200311145209921:2749 - End of deleting Prevalidation Label Auto Rejection Scheduled job
2020-04-18 17:10:03 INFO  20200311145209921:2741 - Process started for deleting Prevalidation Label Auto Rejection Scheduled job: [sf-13756 c-slkota-blkota-v3]
2020-04-18 17:10:03 INFO  20200311145209921:2749 - End of deleting Prevalidation Label Auto Rejection Scheduled job
2020-04-18 18:42:17 INFO  20200311145209921:2741 - Process started for deleting Prevalidation Label Auto Rejection Scheduled job: [sf-13756 c-slkota-blkota-v3]
2020-04-18 18:42:17 INFO  20200311145209921:2749 - End of deleting Prevalidation Label Auto Rejection Scheduled job
2020-04-20 16:32:08 INFO  20200311145209921:2741 - Process started for deleting Prevalidation Label Auto Rejection Scheduled job: [sf-13756 c-slkota-blkota-v3]
2020-04-20 16:32:08 INFO  20200311145209921:2749 - End of deleting Prevalidation Label Auto Rejection Scheduled job
2020-04-21 17:43:20 INFO  20200311145209921:2741 - Process started for deleting Prevalidation Label Auto Rejection Scheduled job: [sf-13756 c-slkota-blkota-v3]
2020-04-21 17:43:20 INFO  20200311145209921:2749 - End of deleting Prevalidation Label Auto Rejection Scheduled job
2020-04-21 17:58:11 INFO  20200311145209921:2741 - Process started for deleting Prevalidation Label Auto Rejection Scheduled job: [sf-13756 c-slkota-blkota-v3]
2020-04-21 17:58:11 INFO  20200311145209921:2749 - End of deleting Prevalidation Label Auto Rejection Scheduled job
2020-04-21 18:06:00 INFO  20200311145209921:2741 - Process started for deleting Prevalidation Label Auto Rejection Scheduled job: [sf-13756 c-slkota-blkota-v3]
2020-04-21 18:06:00 INFO  20200311145209921:2749 - End of deleting Prevalidation Label Auto Rejection Scheduled job
