2020-04-18 16:39:41 INFO  20200323114012219:2741 - Process started for deleting Prevalidation Label Auto Rejection Scheduled job: [sf-13934 c-saperaka-baperaka-v1]
2020-04-18 16:39:41 INFO  20200323114012219:2749 - End of deleting Prevalidation Label Auto Rejection Scheduled job
2020-04-18 17:10:03 INFO  20200323114012219:2741 - Process started for deleting Prevalidation Label Auto Rejection Scheduled job: [sf-13934 c-saperaka-baperaka-v1]
2020-04-18 17:10:03 INFO  20200323114012219:2749 - End of deleting Prevalidation Label Auto Rejection Scheduled job
2020-04-18 18:42:18 INFO  20200323114012219:2741 - Process started for deleting Prevalidation Label Auto Rejection Scheduled job: [sf-13934 c-saperaka-baperaka-v1]
2020-04-18 18:42:18 INFO  20200323114012219:2749 - End of deleting Prevalidation Label Auto Rejection Scheduled job
2020-04-20 16:32:09 INFO  20200323114012219:2741 - Process started for deleting Prevalidation Label Auto Rejection Scheduled job: [sf-13934 c-saperaka-baperaka-v1]
2020-04-20 16:32:09 INFO  20200323114012219:2749 - End of deleting Prevalidation Label Auto Rejection Scheduled job
2020-04-21 17:43:21 INFO  20200323114012219:2741 - Process started for deleting Prevalidation Label Auto Rejection Scheduled job: [sf-13934 c-saperaka-baperaka-v1]
2020-04-21 17:43:21 INFO  20200323114012219:2749 - End of deleting Prevalidation Label Auto Rejection Scheduled job
2020-04-21 17:58:11 INFO  20200323114012219:2741 - Process started for deleting Prevalidation Label Auto Rejection Scheduled job: [sf-13934 c-saperaka-baperaka-v1]
2020-04-21 17:58:11 INFO  20200323114012219:2749 - End of deleting Prevalidation Label Auto Rejection Scheduled job
2020-04-21 18:06:01 INFO  20200323114012219:2741 - Process started for deleting Prevalidation Label Auto Rejection Scheduled job: [sf-13934 c-saperaka-baperaka-v1]
2020-04-21 18:06:01 INFO  20200323114012219:2749 - End of deleting Prevalidation Label Auto Rejection Scheduled job
