2020-04-18 16:39:41 INFO  20200128130933353:2741 - Process started for deleting Prevalidation Label Auto Rejection Scheduled job: [sf-12313 c-sjpallerla-bjpallerla_v1]
2020-04-18 16:39:41 INFO  20200128130933353:2749 - End of deleting Prevalidation Label Auto Rejection Scheduled job
2020-04-18 17:10:02 INFO  20200128130933353:2741 - Process started for deleting Prevalidation Label Auto Rejection Scheduled job: [sf-12313 c-sjpallerla-bjpallerla_v1]
2020-04-18 17:10:02 INFO  20200128130933353:2749 - End of deleting Prevalidation Label Auto Rejection Scheduled job
2020-04-18 18:42:13 INFO  20200128130933353:2741 - Process started for deleting Prevalidation Label Auto Rejection Scheduled job: [sf-12313 c-sjpallerla-bjpallerla_v1]
2020-04-18 18:42:13 INFO  20200128130933353:2749 - End of deleting Prevalidation Label Auto Rejection Scheduled job
2020-04-20 16:32:00 INFO  20200128130933353:2741 - Process started for deleting Prevalidation Label Auto Rejection Scheduled job: [sf-12313 c-sjpallerla-bjpallerla_v1]
2020-04-20 16:32:00 INFO  20200128130933353:2749 - End of deleting Prevalidation Label Auto Rejection Scheduled job
2020-04-21 17:43:06 INFO  20200128130933353:2741 - Process started for deleting Prevalidation Label Auto Rejection Scheduled job: [sf-12313 c-sjpallerla-bjpallerla_v1]
2020-04-21 17:43:06 INFO  20200128130933353:2749 - End of deleting Prevalidation Label Auto Rejection Scheduled job
2020-04-21 17:58:10 INFO  20200128130933353:2741 - Process started for deleting Prevalidation Label Auto Rejection Scheduled job: [sf-12313 c-sjpallerla-bjpallerla_v1]
2020-04-21 17:58:10 INFO  20200128130933353:2749 - End of deleting Prevalidation Label Auto Rejection Scheduled job
2020-04-21 18:05:59 INFO  20200128130933353:2741 - Process started for deleting Prevalidation Label Auto Rejection Scheduled job: [sf-12313 c-sjpallerla-bjpallerla_v1]
2020-04-21 18:05:59 INFO  20200128130933353:2749 - End of deleting Prevalidation Label Auto Rejection Scheduled job
