2020-04-18 16:39:41 INFO  20191127115345556:2741 - Process started for deleting Prevalidation Label Auto Rejection Scheduled job: [sf-13402 c-sacndev-bcorebuild-baseline - v1]
2020-04-18 16:39:41 INFO  20191127115345556:2749 - End of deleting Prevalidation Label Auto Rejection Scheduled job
2020-04-18 17:10:03 INFO  20191127115345556:2741 - Process started for deleting Prevalidation Label Auto Rejection Scheduled job: [sf-13402 c-sacndev-bcorebuild-baseline - v1]
2020-04-18 17:10:03 INFO  20191127115345556:2749 - End of deleting Prevalidation Label Auto Rejection Scheduled job
2020-04-18 18:42:16 INFO  20191127115345556:2741 - Process started for deleting Prevalidation Label Auto Rejection Scheduled job: [sf-13402 c-sacndev-bcorebuild-baseline - v1]
2020-04-18 18:42:16 INFO  20191127115345556:2749 - End of deleting Prevalidation Label Auto Rejection Scheduled job
2020-04-20 16:32:05 INFO  20191127115345556:2741 - Process started for deleting Prevalidation Label Auto Rejection Scheduled job: [sf-13402 c-sacndev-bcorebuild-baseline - v1]
2020-04-20 16:32:05 INFO  20191127115345556:2749 - End of deleting Prevalidation Label Auto Rejection Scheduled job
2020-04-21 17:43:17 INFO  20191127115345556:2741 - Process started for deleting Prevalidation Label Auto Rejection Scheduled job: [sf-13402 c-sacndev-bcorebuild-baseline - v1]
2020-04-21 17:43:17 INFO  20191127115345556:2749 - End of deleting Prevalidation Label Auto Rejection Scheduled job
2020-04-21 17:58:11 INFO  20191127115345556:2741 - Process started for deleting Prevalidation Label Auto Rejection Scheduled job: [sf-13402 c-sacndev-bcorebuild-baseline - v1]
2020-04-21 17:58:11 INFO  20191127115345556:2749 - End of deleting Prevalidation Label Auto Rejection Scheduled job
2020-04-21 18:06:00 INFO  20191127115345556:2741 - Process started for deleting Prevalidation Label Auto Rejection Scheduled job: [sf-13402 c-sacndev-bcorebuild-baseline - v1]
2020-04-21 18:06:00 INFO  20191127115345556:2749 - End of deleting Prevalidation Label Auto Rejection Scheduled job
