2020-04-18 16:39:42 INFO  20200226130507850:2741 - Process started for deleting Prevalidation Label Auto Rejection Scheduled job: [sf-14387 c-slkumar-blkumar]
2020-04-18 16:39:42 INFO  20200226130507850:2749 - End of deleting Prevalidation Label Auto Rejection Scheduled job
2020-04-18 17:10:03 INFO  20200226130507850:2741 - Process started for deleting Prevalidation Label Auto Rejection Scheduled job: [sf-14387 c-slkumar-blkumar]
2020-04-18 17:10:03 INFO  20200226130507850:2749 - End of deleting Prevalidation Label Auto Rejection Scheduled job
2020-04-18 18:42:19 INFO  20200226130507850:2741 - Process started for deleting Prevalidation Label Auto Rejection Scheduled job: [sf-14387 c-slkumar-blkumar]
2020-04-18 18:42:19 INFO  20200226130507850:2749 - End of deleting Prevalidation Label Auto Rejection Scheduled job
2020-04-20 16:32:10 INFO  20200226130507850:2741 - Process started for deleting Prevalidation Label Auto Rejection Scheduled job: [sf-14387 c-slkumar-blkumar]
2020-04-20 16:32:10 INFO  20200226130507850:2749 - End of deleting Prevalidation Label Auto Rejection Scheduled job
2020-04-21 17:43:29 INFO  20200226130507850:2741 - Process started for deleting Prevalidation Label Auto Rejection Scheduled job: [sf-14387 c-slkumar-blkumar]
2020-04-21 17:43:29 INFO  20200226130507850:2749 - End of deleting Prevalidation Label Auto Rejection Scheduled job
2020-04-21 17:58:11 INFO  20200226130507850:2741 - Process started for deleting Prevalidation Label Auto Rejection Scheduled job: [sf-14387 c-slkumar-blkumar]
2020-04-21 17:58:11 INFO  20200226130507850:2749 - End of deleting Prevalidation Label Auto Rejection Scheduled job
2020-04-21 18:06:01 INFO  20200226130507850:2741 - Process started for deleting Prevalidation Label Auto Rejection Scheduled job: [sf-14387 c-slkumar-blkumar]
2020-04-21 18:06:01 INFO  20200226130507850:2749 - End of deleting Prevalidation Label Auto Rejection Scheduled job
