2020-04-18 16:39:41 INFO  20200418163941439:2741 - Process started for deleting Prevalidation Label Auto Rejection Scheduled job: [sf-12387 c-slkota-blkota-latest-v6]
2020-04-18 16:39:41 INFO  20200418163941439:2749 - End of deleting Prevalidation Label Auto Rejection Scheduled job
2020-04-18 16:39:41 INFO  20200418163941439:2741 - Process started for deleting Prevalidation Label Auto Rejection Scheduled job: [sf-12387 c-slkota-blkota-latest]
2020-04-18 16:39:41 INFO  20200418163941439:2749 - End of deleting Prevalidation Label Auto Rejection Scheduled job
2020-04-18 18:42:13 INFO  20200418184213419:2741 - Process started for deleting Prevalidation Label Auto Rejection Scheduled job: [sf-12387 c-slkota-blkota-latest-v6]
2020-04-18 18:42:13 INFO  20200418184213419:2749 - End of deleting Prevalidation Label Auto Rejection Scheduled job
2020-04-20 16:32:00 INFO  20200420163200863:2741 - Process started for deleting Prevalidation Label Auto Rejection Scheduled job: [sf-12387 c-slkota-blkota-latest-v6]
2020-04-20 16:32:00 INFO  20200420163200863:2749 - End of deleting Prevalidation Label Auto Rejection Scheduled job
2020-04-21 17:43:07 INFO  20200421174307125:2741 - Process started for deleting Prevalidation Label Auto Rejection Scheduled job: [sf-12387 c-slkota-blkota-latest-v6]
2020-04-21 17:43:07 INFO  20200421174307125:2749 - End of deleting Prevalidation Label Auto Rejection Scheduled job
2020-04-21 17:58:10 INFO  20200421175810627:2741 - Process started for deleting Prevalidation Label Auto Rejection Scheduled job: [sf-12387 c-slkota-blkota-latest-v6]
2020-04-21 17:58:10 INFO  20200421175810627:2749 - End of deleting Prevalidation Label Auto Rejection Scheduled job
2020-04-21 18:05:59 INFO  20200421180559984:2741 - Process started for deleting Prevalidation Label Auto Rejection Scheduled job: [sf-12387 c-slkota-blkota-latest-v6]
2020-04-21 18:05:59 INFO  20200421180559984:2749 - End of deleting Prevalidation Label Auto Rejection Scheduled job
