2020-04-18 18:42:22 INFO  20200418184222681:2741 - Process started for deleting Prevalidation Label Auto Rejection Scheduled job: [sfapt-1780 c-sssoparkar-bssoparkar]
2020-04-18 18:42:22 INFO  20200418184222681:2749 - End of deleting Prevalidation Label Auto Rejection Scheduled job
2020-04-20 16:32:12 INFO  20200420163212078:2741 - Process started for deleting Prevalidation Label Auto Rejection Scheduled job: [sfapt-1780 c-sssoparkar-bssoparkar]
2020-04-20 16:32:12 INFO  20200420163212078:2749 - End of deleting Prevalidation Label Auto Rejection Scheduled job
2020-04-21 17:43:34 INFO  20200421174334883:2741 - Process started for deleting Prevalidation Label Auto Rejection Scheduled job: [sfapt-1780 c-sssoparkar-bssoparkar]
2020-04-21 17:43:34 INFO  20200421174334883:2749 - End of deleting Prevalidation Label Auto Rejection Scheduled job
2020-04-21 18:06:01 INFO  20200421180601287:2741 - Process started for deleting Prevalidation Label Auto Rejection Scheduled job: [sfapt-1780 c-sssoparkar-bssoparkar]
2020-04-21 18:06:01 INFO  20200421180601287:2749 - End of deleting Prevalidation Label Auto Rejection Scheduled job
