2020-04-18 16:40:00 INFO  20200213224028816:2741 - Process started for deleting Prevalidation Label Auto Rejection Scheduled job: [sfapt-34 c-sarauf-barauf-v7]
2020-04-18 16:40:00 INFO  20200213224028816:2749 - End of deleting Prevalidation Label Auto Rejection Scheduled job
2020-04-18 17:10:03 INFO  20200213224028816:2741 - Process started for deleting Prevalidation Label Auto Rejection Scheduled job: [sfapt-34 c-sarauf-barauf-v7]
2020-04-18 17:10:03 INFO  20200213224028816:2749 - End of deleting Prevalidation Label Auto Rejection Scheduled job
2020-04-18 18:42:22 INFO  20200213224028816:2741 - Process started for deleting Prevalidation Label Auto Rejection Scheduled job: [sfapt-34 c-sarauf-barauf-v7]
2020-04-18 18:42:22 INFO  20200213224028816:2749 - End of deleting Prevalidation Label Auto Rejection Scheduled job
2020-04-20 16:32:12 INFO  20200213224028816:2741 - Process started for deleting Prevalidation Label Auto Rejection Scheduled job: [sfapt-34 c-sarauf-barauf-v7]
2020-04-20 16:32:12 INFO  20200213224028816:2749 - End of deleting Prevalidation Label Auto Rejection Scheduled job
2020-04-21 17:43:35 INFO  20200213224028816:2741 - Process started for deleting Prevalidation Label Auto Rejection Scheduled job: [sfapt-34 c-sarauf-barauf-v7]
2020-04-21 17:43:35 INFO  20200213224028816:2749 - End of deleting Prevalidation Label Auto Rejection Scheduled job
2020-04-21 17:58:11 INFO  20200213224028816:2741 - Process started for deleting Prevalidation Label Auto Rejection Scheduled job: [sfapt-34 c-sarauf-barauf-v7]
2020-04-21 17:58:11 INFO  20200213224028816:2749 - End of deleting Prevalidation Label Auto Rejection Scheduled job
2020-04-21 18:06:01 INFO  20200213224028816:2741 - Process started for deleting Prevalidation Label Auto Rejection Scheduled job: [sfapt-34 c-sarauf-barauf-v7]
2020-04-21 18:06:01 INFO  20200213224028816:2749 - End of deleting Prevalidation Label Auto Rejection Scheduled job
