2020-04-18 16:40:11 INFO  20190823153101190:2741 - Process started for deleting Prevalidation Label Auto Rejection Scheduled job: [sup-148 [c-sstratusdev-bvsharma-v1]]
2020-04-18 16:40:11 INFO  20190823153101190:2749 - End of deleting Prevalidation Label Auto Rejection Scheduled job
2020-04-18 17:10:04 INFO  20190823153101190:2741 - Process started for deleting Prevalidation Label Auto Rejection Scheduled job: [sup-148 [c-sstratusdev-bvsharma-v1]]
2020-04-18 17:10:04 INFO  20190823153101190:2749 - End of deleting Prevalidation Label Auto Rejection Scheduled job
2020-04-18 18:42:27 INFO  20190823153101190:2741 - Process started for deleting Prevalidation Label Auto Rejection Scheduled job: [sup-148 [c-sstratusdev-bvsharma-v1]]
2020-04-18 18:42:27 INFO  20190823153101190:2749 - End of deleting Prevalidation Label Auto Rejection Scheduled job
2020-04-20 16:32:13 INFO  20190823153101190:2741 - Process started for deleting Prevalidation Label Auto Rejection Scheduled job: [sup-148 [c-sstratusdev-bvsharma-v1]]
2020-04-20 16:32:13 INFO  20190823153101190:2749 - End of deleting Prevalidation Label Auto Rejection Scheduled job
2020-04-21 17:43:57 INFO  20190823153101190:2741 - Process started for deleting Prevalidation Label Auto Rejection Scheduled job: [sup-148 [c-sstratusdev-bvsharma-v1]]
2020-04-21 17:43:57 INFO  20190823153101190:2749 - End of deleting Prevalidation Label Auto Rejection Scheduled job
2020-04-21 17:58:12 INFO  20190823153101190:2741 - Process started for deleting Prevalidation Label Auto Rejection Scheduled job: [sup-148 [c-sstratusdev-bvsharma-v1]]
2020-04-21 17:58:12 INFO  20190823153101190:2749 - End of deleting Prevalidation Label Auto Rejection Scheduled job
2020-04-21 18:06:01 INFO  20190823153101190:2741 - Process started for deleting Prevalidation Label Auto Rejection Scheduled job: [sup-148 [c-sstratusdev-bvsharma-v1]]
2020-04-21 18:06:01 INFO  20190823153101190:2749 - End of deleting Prevalidation Label Auto Rejection Scheduled job
