2020-04-18 16:40:11 INFO  20191004213743556:2741 - Process started for deleting Prevalidation Label Auto Rejection Scheduled job: [sup-91-2 c-sssahni-bssahni-v6]
2020-04-18 16:40:11 INFO  20191004213743556:2749 - End of deleting Prevalidation Label Auto Rejection Scheduled job
2020-04-18 17:10:05 INFO  20191004213743556:2741 - Process started for deleting Prevalidation Label Auto Rejection Scheduled job: [sup-91-2 c-sssahni-bssahni-v6]
2020-04-18 17:10:05 INFO  20191004213743556:2749 - End of deleting Prevalidation Label Auto Rejection Scheduled job
2020-04-18 18:42:28 INFO  20191004213743556:2741 - Process started for deleting Prevalidation Label Auto Rejection Scheduled job: [sup-91-2 c-sssahni-bssahni-v6]
2020-04-18 18:42:28 INFO  20191004213743556:2749 - End of deleting Prevalidation Label Auto Rejection Scheduled job
2020-04-20 16:32:15 INFO  20191004213743556:2741 - Process started for deleting Prevalidation Label Auto Rejection Scheduled job: [sup-91-2 c-sssahni-bssahni-v6]
2020-04-20 16:32:15 INFO  20191004213743556:2749 - End of deleting Prevalidation Label Auto Rejection Scheduled job
2020-04-21 17:44:03 INFO  20191004213743556:2741 - Process started for deleting Prevalidation Label Auto Rejection Scheduled job: [sup-91-2 c-sssahni-bssahni-v6]
2020-04-21 17:44:03 INFO  20191004213743556:2749 - End of deleting Prevalidation Label Auto Rejection Scheduled job
2020-04-21 17:58:12 INFO  20191004213743556:2741 - Process started for deleting Prevalidation Label Auto Rejection Scheduled job: [sup-91-2 c-sssahni-bssahni-v6]
2020-04-21 17:58:12 INFO  20191004213743556:2749 - End of deleting Prevalidation Label Auto Rejection Scheduled job
2020-04-21 18:06:02 INFO  20191004213743556:2741 - Process started for deleting Prevalidation Label Auto Rejection Scheduled job: [sup-91-2 c-sssahni-bssahni-v6]
2020-04-21 18:06:02 INFO  20191004213743556:2749 - End of deleting Prevalidation Label Auto Rejection Scheduled job
