2020-04-18 16:40:13 INFO  20181026132909513:2741 - Process started for deleting Prevalidation Label Auto Rejection Scheduled job: [v-acndev-sp20-20181026-v2-sf3197-largestsfonopportunity]
2020-04-18 16:40:13 INFO  20181026132909513:2749 - End of deleting Prevalidation Label Auto Rejection Scheduled job
2020-04-18 17:10:07 INFO  20181026132909513:2741 - Process started for deleting Prevalidation Label Auto Rejection Scheduled job: [v-acndev-sp20-20181026-v2-sf3197-largestsfonopportunity]
2020-04-18 17:10:07 INFO  20181026132909513:2749 - End of deleting Prevalidation Label Auto Rejection Scheduled job
2020-04-18 18:42:46 INFO  20181026132909513:2741 - Process started for deleting Prevalidation Label Auto Rejection Scheduled job: [v-acndev-sp20-20181026-v2-sf3197-largestsfonopportunity]
2020-04-18 18:42:46 INFO  20181026132909513:2749 - End of deleting Prevalidation Label Auto Rejection Scheduled job
2020-04-20 16:32:31 INFO  20181026132909513:2741 - Process started for deleting Prevalidation Label Auto Rejection Scheduled job: [v-acndev-sp20-20181026-v2-sf3197-largestsfonopportunity]
2020-04-20 16:32:31 INFO  20181026132909513:2749 - End of deleting Prevalidation Label Auto Rejection Scheduled job
2020-04-21 17:44:40 INFO  20181026132909513:2741 - Process started for deleting Prevalidation Label Auto Rejection Scheduled job: [v-acndev-sp20-20181026-v2-sf3197-largestsfonopportunity]
2020-04-21 17:44:40 INFO  20181026132909513:2749 - End of deleting Prevalidation Label Auto Rejection Scheduled job
2020-04-21 17:58:14 INFO  20181026132909513:2741 - Process started for deleting Prevalidation Label Auto Rejection Scheduled job: [v-acndev-sp20-20181026-v2-sf3197-largestsfonopportunity]
2020-04-21 17:58:14 INFO  20181026132909513:2749 - End of deleting Prevalidation Label Auto Rejection Scheduled job
2020-04-21 18:06:03 INFO  20181026132909513:2741 - Process started for deleting Prevalidation Label Auto Rejection Scheduled job: [v-acndev-sp20-20181026-v2-sf3197-largestsfonopportunity]
2020-04-21 18:06:03 INFO  20181026132909513:2749 - End of deleting Prevalidation Label Auto Rejection Scheduled job
