2020-04-18 16:40:15 INFO  20190516152035237:2741 - Process started for deleting Prevalidation Label Auto Rejection Scheduled job: [v-acndev-uat2week5thurs-20190516-v1-flowsandlayouts]
2020-04-18 16:40:15 INFO  20190516152035237:2749 - End of deleting Prevalidation Label Auto Rejection Scheduled job
2020-04-18 17:10:08 INFO  20190516152035237:2741 - Process started for deleting Prevalidation Label Auto Rejection Scheduled job: [v-acndev-uat2week5thurs-20190516-v1-flowsandlayouts]
2020-04-18 17:10:08 INFO  20190516152035237:2749 - End of deleting Prevalidation Label Auto Rejection Scheduled job
2020-04-18 18:43:03 INFO  20190516152035237:2741 - Process started for deleting Prevalidation Label Auto Rejection Scheduled job: [v-acndev-uat2week5thurs-20190516-v1-flowsandlayouts]
2020-04-18 18:43:03 INFO  20190516152035237:2749 - End of deleting Prevalidation Label Auto Rejection Scheduled job
2020-04-20 16:32:53 INFO  20190516152035237:2741 - Process started for deleting Prevalidation Label Auto Rejection Scheduled job: [v-acndev-uat2week5thurs-20190516-v1-flowsandlayouts]
2020-04-20 16:32:53 INFO  20190516152035237:2749 - End of deleting Prevalidation Label Auto Rejection Scheduled job
2020-04-21 17:44:54 INFO  20190516152035237:2741 - Process started for deleting Prevalidation Label Auto Rejection Scheduled job: [v-acndev-uat2week5thurs-20190516-v1-flowsandlayouts]
2020-04-21 17:44:54 INFO  20190516152035237:2749 - End of deleting Prevalidation Label Auto Rejection Scheduled job
2020-04-21 17:58:15 INFO  20190516152035237:2741 - Process started for deleting Prevalidation Label Auto Rejection Scheduled job: [v-acndev-uat2week5thurs-20190516-v1-flowsandlayouts]
2020-04-21 17:58:15 INFO  20190516152035237:2749 - End of deleting Prevalidation Label Auto Rejection Scheduled job
2020-04-21 18:06:04 INFO  20190516152035237:2741 - Process started for deleting Prevalidation Label Auto Rejection Scheduled job: [v-acndev-uat2week5thurs-20190516-v1-flowsandlayouts]
2020-04-21 18:06:04 INFO  20190516152035237:2749 - End of deleting Prevalidation Label Auto Rejection Scheduled job
