2020-04-18 16:40:11 INFO  20200418164011928:2741 - Process started for deleting Prevalidation Label Auto Rejection Scheduled job: [v-acndev-20180625-sp11-v3-defectfixes]
2020-04-18 16:40:11 INFO  20200418164011928:2749 - End of deleting Prevalidation Label Auto Rejection Scheduled job
2020-04-18 17:10:05 INFO  20200418171005092:2741 - Process started for deleting Prevalidation Label Auto Rejection Scheduled job: [v-acndev-20180625-sp11-v3-defectfixes]
2020-04-18 17:10:05 INFO  20200418171005092:2749 - End of deleting Prevalidation Label Auto Rejection Scheduled job
2020-04-18 17:10:05 INFO  20200418171005092:2741 - Process started for deleting Prevalidation Label Auto Rejection Scheduled job: [mny-1093-globalactions]
2020-04-18 17:10:05 INFO  20200418171005092:2749 - End of deleting Prevalidation Label Auto Rejection Scheduled job
2020-04-18 18:42:29 INFO  20200418184229008:2741 - Process started for deleting Prevalidation Label Auto Rejection Scheduled job: [v-acndev-20180625-sp11-v3-defectfixes]
2020-04-18 18:42:29 INFO  20200418184229008:2749 - End of deleting Prevalidation Label Auto Rejection Scheduled job
2020-04-20 16:32:15 INFO  20200420163215813:2741 - Process started for deleting Prevalidation Label Auto Rejection Scheduled job: [v-acndev-20180625-sp11-v3-defectfixes]
2020-04-20 16:32:15 INFO  20200420163215813:2749 - End of deleting Prevalidation Label Auto Rejection Scheduled job
