2020-04-18 16:40:13 INFO  20181212104457111:2741 - Process started for deleting Prevalidation Label Auto Rejection Scheduled job: [v-acndev-sp21-20181212-v1-sf6015-enhancebiophotouploadfunctionality]
2020-04-18 16:40:13 INFO  20181212104457111:2749 - End of deleting Prevalidation Label Auto Rejection Scheduled job
2020-04-18 17:10:07 INFO  20181212104457111:2741 - Process started for deleting Prevalidation Label Auto Rejection Scheduled job: [v-acndev-sp21-20181212-v1-sf6015-enhancebiophotouploadfunctionality]
2020-04-18 17:10:07 INFO  20181212104457111:2749 - End of deleting Prevalidation Label Auto Rejection Scheduled job
2020-04-18 18:42:46 INFO  20181212104457111:2741 - Process started for deleting Prevalidation Label Auto Rejection Scheduled job: [v-acndev-sp21-20181212-v1-sf6015-enhancebiophotouploadfunctionality]
2020-04-18 18:42:46 INFO  20181212104457111:2749 - End of deleting Prevalidation Label Auto Rejection Scheduled job
2020-04-20 16:32:32 INFO  20181212104457111:2741 - Process started for deleting Prevalidation Label Auto Rejection Scheduled job: [v-acndev-sp21-20181212-v1-sf6015-enhancebiophotouploadfunctionality]
2020-04-20 16:32:32 INFO  20181212104457111:2749 - End of deleting Prevalidation Label Auto Rejection Scheduled job
2020-04-21 17:44:41 INFO  20181212104457111:2741 - Process started for deleting Prevalidation Label Auto Rejection Scheduled job: [v-acndev-sp21-20181212-v1-sf6015-enhancebiophotouploadfunctionality]
2020-04-21 17:44:41 INFO  20181212104457111:2749 - End of deleting Prevalidation Label Auto Rejection Scheduled job
2020-04-21 17:58:14 INFO  20181212104457111:2741 - Process started for deleting Prevalidation Label Auto Rejection Scheduled job: [v-acndev-sp21-20181212-v1-sf6015-enhancebiophotouploadfunctionality]
2020-04-21 17:58:14 INFO  20181212104457111:2749 - End of deleting Prevalidation Label Auto Rejection Scheduled job
2020-04-21 18:06:03 INFO  20181212104457111:2741 - Process started for deleting Prevalidation Label Auto Rejection Scheduled job: [v-acndev-sp21-20181212-v1-sf6015-enhancebiophotouploadfunctionality]
2020-04-21 18:06:03 INFO  20181212104457111:2749 - End of deleting Prevalidation Label Auto Rejection Scheduled job
