2020-04-18 16:40:12 INFO  20180914134927276:2741 - Process started for deleting Prevalidation Label Auto Rejection Scheduled job: [v-acndev-sp17-201809114-v6-sf1975-assetteam]
2020-04-18 16:40:12 INFO  20180914134927276:2749 - End of deleting Prevalidation Label Auto Rejection Scheduled job
2020-04-18 17:10:06 INFO  20180914134927276:2741 - Process started for deleting Prevalidation Label Auto Rejection Scheduled job: [v-acndev-sp17-201809114-v6-sf1975-assetteam]
2020-04-18 17:10:06 INFO  20180914134927276:2749 - End of deleting Prevalidation Label Auto Rejection Scheduled job
2020-04-18 18:42:32 INFO  20180914134927276:2741 - Process started for deleting Prevalidation Label Auto Rejection Scheduled job: [v-acndev-sp17-201809114-v6-sf1975-assetteam]
2020-04-18 18:42:32 INFO  20180914134927276:2749 - End of deleting Prevalidation Label Auto Rejection Scheduled job
2020-04-20 16:32:19 INFO  20180914134927276:2741 - Process started for deleting Prevalidation Label Auto Rejection Scheduled job: [v-acndev-sp17-201809114-v6-sf1975-assetteam]
2020-04-20 16:32:19 INFO  20180914134927276:2749 - End of deleting Prevalidation Label Auto Rejection Scheduled job
2020-04-21 17:44:23 INFO  20180914134927276:2741 - Process started for deleting Prevalidation Label Auto Rejection Scheduled job: [v-acndev-sp17-201809114-v6-sf1975-assetteam]
2020-04-21 17:44:23 INFO  20180914134927276:2749 - End of deleting Prevalidation Label Auto Rejection Scheduled job
2020-04-21 17:58:13 INFO  20180914134927276:2741 - Process started for deleting Prevalidation Label Auto Rejection Scheduled job: [v-acndev-sp17-201809114-v6-sf1975-assetteam]
2020-04-21 17:58:13 INFO  20180914134927276:2749 - End of deleting Prevalidation Label Auto Rejection Scheduled job
2020-04-21 18:06:02 INFO  20180914134927276:2741 - Process started for deleting Prevalidation Label Auto Rejection Scheduled job: [v-acndev-sp17-201809114-v6-sf1975-assetteam]
2020-04-21 18:06:02 INFO  20180914134927276:2749 - End of deleting Prevalidation Label Auto Rejection Scheduled job
