2020-04-18 16:40:12 INFO  20180917181413304:2741 - Process started for deleting Prevalidation Label Auto Rejection Scheduled job: [v-acndev-sp15-20180917-v1.6-sf4012-amenityaccesspe]
2020-04-18 16:40:12 INFO  20180917181413304:2749 - End of deleting Prevalidation Label Auto Rejection Scheduled job
2020-04-18 17:10:05 INFO  20180917181413304:2741 - Process started for deleting Prevalidation Label Auto Rejection Scheduled job: [v-acndev-sp15-20180917-v1.6-sf4012-amenityaccesspe]
2020-04-18 17:10:05 INFO  20180917181413304:2749 - End of deleting Prevalidation Label Auto Rejection Scheduled job
2020-04-18 18:42:32 INFO  20180917181413304:2741 - Process started for deleting Prevalidation Label Auto Rejection Scheduled job: [v-acndev-sp15-20180917-v1.6-sf4012-amenityaccesspe]
2020-04-18 18:42:32 INFO  20180917181413304:2749 - End of deleting Prevalidation Label Auto Rejection Scheduled job
2020-04-20 16:32:18 INFO  20180917181413304:2741 - Process started for deleting Prevalidation Label Auto Rejection Scheduled job: [v-acndev-sp15-20180917-v1.6-sf4012-amenityaccesspe]
2020-04-20 16:32:18 INFO  20180917181413304:2749 - End of deleting Prevalidation Label Auto Rejection Scheduled job
2020-04-21 17:44:22 INFO  20180917181413304:2741 - Process started for deleting Prevalidation Label Auto Rejection Scheduled job: [v-acndev-sp15-20180917-v1.6-sf4012-amenityaccesspe]
2020-04-21 17:44:22 INFO  20180917181413304:2749 - End of deleting Prevalidation Label Auto Rejection Scheduled job
2020-04-21 17:58:13 INFO  20180917181413304:2741 - Process started for deleting Prevalidation Label Auto Rejection Scheduled job: [v-acndev-sp15-20180917-v1.6-sf4012-amenityaccesspe]
2020-04-21 17:58:13 INFO  20180917181413304:2749 - End of deleting Prevalidation Label Auto Rejection Scheduled job
2020-04-21 18:06:02 INFO  20180917181413304:2741 - Process started for deleting Prevalidation Label Auto Rejection Scheduled job: [v-acndev-sp15-20180917-v1.6-sf4012-amenityaccesspe]
2020-04-21 18:06:02 INFO  20180917181413304:2749 - End of deleting Prevalidation Label Auto Rejection Scheduled job
