2020-04-18 16:40:13 INFO  20180927093056504:2741 - Process started for deleting Prevalidation Label Auto Rejection Scheduled job: [v-acndev-sp18-20180927-v2.1-sf2936-permissionsets]
2020-04-18 16:40:13 INFO  20180927093056504:2749 - End of deleting Prevalidation Label Auto Rejection Scheduled job
2020-04-18 17:10:06 INFO  20180927093056504:2741 - Process started for deleting Prevalidation Label Auto Rejection Scheduled job: [v-acndev-sp18-20180927-v2.1-sf2936-permissionsets]
2020-04-18 17:10:06 INFO  20180927093056504:2749 - End of deleting Prevalidation Label Auto Rejection Scheduled job
2020-04-18 18:42:34 INFO  20180927093056504:2741 - Process started for deleting Prevalidation Label Auto Rejection Scheduled job: [v-acndev-sp18-20180927-v2.1-sf2936-permissionsets]
2020-04-18 18:42:34 INFO  20180927093056504:2749 - End of deleting Prevalidation Label Auto Rejection Scheduled job
2020-04-20 16:32:20 INFO  20180927093056504:2741 - Process started for deleting Prevalidation Label Auto Rejection Scheduled job: [v-acndev-sp18-20180927-v2.1-sf2936-permissionsets]
2020-04-20 16:32:20 INFO  20180927093056504:2749 - End of deleting Prevalidation Label Auto Rejection Scheduled job
2020-04-21 17:44:24 INFO  20180927093056504:2741 - Process started for deleting Prevalidation Label Auto Rejection Scheduled job: [v-acndev-sp18-20180927-v2.1-sf2936-permissionsets]
2020-04-21 17:44:24 INFO  20180927093056504:2749 - End of deleting Prevalidation Label Auto Rejection Scheduled job
2020-04-21 17:58:13 INFO  20180927093056504:2741 - Process started for deleting Prevalidation Label Auto Rejection Scheduled job: [v-acndev-sp18-20180927-v2.1-sf2936-permissionsets]
2020-04-21 17:58:13 INFO  20180927093056504:2749 - End of deleting Prevalidation Label Auto Rejection Scheduled job
2020-04-21 18:06:02 INFO  20180927093056504:2741 - Process started for deleting Prevalidation Label Auto Rejection Scheduled job: [v-acndev-sp18-20180927-v2.1-sf2936-permissionsets]
2020-04-21 18:06:02 INFO  20180927093056504:2749 - End of deleting Prevalidation Label Auto Rejection Scheduled job
