2020-04-18 16:40:12 INFO  20180914115428988:2741 - Process started for deleting Prevalidation Label Auto Rejection Scheduled job: [v-acndev-sp17-20180914-v1-sf2927-marketvalueschange]
2020-04-18 16:40:12 INFO  20180914115428988:2749 - End of deleting Prevalidation Label Auto Rejection Scheduled job
2020-04-18 17:10:06 INFO  20180914115428988:2741 - Process started for deleting Prevalidation Label Auto Rejection Scheduled job: [v-acndev-sp17-20180914-v1-sf2927-marketvalueschange]
2020-04-18 17:10:06 INFO  20180914115428988:2749 - End of deleting Prevalidation Label Auto Rejection Scheduled job
2020-04-18 18:42:32 INFO  20180914115428988:2741 - Process started for deleting Prevalidation Label Auto Rejection Scheduled job: [v-acndev-sp17-20180914-v1-sf2927-marketvalueschange]
2020-04-18 18:42:32 INFO  20180914115428988:2749 - End of deleting Prevalidation Label Auto Rejection Scheduled job
2020-04-20 16:32:19 INFO  20180914115428988:2741 - Process started for deleting Prevalidation Label Auto Rejection Scheduled job: [v-acndev-sp17-20180914-v1-sf2927-marketvalueschange]
2020-04-20 16:32:19 INFO  20180914115428988:2749 - End of deleting Prevalidation Label Auto Rejection Scheduled job
2020-04-21 17:44:23 INFO  20180914115428988:2741 - Process started for deleting Prevalidation Label Auto Rejection Scheduled job: [v-acndev-sp17-20180914-v1-sf2927-marketvalueschange]
2020-04-21 17:44:23 INFO  20180914115428988:2749 - End of deleting Prevalidation Label Auto Rejection Scheduled job
2020-04-21 17:58:13 INFO  20180914115428988:2741 - Process started for deleting Prevalidation Label Auto Rejection Scheduled job: [v-acndev-sp17-20180914-v1-sf2927-marketvalueschange]
2020-04-21 17:58:13 INFO  20180914115428988:2749 - End of deleting Prevalidation Label Auto Rejection Scheduled job
2020-04-21 18:06:02 INFO  20180914115428988:2741 - Process started for deleting Prevalidation Label Auto Rejection Scheduled job: [v-acndev-sp17-20180914-v1-sf2927-marketvalueschange]
2020-04-21 18:06:02 INFO  20180914115428988:2749 - End of deleting Prevalidation Label Auto Rejection Scheduled job
