2020-04-18 16:40:14 INFO  20190108101817594:2741 - Process started for deleting Prevalidation Label Auto Rejection Scheduled job: [v-acndev-sp24-20190108-v1-sf5671-economicfields]
2020-04-18 16:40:14 INFO  20190108101817594:2749 - End of deleting Prevalidation Label Auto Rejection Scheduled job
2020-04-18 17:10:07 INFO  20190108101817594:2741 - Process started for deleting Prevalidation Label Auto Rejection Scheduled job: [v-acndev-sp24-20190108-v1-sf5671-economicfields]
2020-04-18 17:10:07 INFO  20190108101817594:2749 - End of deleting Prevalidation Label Auto Rejection Scheduled job
2020-04-18 18:42:48 INFO  20190108101817594:2741 - Process started for deleting Prevalidation Label Auto Rejection Scheduled job: [v-acndev-sp24-20190108-v1-sf5671-economicfields]
2020-04-18 18:42:48 INFO  20190108101817594:2749 - End of deleting Prevalidation Label Auto Rejection Scheduled job
2020-04-20 16:32:34 INFO  20190108101817594:2741 - Process started for deleting Prevalidation Label Auto Rejection Scheduled job: [v-acndev-sp24-20190108-v1-sf5671-economicfields]
2020-04-20 16:32:34 INFO  20190108101817594:2749 - End of deleting Prevalidation Label Auto Rejection Scheduled job
2020-04-21 17:44:45 INFO  20190108101817594:2741 - Process started for deleting Prevalidation Label Auto Rejection Scheduled job: [v-acndev-sp24-20190108-v1-sf5671-economicfields]
2020-04-21 17:44:46 INFO  20190108101817594:2749 - End of deleting Prevalidation Label Auto Rejection Scheduled job
2020-04-21 17:58:14 INFO  20190108101817594:2741 - Process started for deleting Prevalidation Label Auto Rejection Scheduled job: [v-acndev-sp24-20190108-v1-sf5671-economicfields]
2020-04-21 17:58:14 INFO  20190108101817594:2749 - End of deleting Prevalidation Label Auto Rejection Scheduled job
2020-04-21 18:06:03 INFO  20190108101817594:2741 - Process started for deleting Prevalidation Label Auto Rejection Scheduled job: [v-acndev-sp24-20190108-v1-sf5671-economicfields]
2020-04-21 18:06:03 INFO  20190108101817594:2749 - End of deleting Prevalidation Label Auto Rejection Scheduled job
