2020-04-18 16:40:13 INFO  20180928105836676:2741 - Process started for deleting Prevalidation Label Auto Rejection Scheduled job: [v-acndev-sp18-20180926-v4-sf3883-facilitiesmanagement]
2020-04-18 16:40:13 INFO  20180928105836676:2749 - End of deleting Prevalidation Label Auto Rejection Scheduled job
2020-04-18 17:10:06 INFO  20180928105836676:2741 - Process started for deleting Prevalidation Label Auto Rejection Scheduled job: [v-acndev-sp18-20180926-v4-sf3883-facilitiesmanagement]
2020-04-18 17:10:06 INFO  20180928105836676:2749 - End of deleting Prevalidation Label Auto Rejection Scheduled job
2020-04-18 18:42:34 INFO  20180928105836676:2741 - Process started for deleting Prevalidation Label Auto Rejection Scheduled job: [v-acndev-sp18-20180926-v4-sf3883-facilitiesmanagement]
2020-04-18 18:42:34 INFO  20180928105836676:2749 - End of deleting Prevalidation Label Auto Rejection Scheduled job
2020-04-20 16:32:20 INFO  20180928105836676:2741 - Process started for deleting Prevalidation Label Auto Rejection Scheduled job: [v-acndev-sp18-20180926-v4-sf3883-facilitiesmanagement]
2020-04-20 16:32:20 INFO  20180928105836676:2749 - End of deleting Prevalidation Label Auto Rejection Scheduled job
2020-04-21 17:44:24 INFO  20180928105836676:2741 - Process started for deleting Prevalidation Label Auto Rejection Scheduled job: [v-acndev-sp18-20180926-v4-sf3883-facilitiesmanagement]
2020-04-21 17:44:24 INFO  20180928105836676:2749 - End of deleting Prevalidation Label Auto Rejection Scheduled job
2020-04-21 17:58:13 INFO  20180928105836676:2741 - Process started for deleting Prevalidation Label Auto Rejection Scheduled job: [v-acndev-sp18-20180926-v4-sf3883-facilitiesmanagement]
2020-04-21 17:58:13 INFO  20180928105836676:2749 - End of deleting Prevalidation Label Auto Rejection Scheduled job
2020-04-21 18:06:02 INFO  20180928105836676:2741 - Process started for deleting Prevalidation Label Auto Rejection Scheduled job: [v-acndev-sp18-20180926-v4-sf3883-facilitiesmanagement]
2020-04-21 18:06:02 INFO  20180928105836676:2749 - End of deleting Prevalidation Label Auto Rejection Scheduled job
