2020-04-18 16:40:15 INFO  20190711143104933:2741 - Process started for deleting Prevalidation Label Auto Rejection Scheduled job: [v-acndev-uat2week12mid-20190711-v1-aggrpicklistandrecordtypes]
2020-04-18 16:40:15 INFO  20190711143104933:2749 - End of deleting Prevalidation Label Auto Rejection Scheduled job
2020-04-18 17:10:08 INFO  20190711143104933:2741 - Process started for deleting Prevalidation Label Auto Rejection Scheduled job: [v-acndev-uat2week12mid-20190711-v1-aggrpicklistandrecordtypes]
2020-04-18 17:10:08 INFO  20190711143104933:2749 - End of deleting Prevalidation Label Auto Rejection Scheduled job
2020-04-18 18:42:54 INFO  20190711143104933:2741 - Process started for deleting Prevalidation Label Auto Rejection Scheduled job: [v-acndev-uat2week12mid-20190711-v1-aggrpicklistandrecordtypes]
2020-04-18 18:42:54 INFO  20190711143104933:2749 - End of deleting Prevalidation Label Auto Rejection Scheduled job
2020-04-20 16:32:43 INFO  20190711143104933:2741 - Process started for deleting Prevalidation Label Auto Rejection Scheduled job: [v-acndev-uat2week12mid-20190711-v1-aggrpicklistandrecordtypes]
2020-04-20 16:32:43 INFO  20190711143104933:2749 - End of deleting Prevalidation Label Auto Rejection Scheduled job
2020-04-21 17:44:52 INFO  20190711143104933:2741 - Process started for deleting Prevalidation Label Auto Rejection Scheduled job: [v-acndev-uat2week12mid-20190711-v1-aggrpicklistandrecordtypes]
2020-04-21 17:44:52 INFO  20190711143104933:2749 - End of deleting Prevalidation Label Auto Rejection Scheduled job
2020-04-21 17:58:15 INFO  20190711143104933:2741 - Process started for deleting Prevalidation Label Auto Rejection Scheduled job: [v-acndev-uat2week12mid-20190711-v1-aggrpicklistandrecordtypes]
2020-04-21 17:58:15 INFO  20190711143104933:2749 - End of deleting Prevalidation Label Auto Rejection Scheduled job
2020-04-21 18:06:04 INFO  20190711143104933:2741 - Process started for deleting Prevalidation Label Auto Rejection Scheduled job: [v-acndev-uat2week12mid-20190711-v1-aggrpicklistandrecordtypes]
2020-04-21 18:06:04 INFO  20190711143104933:2749 - End of deleting Prevalidation Label Auto Rejection Scheduled job
