2020-04-18 18:42:29 INFO  20200418184229077:2741 - Process started for deleting Prevalidation Label Auto Rejection Scheduled job: [v-acndev-20180625-sp11-v9-defectfixes]
2020-04-18 18:42:29 INFO  20200418184229077:2749 - End of deleting Prevalidation Label Auto Rejection Scheduled job
2020-04-20 16:32:15 INFO  20200420163215828:2741 - Process started for deleting Prevalidation Label Auto Rejection Scheduled job: [v-acndev-20180625-sp11-v9-defectfixes]
2020-04-20 16:32:15 INFO  20200420163215828:2749 - End of deleting Prevalidation Label Auto Rejection Scheduled job
