2020-04-18 16:40:13 INFO  20181011151007561:2741 - Process started for deleting Prevalidation Label Auto Rejection Scheduled job: [v-acndev-sp19-20181011-v3.1-sf4434-flexipages]
2020-04-18 16:40:13 INFO  20181011151007561:2749 - End of deleting Prevalidation Label Auto Rejection Scheduled job
2020-04-18 17:10:06 INFO  20181011151007561:2741 - Process started for deleting Prevalidation Label Auto Rejection Scheduled job: [v-acndev-sp19-20181011-v3.1-sf4434-flexipages]
2020-04-18 17:10:06 INFO  20181011151007561:2749 - End of deleting Prevalidation Label Auto Rejection Scheduled job
2020-04-18 18:42:34 INFO  20181011151007561:2741 - Process started for deleting Prevalidation Label Auto Rejection Scheduled job: [v-acndev-sp19-20181011-v3.1-sf4434-flexipages]
2020-04-18 18:42:34 INFO  20181011151007561:2749 - End of deleting Prevalidation Label Auto Rejection Scheduled job
2020-04-20 16:32:20 INFO  20181011151007561:2741 - Process started for deleting Prevalidation Label Auto Rejection Scheduled job: [v-acndev-sp19-20181011-v3.1-sf4434-flexipages]
2020-04-20 16:32:20 INFO  20181011151007561:2749 - End of deleting Prevalidation Label Auto Rejection Scheduled job
2020-04-21 17:44:24 INFO  20181011151007561:2741 - Process started for deleting Prevalidation Label Auto Rejection Scheduled job: [v-acndev-sp19-20181011-v3.1-sf4434-flexipages]
2020-04-21 17:44:24 INFO  20181011151007561:2749 - End of deleting Prevalidation Label Auto Rejection Scheduled job
2020-04-21 17:58:13 INFO  20181011151007561:2741 - Process started for deleting Prevalidation Label Auto Rejection Scheduled job: [v-acndev-sp19-20181011-v3.1-sf4434-flexipages]
2020-04-21 17:58:13 INFO  20181011151007561:2749 - End of deleting Prevalidation Label Auto Rejection Scheduled job
2020-04-21 18:06:03 INFO  20181011151007561:2741 - Process started for deleting Prevalidation Label Auto Rejection Scheduled job: [v-acndev-sp19-20181011-v3.1-sf4434-flexipages]
2020-04-21 18:06:03 INFO  20181011151007561:2749 - End of deleting Prevalidation Label Auto Rejection Scheduled job
