2020-04-18 16:40:12 INFO  20181209172406499:2741 - Process started for deleting Prevalidation Label Auto Rejection Scheduled job: [v-acndev-sp10-20181209-v2-sf5314-customerportaltaskcreation]
2020-04-18 16:40:12 INFO  20181209172406499:2749 - End of deleting Prevalidation Label Auto Rejection Scheduled job
2020-04-18 17:10:05 INFO  20181209172406499:2741 - Process started for deleting Prevalidation Label Auto Rejection Scheduled job: [v-acndev-sp10-20181209-v2-sf5314-customerportaltaskcreation]
2020-04-18 17:10:05 INFO  20181209172406499:2749 - End of deleting Prevalidation Label Auto Rejection Scheduled job
2020-04-18 18:42:29 INFO  20181209172406499:2741 - Process started for deleting Prevalidation Label Auto Rejection Scheduled job: [v-acndev-sp10-20181209-v2-sf5314-customerportaltaskcreation]
2020-04-18 18:42:29 INFO  20181209172406499:2749 - End of deleting Prevalidation Label Auto Rejection Scheduled job
2020-04-20 16:32:17 INFO  20181209172406499:2741 - Process started for deleting Prevalidation Label Auto Rejection Scheduled job: [v-acndev-sp10-20181209-v2-sf5314-customerportaltaskcreation]
2020-04-20 16:32:17 INFO  20181209172406499:2749 - End of deleting Prevalidation Label Auto Rejection Scheduled job
2020-04-21 17:44:07 INFO  20181209172406499:2741 - Process started for deleting Prevalidation Label Auto Rejection Scheduled job: [v-acndev-sp10-20181209-v2-sf5314-customerportaltaskcreation]
2020-04-21 17:44:07 INFO  20181209172406499:2749 - End of deleting Prevalidation Label Auto Rejection Scheduled job
2020-04-21 17:58:13 INFO  20181209172406499:2741 - Process started for deleting Prevalidation Label Auto Rejection Scheduled job: [v-acndev-sp10-20181209-v2-sf5314-customerportaltaskcreation]
2020-04-21 17:58:13 INFO  20181209172406499:2749 - End of deleting Prevalidation Label Auto Rejection Scheduled job
2020-04-21 18:06:02 INFO  20181209172406499:2741 - Process started for deleting Prevalidation Label Auto Rejection Scheduled job: [v-acndev-sp10-20181209-v2-sf5314-customerportaltaskcreation]
2020-04-21 18:06:02 INFO  20181209172406499:2749 - End of deleting Prevalidation Label Auto Rejection Scheduled job
