2020-04-18 16:40:13 INFO  20181120160303346:2741 - Process started for deleting Prevalidation Label Auto Rejection Scheduled job: [v-acndev-sp19-20181110-v2-cijobfailures]
2020-04-18 16:40:13 INFO  20181120160303346:2749 - End of deleting Prevalidation Label Auto Rejection Scheduled job
2020-04-18 17:10:06 INFO  20181120160303346:2741 - Process started for deleting Prevalidation Label Auto Rejection Scheduled job: [v-acndev-sp19-20181110-v2-cijobfailures]
2020-04-18 17:10:06 INFO  20181120160303346:2749 - End of deleting Prevalidation Label Auto Rejection Scheduled job
2020-04-18 18:42:35 INFO  20181120160303346:2741 - Process started for deleting Prevalidation Label Auto Rejection Scheduled job: [v-acndev-sp19-20181110-v2-cijobfailures]
2020-04-18 18:42:35 INFO  20181120160303346:2749 - End of deleting Prevalidation Label Auto Rejection Scheduled job
2020-04-20 16:32:21 INFO  20181120160303346:2741 - Process started for deleting Prevalidation Label Auto Rejection Scheduled job: [v-acndev-sp19-20181110-v2-cijobfailures]
2020-04-20 16:32:21 INFO  20181120160303346:2749 - End of deleting Prevalidation Label Auto Rejection Scheduled job
2020-04-21 17:44:25 INFO  20181120160303346:2741 - Process started for deleting Prevalidation Label Auto Rejection Scheduled job: [v-acndev-sp19-20181110-v2-cijobfailures]
2020-04-21 17:44:25 INFO  20181120160303346:2749 - End of deleting Prevalidation Label Auto Rejection Scheduled job
2020-04-21 17:58:13 INFO  20181120160303346:2741 - Process started for deleting Prevalidation Label Auto Rejection Scheduled job: [v-acndev-sp19-20181110-v2-cijobfailures]
2020-04-21 17:58:13 INFO  20181120160303346:2749 - End of deleting Prevalidation Label Auto Rejection Scheduled job
2020-04-21 18:06:03 INFO  20181120160303346:2741 - Process started for deleting Prevalidation Label Auto Rejection Scheduled job: [v-acndev-sp19-20181110-v2-cijobfailures]
2020-04-21 18:06:03 INFO  20181120160303346:2749 - End of deleting Prevalidation Label Auto Rejection Scheduled job
