2020-04-18 16:40:14 INFO  20181127104114497:2741 - Process started for deleting Prevalidation Label Auto Rejection Scheduled job: [v-acndev-sp22-20181127-v1-sf-5707-leasecomparableobject]
2020-04-18 16:40:14 INFO  20181127104114497:2749 - End of deleting Prevalidation Label Auto Rejection Scheduled job
2020-04-18 17:10:07 INFO  20181127104114497:2741 - Process started for deleting Prevalidation Label Auto Rejection Scheduled job: [v-acndev-sp22-20181127-v1-sf-5707-leasecomparableobject]
2020-04-18 17:10:07 INFO  20181127104114497:2749 - End of deleting Prevalidation Label Auto Rejection Scheduled job
2020-04-18 18:42:47 INFO  20181127104114497:2741 - Process started for deleting Prevalidation Label Auto Rejection Scheduled job: [v-acndev-sp22-20181127-v1-sf-5707-leasecomparableobject]
2020-04-18 18:42:47 INFO  20181127104114497:2749 - End of deleting Prevalidation Label Auto Rejection Scheduled job
2020-04-20 16:32:33 INFO  20181127104114497:2741 - Process started for deleting Prevalidation Label Auto Rejection Scheduled job: [v-acndev-sp22-20181127-v1-sf-5707-leasecomparableobject]
2020-04-20 16:32:33 INFO  20181127104114497:2749 - End of deleting Prevalidation Label Auto Rejection Scheduled job
2020-04-21 17:44:41 INFO  20181127104114497:2741 - Process started for deleting Prevalidation Label Auto Rejection Scheduled job: [v-acndev-sp22-20181127-v1-sf-5707-leasecomparableobject]
2020-04-21 17:44:41 INFO  20181127104114497:2749 - End of deleting Prevalidation Label Auto Rejection Scheduled job
2020-04-21 17:58:14 INFO  20181127104114497:2741 - Process started for deleting Prevalidation Label Auto Rejection Scheduled job: [v-acndev-sp22-20181127-v1-sf-5707-leasecomparableobject]
2020-04-21 17:58:14 INFO  20181127104114497:2749 - End of deleting Prevalidation Label Auto Rejection Scheduled job
2020-04-21 18:06:03 INFO  20181127104114497:2741 - Process started for deleting Prevalidation Label Auto Rejection Scheduled job: [v-acndev-sp22-20181127-v1-sf-5707-leasecomparableobject]
2020-04-21 18:06:03 INFO  20181127104114497:2749 - End of deleting Prevalidation Label Auto Rejection Scheduled job
