2020-04-18 16:40:15 INFO  20181030070118270:2741 - Process started for deleting Prevalidation Label Auto Rejection Scheduled job: [v-acndev-sp8-20181030-v3-apttuscomponents]
2020-04-18 16:40:15 INFO  20181030070118270:2749 - End of deleting Prevalidation Label Auto Rejection Scheduled job
2020-04-18 17:10:08 INFO  20181030070118270:2741 - Process started for deleting Prevalidation Label Auto Rejection Scheduled job: [v-acndev-sp8-20181030-v3-apttuscomponents]
2020-04-18 17:10:08 INFO  20181030070118270:2749 - End of deleting Prevalidation Label Auto Rejection Scheduled job
2020-04-18 18:42:53 INFO  20181030070118270:2741 - Process started for deleting Prevalidation Label Auto Rejection Scheduled job: [v-acndev-sp8-20181030-v3-apttuscomponents]
2020-04-18 18:42:53 INFO  20181030070118270:2749 - End of deleting Prevalidation Label Auto Rejection Scheduled job
2020-04-20 16:32:43 INFO  20181030070118270:2741 - Process started for deleting Prevalidation Label Auto Rejection Scheduled job: [v-acndev-sp8-20181030-v3-apttuscomponents]
2020-04-20 16:32:43 INFO  20181030070118270:2749 - End of deleting Prevalidation Label Auto Rejection Scheduled job
2020-04-21 17:44:51 INFO  20181030070118270:2741 - Process started for deleting Prevalidation Label Auto Rejection Scheduled job: [v-acndev-sp8-20181030-v3-apttuscomponents]
2020-04-21 17:44:51 INFO  20181030070118270:2749 - End of deleting Prevalidation Label Auto Rejection Scheduled job
2020-04-21 17:58:15 INFO  20181030070118270:2741 - Process started for deleting Prevalidation Label Auto Rejection Scheduled job: [v-acndev-sp8-20181030-v3-apttuscomponents]
2020-04-21 17:58:15 INFO  20181030070118270:2749 - End of deleting Prevalidation Label Auto Rejection Scheduled job
2020-04-21 18:06:04 INFO  20181030070118270:2741 - Process started for deleting Prevalidation Label Auto Rejection Scheduled job: [v-acndev-sp8-20181030-v3-apttuscomponents]
2020-04-21 18:06:04 INFO  20181030070118270:2749 - End of deleting Prevalidation Label Auto Rejection Scheduled job
