2020-04-18 16:40:14 INFO  20190103112224152:2741 - Process started for deleting Prevalidation Label Auto Rejection Scheduled job: [v-acndev-sp24-20190103-sf6078-v1.1-accountcustomerexperienceadvocatebaseline]
2020-04-18 16:40:14 INFO  20190103112224152:2749 - End of deleting Prevalidation Label Auto Rejection Scheduled job
2020-04-18 17:10:07 INFO  20190103112224152:2741 - Process started for deleting Prevalidation Label Auto Rejection Scheduled job: [v-acndev-sp24-20190103-sf6078-v1.1-accountcustomerexperienceadvocatebaseline]
2020-04-18 17:10:07 INFO  20190103112224152:2749 - End of deleting Prevalidation Label Auto Rejection Scheduled job
2020-04-18 18:42:48 INFO  20190103112224152:2741 - Process started for deleting Prevalidation Label Auto Rejection Scheduled job: [v-acndev-sp24-20190103-sf6078-v1.1-accountcustomerexperienceadvocatebaseline]
2020-04-18 18:42:48 INFO  20190103112224152:2749 - End of deleting Prevalidation Label Auto Rejection Scheduled job
2020-04-20 16:32:34 INFO  20190103112224152:2741 - Process started for deleting Prevalidation Label Auto Rejection Scheduled job: [v-acndev-sp24-20190103-sf6078-v1.1-accountcustomerexperienceadvocatebaseline]
2020-04-20 16:32:34 INFO  20190103112224152:2749 - End of deleting Prevalidation Label Auto Rejection Scheduled job
2020-04-21 17:44:42 INFO  20190103112224152:2741 - Process started for deleting Prevalidation Label Auto Rejection Scheduled job: [v-acndev-sp24-20190103-sf6078-v1.1-accountcustomerexperienceadvocatebaseline]
2020-04-21 17:44:42 INFO  20190103112224152:2749 - End of deleting Prevalidation Label Auto Rejection Scheduled job
2020-04-21 17:58:14 INFO  20190103112224152:2741 - Process started for deleting Prevalidation Label Auto Rejection Scheduled job: [v-acndev-sp24-20190103-sf6078-v1.1-accountcustomerexperienceadvocatebaseline]
2020-04-21 17:58:14 INFO  20190103112224152:2749 - End of deleting Prevalidation Label Auto Rejection Scheduled job
2020-04-21 18:06:03 INFO  20190103112224152:2741 - Process started for deleting Prevalidation Label Auto Rejection Scheduled job: [v-acndev-sp24-20190103-sf6078-v1.1-accountcustomerexperienceadvocatebaseline]
2020-04-21 18:06:03 INFO  20190103112224152:2749 - End of deleting Prevalidation Label Auto Rejection Scheduled job
