2020-04-18 16:40:14 INFO  20190406062213478:2741 - Process started for deleting Prevalidation Label Auto Rejection Scheduled job: [v-acndev-sp30-20190406-v2-sharingrules]
2020-04-18 16:40:14 INFO  20190406062213478:2749 - End of deleting Prevalidation Label Auto Rejection Scheduled job
2020-04-18 17:10:08 INFO  20190406062213478:2741 - Process started for deleting Prevalidation Label Auto Rejection Scheduled job: [v-acndev-sp30-20190406-v2-sharingrules]
2020-04-18 17:10:08 INFO  20190406062213478:2749 - End of deleting Prevalidation Label Auto Rejection Scheduled job
2020-04-18 18:42:52 INFO  20190406062213478:2741 - Process started for deleting Prevalidation Label Auto Rejection Scheduled job: [v-acndev-sp30-20190406-v2-sharingrules]
2020-04-18 18:42:52 INFO  20190406062213478:2749 - End of deleting Prevalidation Label Auto Rejection Scheduled job
2020-04-20 16:32:40 INFO  20190406062213478:2741 - Process started for deleting Prevalidation Label Auto Rejection Scheduled job: [v-acndev-sp30-20190406-v2-sharingrules]
2020-04-20 16:32:40 INFO  20190406062213478:2749 - End of deleting Prevalidation Label Auto Rejection Scheduled job
2020-04-21 17:44:50 INFO  20190406062213478:2741 - Process started for deleting Prevalidation Label Auto Rejection Scheduled job: [v-acndev-sp30-20190406-v2-sharingrules]
2020-04-21 17:44:50 INFO  20190406062213478:2749 - End of deleting Prevalidation Label Auto Rejection Scheduled job
2020-04-21 17:58:14 INFO  20190406062213478:2741 - Process started for deleting Prevalidation Label Auto Rejection Scheduled job: [v-acndev-sp30-20190406-v2-sharingrules]
2020-04-21 17:58:14 INFO  20190406062213478:2749 - End of deleting Prevalidation Label Auto Rejection Scheduled job
2020-04-21 18:06:04 INFO  20190406062213478:2741 - Process started for deleting Prevalidation Label Auto Rejection Scheduled job: [v-acndev-sp30-20190406-v2-sharingrules]
2020-04-21 18:06:04 INFO  20190406062213478:2749 - End of deleting Prevalidation Label Auto Rejection Scheduled job
