2020-04-18 16:40:14 INFO  20190317095720625:2741 - Process started for deleting Prevalidation Label Auto Rejection Scheduled job: [v-acndev-sp29-20190317-v1-validationrules]
2020-04-18 16:40:14 INFO  20190317095720625:2749 - End of deleting Prevalidation Label Auto Rejection Scheduled job
2020-04-18 17:10:08 INFO  20190317095720625:2741 - Process started for deleting Prevalidation Label Auto Rejection Scheduled job: [v-acndev-sp29-20190317-v1-validationrules]
2020-04-18 17:10:08 INFO  20190317095720625:2749 - End of deleting Prevalidation Label Auto Rejection Scheduled job
2020-04-18 18:42:51 INFO  20190317095720625:2741 - Process started for deleting Prevalidation Label Auto Rejection Scheduled job: [v-acndev-sp29-20190317-v1-validationrules]
2020-04-18 18:42:51 INFO  20190317095720625:2749 - End of deleting Prevalidation Label Auto Rejection Scheduled job
2020-04-20 16:32:35 INFO  20190317095720625:2741 - Process started for deleting Prevalidation Label Auto Rejection Scheduled job: [v-acndev-sp29-20190317-v1-validationrules]
2020-04-20 16:32:35 INFO  20190317095720625:2749 - End of deleting Prevalidation Label Auto Rejection Scheduled job
2020-04-21 17:44:50 INFO  20190317095720625:2741 - Process started for deleting Prevalidation Label Auto Rejection Scheduled job: [v-acndev-sp29-20190317-v1-validationrules]
2020-04-21 17:44:50 INFO  20190317095720625:2749 - End of deleting Prevalidation Label Auto Rejection Scheduled job
2020-04-21 17:58:14 INFO  20190317095720625:2741 - Process started for deleting Prevalidation Label Auto Rejection Scheduled job: [v-acndev-sp29-20190317-v1-validationrules]
2020-04-21 17:58:14 INFO  20190317095720625:2749 - End of deleting Prevalidation Label Auto Rejection Scheduled job
2020-04-21 18:06:03 INFO  20190317095720625:2741 - Process started for deleting Prevalidation Label Auto Rejection Scheduled job: [v-acndev-sp29-20190317-v1-validationrules]
2020-04-21 18:06:03 INFO  20190317095720625:2749 - End of deleting Prevalidation Label Auto Rejection Scheduled job
