2020-04-18 16:40:13 INFO  20181205135709137:2741 - Process started for deleting Prevalidation Label Auto Rejection Scheduled job: [v-acndev-sp21-20181205-v1-datagovernancefields]
2020-04-18 16:40:13 INFO  20181205135709137:2749 - End of deleting Prevalidation Label Auto Rejection Scheduled job
2020-04-18 17:10:07 INFO  20181205135709137:2741 - Process started for deleting Prevalidation Label Auto Rejection Scheduled job: [v-acndev-sp21-20181205-v1-datagovernancefields]
2020-04-18 17:10:07 INFO  20181205135709137:2749 - End of deleting Prevalidation Label Auto Rejection Scheduled job
2020-04-18 18:42:46 INFO  20181205135709137:2741 - Process started for deleting Prevalidation Label Auto Rejection Scheduled job: [v-acndev-sp21-20181205-v1-datagovernancefields]
2020-04-18 18:42:46 INFO  20181205135709137:2749 - End of deleting Prevalidation Label Auto Rejection Scheduled job
2020-04-20 16:32:32 INFO  20181205135709137:2741 - Process started for deleting Prevalidation Label Auto Rejection Scheduled job: [v-acndev-sp21-20181205-v1-datagovernancefields]
2020-04-20 16:32:32 INFO  20181205135709137:2749 - End of deleting Prevalidation Label Auto Rejection Scheduled job
2020-04-21 17:44:41 INFO  20181205135709137:2741 - Process started for deleting Prevalidation Label Auto Rejection Scheduled job: [v-acndev-sp21-20181205-v1-datagovernancefields]
2020-04-21 17:44:41 INFO  20181205135709137:2749 - End of deleting Prevalidation Label Auto Rejection Scheduled job
2020-04-21 17:58:14 INFO  20181205135709137:2741 - Process started for deleting Prevalidation Label Auto Rejection Scheduled job: [v-acndev-sp21-20181205-v1-datagovernancefields]
2020-04-21 17:58:14 INFO  20181205135709137:2749 - End of deleting Prevalidation Label Auto Rejection Scheduled job
2020-04-21 18:06:03 INFO  20181205135709137:2741 - Process started for deleting Prevalidation Label Auto Rejection Scheduled job: [v-acndev-sp21-20181205-v1-datagovernancefields]
2020-04-21 18:06:03 INFO  20181205135709137:2749 - End of deleting Prevalidation Label Auto Rejection Scheduled job
