2020-04-18 16:40:14 INFO  20190207121849908:2741 - Process started for deleting Prevalidation Label Auto Rejection Scheduled job: [v-acndev-sp25sp13-20190702-v1.4-dmgfieldsintegrationanddm]
2020-04-18 16:40:14 INFO  20190207121849908:2749 - End of deleting Prevalidation Label Auto Rejection Scheduled job
2020-04-18 17:10:07 INFO  20190207121849908:2741 - Process started for deleting Prevalidation Label Auto Rejection Scheduled job: [v-acndev-sp25sp13-20190702-v1.4-dmgfieldsintegrationanddm]
2020-04-18 17:10:07 INFO  20190207121849908:2749 - End of deleting Prevalidation Label Auto Rejection Scheduled job
2020-04-18 18:42:48 INFO  20190207121849908:2741 - Process started for deleting Prevalidation Label Auto Rejection Scheduled job: [v-acndev-sp25sp13-20190702-v1.4-dmgfieldsintegrationanddm]
2020-04-18 18:42:48 INFO  20190207121849908:2749 - End of deleting Prevalidation Label Auto Rejection Scheduled job
2020-04-20 16:32:34 INFO  20190207121849908:2741 - Process started for deleting Prevalidation Label Auto Rejection Scheduled job: [v-acndev-sp25sp13-20190702-v1.4-dmgfieldsintegrationanddm]
2020-04-20 16:32:34 INFO  20190207121849908:2749 - End of deleting Prevalidation Label Auto Rejection Scheduled job
2020-04-21 17:44:49 INFO  20190207121849908:2741 - Process started for deleting Prevalidation Label Auto Rejection Scheduled job: [v-acndev-sp25sp13-20190702-v1.4-dmgfieldsintegrationanddm]
2020-04-21 17:44:49 INFO  20190207121849908:2749 - End of deleting Prevalidation Label Auto Rejection Scheduled job
2020-04-21 17:58:14 INFO  20190207121849908:2741 - Process started for deleting Prevalidation Label Auto Rejection Scheduled job: [v-acndev-sp25sp13-20190702-v1.4-dmgfieldsintegrationanddm]
2020-04-21 17:58:14 INFO  20190207121849908:2749 - End of deleting Prevalidation Label Auto Rejection Scheduled job
2020-04-21 18:06:03 INFO  20190207121849908:2741 - Process started for deleting Prevalidation Label Auto Rejection Scheduled job: [v-acndev-sp25sp13-20190702-v1.4-dmgfieldsintegrationanddm]
2020-04-21 18:06:03 INFO  20190207121849908:2749 - End of deleting Prevalidation Label Auto Rejection Scheduled job
