2020-04-18 16:40:12 INFO  20180928133347438:2741 - Process started for deleting Prevalidation Label Auto Rejection Scheduled job: [v-acndev-sp16-20180928-v1-sf4480-listview]
2020-04-18 16:40:12 INFO  20180928133347438:2749 - End of deleting Prevalidation Label Auto Rejection Scheduled job
2020-04-18 17:10:05 INFO  20180928133347438:2741 - Process started for deleting Prevalidation Label Auto Rejection Scheduled job: [v-acndev-sp16-20180928-v1-sf4480-listview]
2020-04-18 17:10:06 INFO  20180928133347438:2749 - End of deleting Prevalidation Label Auto Rejection Scheduled job
2020-04-18 18:42:32 INFO  20180928133347438:2741 - Process started for deleting Prevalidation Label Auto Rejection Scheduled job: [v-acndev-sp16-20180928-v1-sf4480-listview]
2020-04-18 18:42:32 INFO  20180928133347438:2749 - End of deleting Prevalidation Label Auto Rejection Scheduled job
2020-04-20 16:32:18 INFO  20180928133347438:2741 - Process started for deleting Prevalidation Label Auto Rejection Scheduled job: [v-acndev-sp16-20180928-v1-sf4480-listview]
2020-04-20 16:32:18 INFO  20180928133347438:2749 - End of deleting Prevalidation Label Auto Rejection Scheduled job
2020-04-21 17:44:22 INFO  20180928133347438:2741 - Process started for deleting Prevalidation Label Auto Rejection Scheduled job: [v-acndev-sp16-20180928-v1-sf4480-listview]
2020-04-21 17:44:22 INFO  20180928133347438:2749 - End of deleting Prevalidation Label Auto Rejection Scheduled job
2020-04-21 17:58:13 INFO  20180928133347438:2741 - Process started for deleting Prevalidation Label Auto Rejection Scheduled job: [v-acndev-sp16-20180928-v1-sf4480-listview]
2020-04-21 17:58:13 INFO  20180928133347438:2749 - End of deleting Prevalidation Label Auto Rejection Scheduled job
2020-04-21 18:06:02 INFO  20180928133347438:2741 - Process started for deleting Prevalidation Label Auto Rejection Scheduled job: [v-acndev-sp16-20180928-v1-sf4480-listview]
2020-04-21 18:06:02 INFO  20180928133347438:2749 - End of deleting Prevalidation Label Auto Rejection Scheduled job
