2020-04-18 16:40:15 INFO  20180918233004736:2741 - Process started for deleting Prevalidation Label Auto Rejection Scheduled job: [v-evdev-sp1-20180918-v5-worklife-triggers]
2020-04-18 16:40:15 INFO  20180918233004736:2749 - End of deleting Prevalidation Label Auto Rejection Scheduled job
2020-04-18 17:10:08 INFO  20180918233004736:2741 - Process started for deleting Prevalidation Label Auto Rejection Scheduled job: [v-evdev-sp1-20180918-v5-worklife-triggers]
2020-04-18 17:10:08 INFO  20180918233004736:2749 - End of deleting Prevalidation Label Auto Rejection Scheduled job
2020-04-18 18:43:04 INFO  20180918233004736:2741 - Process started for deleting Prevalidation Label Auto Rejection Scheduled job: [v-evdev-sp1-20180918-v5-worklife-triggers]
2020-04-18 18:43:04 INFO  20180918233004736:2749 - End of deleting Prevalidation Label Auto Rejection Scheduled job
2020-04-20 16:32:53 INFO  20180918233004736:2741 - Process started for deleting Prevalidation Label Auto Rejection Scheduled job: [v-evdev-sp1-20180918-v5-worklife-triggers]
2020-04-20 16:32:53 INFO  20180918233004736:2749 - End of deleting Prevalidation Label Auto Rejection Scheduled job
2020-04-21 17:44:55 INFO  20180918233004736:2741 - Process started for deleting Prevalidation Label Auto Rejection Scheduled job: [v-evdev-sp1-20180918-v5-worklife-triggers]
2020-04-21 17:44:56 INFO  20180918233004736:2749 - End of deleting Prevalidation Label Auto Rejection Scheduled job
2020-04-21 17:58:15 INFO  20180918233004736:2741 - Process started for deleting Prevalidation Label Auto Rejection Scheduled job: [v-evdev-sp1-20180918-v5-worklife-triggers]
2020-04-21 17:58:15 INFO  20180918233004736:2749 - End of deleting Prevalidation Label Auto Rejection Scheduled job
2020-04-21 18:06:04 INFO  20180918233004736:2741 - Process started for deleting Prevalidation Label Auto Rejection Scheduled job: [v-evdev-sp1-20180918-v5-worklife-triggers]
2020-04-21 18:06:04 INFO  20180918233004736:2749 - End of deleting Prevalidation Label Auto Rejection Scheduled job
