2020-04-18 16:40:15 INFO  20190730185936940:2741 - Process started for deleting Prevalidation Label Auto Rejection Scheduled job: [v-qacore-uat2hotfixweek15-20190731-v1-dashboard]
2020-04-18 16:40:15 INFO  20190730185936940:2749 - End of deleting Prevalidation Label Auto Rejection Scheduled job
2020-04-18 17:10:08 INFO  20190730185936940:2741 - Process started for deleting Prevalidation Label Auto Rejection Scheduled job: [v-qacore-uat2hotfixweek15-20190731-v1-dashboard]
2020-04-18 17:10:08 INFO  20190730185936940:2749 - End of deleting Prevalidation Label Auto Rejection Scheduled job
2020-04-18 18:43:05 INFO  20190730185936940:2741 - Process started for deleting Prevalidation Label Auto Rejection Scheduled job: [v-qacore-uat2hotfixweek15-20190731-v1-dashboard]
2020-04-18 18:43:05 INFO  20190730185936940:2749 - End of deleting Prevalidation Label Auto Rejection Scheduled job
2020-04-20 16:32:53 INFO  20190730185936940:2741 - Process started for deleting Prevalidation Label Auto Rejection Scheduled job: [v-qacore-uat2hotfixweek15-20190731-v1-dashboard]
2020-04-20 16:32:53 INFO  20190730185936940:2749 - End of deleting Prevalidation Label Auto Rejection Scheduled job
2020-04-21 17:44:57 INFO  20190730185936940:2741 - Process started for deleting Prevalidation Label Auto Rejection Scheduled job: [v-qacore-uat2hotfixweek15-20190731-v1-dashboard]
2020-04-21 17:44:57 INFO  20190730185936940:2749 - End of deleting Prevalidation Label Auto Rejection Scheduled job
2020-04-21 17:58:15 INFO  20190730185936940:2741 - Process started for deleting Prevalidation Label Auto Rejection Scheduled job: [v-qacore-uat2hotfixweek15-20190731-v1-dashboard]
2020-04-21 17:58:15 INFO  20190730185936940:2749 - End of deleting Prevalidation Label Auto Rejection Scheduled job
2020-04-21 18:06:04 INFO  20190730185936940:2741 - Process started for deleting Prevalidation Label Auto Rejection Scheduled job: [v-qacore-uat2hotfixweek15-20190731-v1-dashboard]
2020-04-21 18:06:04 INFO  20190730185936940:2749 - End of deleting Prevalidation Label Auto Rejection Scheduled job
