2020-04-18 16:40:16 INFO  20190803132446998:2741 - Process started for deleting Prevalidation Label Auto Rejection Scheduled job: [v-uat-reports-20190803-v1.6-cyreports3]
2020-04-18 16:40:16 INFO  20190803132446998:2749 - End of deleting Prevalidation Label Auto Rejection Scheduled job
2020-04-18 17:10:09 INFO  20190803132446998:2741 - Process started for deleting Prevalidation Label Auto Rejection Scheduled job: [v-uat-reports-20190803-v1.6-cyreports3]
2020-04-18 17:10:09 INFO  20190803132446998:2749 - End of deleting Prevalidation Label Auto Rejection Scheduled job
2020-04-18 18:43:05 INFO  20190803132446998:2741 - Process started for deleting Prevalidation Label Auto Rejection Scheduled job: [v-uat-reports-20190803-v1.6-cyreports3]
2020-04-18 18:43:05 INFO  20190803132446998:2749 - End of deleting Prevalidation Label Auto Rejection Scheduled job
2020-04-20 16:32:53 INFO  20190803132446998:2741 - Process started for deleting Prevalidation Label Auto Rejection Scheduled job: [v-uat-reports-20190803-v1.6-cyreports3]
2020-04-20 16:32:53 INFO  20190803132446998:2749 - End of deleting Prevalidation Label Auto Rejection Scheduled job
2020-04-21 17:44:58 INFO  20190803132446998:2741 - Process started for deleting Prevalidation Label Auto Rejection Scheduled job: [v-uat-reports-20190803-v1.6-cyreports3]
2020-04-21 17:44:58 INFO  20190803132446998:2749 - End of deleting Prevalidation Label Auto Rejection Scheduled job
2020-04-21 17:58:15 INFO  20190803132446998:2741 - Process started for deleting Prevalidation Label Auto Rejection Scheduled job: [v-uat-reports-20190803-v1.6-cyreports3]
2020-04-21 17:58:15 INFO  20190803132446998:2749 - End of deleting Prevalidation Label Auto Rejection Scheduled job
2020-04-21 18:06:04 INFO  20190803132446998:2741 - Process started for deleting Prevalidation Label Auto Rejection Scheduled job: [v-uat-reports-20190803-v1.6-cyreports3]
2020-04-21 18:06:04 INFO  20190803132446998:2749 - End of deleting Prevalidation Label Auto Rejection Scheduled job
