2020-04-18 16:40:16 INFO  20200418164016091:2741 - Process started for deleting Prevalidation Label Auto Rejection Scheduled job: v-acndec-20180619-integration changes v4
2020-04-18 16:40:16 INFO  20200418164016091:2749 - End of deleting Prevalidation Label Auto Rejection Scheduled job
2020-04-18 17:10:09 INFO  20200418171009050:2741 - Process started for deleting Prevalidation Label Auto Rejection Scheduled job: v-acndec-20180619-integration changes v4
2020-04-18 17:10:09 INFO  20200418171009050:2749 - End of deleting Prevalidation Label Auto Rejection Scheduled job
2020-04-18 17:10:09 INFO  20200418171009050:2741 - Process started for deleting Prevalidation Label Auto Rejection Scheduled job: v-acndec-20180619-integration changes v5
2020-04-18 17:10:09 INFO  20200418171009050:2749 - End of deleting Prevalidation Label Auto Rejection Scheduled job
2020-04-20 16:32:53 INFO  20200420163253927:2741 - Process started for deleting Prevalidation Label Auto Rejection Scheduled job: v-acndec-20180619-integration changes v4
2020-04-20 16:32:53 INFO  20200420163253927:2749 - End of deleting Prevalidation Label Auto Rejection Scheduled job
2020-04-21 17:44:58 INFO  20200421174458490:2741 - Process started for deleting Prevalidation Label Auto Rejection Scheduled job: v-acndec-20180619-integration changes v4
2020-04-21 17:44:58 INFO  20200421174458490:2749 - End of deleting Prevalidation Label Auto Rejection Scheduled job
