2020-04-18 16:40:16 INFO  20200418164016491:2741 - Process started for deleting Prevalidation Label Auto Rejection Scheduled job: v-acndev-sp15-20180819-v7-sf3067-operationspermissionsets
2020-04-18 16:40:16 INFO  20200418164016491:2749 - End of deleting Prevalidation Label Auto Rejection Scheduled job
2020-04-18 16:40:16 INFO  20200418164016491:2741 - Process started for deleting Prevalidation Label Auto Rejection Scheduled job: v-acndev-sp15-20180819-v7-sf3067-suitewrapper
2020-04-18 16:40:16 INFO  20200418164016491:2749 - End of deleting Prevalidation Label Auto Rejection Scheduled job
2020-04-21 17:58:24 INFO  20200421175824418:2741 - Process started for deleting Prevalidation Label Auto Rejection Scheduled job: v-acndev-sp15-20180819-v7-sf3067-operationspermissionsets
2020-04-21 17:58:24 INFO  20200421175824418:2749 - End of deleting Prevalidation Label Auto Rejection Scheduled job
2020-04-21 18:06:06 INFO  20200421180606866:2741 - Process started for deleting Prevalidation Label Auto Rejection Scheduled job: v-acndev-sp15-20180819-v7-sf3067-operationspermissionsets
2020-04-21 18:06:06 INFO  20200421180606866:2749 - End of deleting Prevalidation Label Auto Rejection Scheduled job
2020-04-21 18:06:06 INFO  20200421180606866:2741 - Process started for deleting Prevalidation Label Auto Rejection Scheduled job: v-acndev-sp15-20180819-v7-sf3067-suitewrapper
2020-04-21 18:06:06 INFO  20200421180606866:2749 - End of deleting Prevalidation Label Auto Rejection Scheduled job
2020-04-21 18:06:06 INFO  20200421180606866:2741 - Process started for deleting Prevalidation Label Auto Rejection Scheduled job: v-acndev-sp15-20180819-v8-sf3066-deploymentfixes
2020-04-21 18:06:06 INFO  20200421180606866:2749 - End of deleting Prevalidation Label Auto Rejection Scheduled job
2020-04-21 18:06:06 INFO  20200421180606866:2741 - Process started for deleting Prevalidation Label Auto Rejection Scheduled job: v-acndev-sp15-20180819-v8-sf3066-operationalroledefectfixes
2020-04-21 18:06:06 INFO  20200421180606866:2749 - End of deleting Prevalidation Label Auto Rejection Scheduled job
2020-04-21 18:06:06 INFO  20200421180606866:2741 - Process started for deleting Prevalidation Label Auto Rejection Scheduled job: v-acndev-sp15-20180819-v8-sf3067-operationspermissionsets
2020-04-21 18:06:06 INFO  20200421180606866:2749 - End of deleting Prevalidation Label Auto Rejection Scheduled job
2020-04-21 18:06:06 INFO  20200421180606866:2741 - Process started for deleting Prevalidation Label Auto Rejection Scheduled job: v-acndev-sp15-20180819-v9-sf3066-operationalroledefectfixes
2020-04-21 18:06:06 INFO  20200421180606866:2749 - End of deleting Prevalidation Label Auto Rejection Scheduled job
