2020-04-18 17:10:09 INFO  20200418171009079:2741 - Process started for deleting Prevalidation Label Auto Rejection Scheduled job: v-acndev-2018062018-sp11-v4-opportunityrenewal
2020-04-18 17:10:09 INFO  20200418171009079:2749 - End of deleting Prevalidation Label Auto Rejection Scheduled job
2020-04-18 17:10:09 INFO  20200418171009079:2741 - Process started for deleting Prevalidation Label Auto Rejection Scheduled job: v-acndev-2018062018-sp11-v5-integrationchanges
2020-04-18 17:10:09 INFO  20200418171009079:2749 - End of deleting Prevalidation Label Auto Rejection Scheduled job
2020-04-18 17:10:09 INFO  20200418171009079:2741 - Process started for deleting Prevalidation Label Auto Rejection Scheduled job: v-acndev-2018062018-sp11-v6-integrationchanges
2020-04-18 17:10:09 INFO  20200418171009079:2749 - End of deleting Prevalidation Label Auto Rejection Scheduled job
2020-04-20 16:32:54 INFO  20200420163254034:2741 - Process started for deleting Prevalidation Label Auto Rejection Scheduled job: v-acndev-2018062018-sp11-v4-opportunityrenewal
2020-04-20 16:32:54 INFO  20200420163254034:2749 - End of deleting Prevalidation Label Auto Rejection Scheduled job
2020-04-21 17:44:58 INFO  20200421174458565:2741 - Process started for deleting Prevalidation Label Auto Rejection Scheduled job: v-acndev-2018062018-sp11-v4-opportunityrenewal
2020-04-21 17:44:58 INFO  20200421174458565:2749 - End of deleting Prevalidation Label Auto Rejection Scheduled job
2020-04-21 18:06:04 INFO  20200421180604779:2741 - Process started for deleting Prevalidation Label Auto Rejection Scheduled job: v-acndev-2018062018-sp11-v4-opportunityrenewal
2020-04-21 18:06:04 INFO  20200421180604779:2749 - End of deleting Prevalidation Label Auto Rejection Scheduled job
2020-04-21 18:06:04 INFO  20200421180604779:2741 - Process started for deleting Prevalidation Label Auto Rejection Scheduled job: v-acndev-2018062018-sp11-v5-integrationchanges
2020-04-21 18:06:04 INFO  20200421180604779:2749 - End of deleting Prevalidation Label Auto Rejection Scheduled job
2020-04-21 18:06:04 INFO  20200421180604779:2741 - Process started for deleting Prevalidation Label Auto Rejection Scheduled job: v-acndev-2018062018-sp11-v6-integrationchanges
2020-04-21 18:06:04 INFO  20200421180604779:2749 - End of deleting Prevalidation Label Auto Rejection Scheduled job
