2020-04-18 16:40:16 INFO  20200418164016381:2741 - Process started for deleting Prevalidation Label Auto Rejection Scheduled job: v-acndev-sp13-20180713-v2-sf2753-dealrunfieldsandlayout
2020-04-18 16:40:16 INFO  20200418164016381:2749 - End of deleting Prevalidation Label Auto Rejection Scheduled job
2020-04-18 18:43:06 INFO  20200418184306254:2741 - Process started for deleting Prevalidation Label Auto Rejection Scheduled job: v-acndev-sp13-20180713-v2-sf2753-dealrunfieldsandlayout
2020-04-18 18:43:06 INFO  20200418184306254:2749 - End of deleting Prevalidation Label Auto Rejection Scheduled job
2020-04-20 16:32:54 INFO  20200420163254304:2741 - Process started for deleting Prevalidation Label Auto Rejection Scheduled job: v-acndev-sp13-20180713-v2-sf2753-dealrunfieldsandlayout
2020-04-20 16:32:54 INFO  20200420163254304:2749 - End of deleting Prevalidation Label Auto Rejection Scheduled job
2020-04-21 17:58:21 INFO  20200421175821289:2741 - Process started for deleting Prevalidation Label Auto Rejection Scheduled job: v-acndev-sp13-20180713-v2-sf2753-dealrunfieldsandlayout
2020-04-21 17:58:21 INFO  20200421175821289:2749 - End of deleting Prevalidation Label Auto Rejection Scheduled job
