2020-04-18 16:40:16 INFO  20200418164016349:2741 - Process started for deleting Prevalidation Label Auto Rejection Scheduled job: v-acndev-sp10-20180611-v8-byyearretail
2020-04-18 16:40:16 INFO  20200418164016349:2749 - End of deleting Prevalidation Label Auto Rejection Scheduled job
2020-04-18 16:40:16 INFO  20200418164016349:2741 - Process started for deleting Prevalidation Label Auto Rejection Scheduled job: v-acndev-sp10-20180611-v8-defectfixes
2020-04-18 16:40:16 INFO  20200418164016349:2749 - End of deleting Prevalidation Label Auto Rejection Scheduled job
2020-04-18 16:40:16 INFO  20200418164016349:2741 - Process started for deleting Prevalidation Label Auto Rejection Scheduled job: v-acndev-sp10-20180611-v9-defectfixes
2020-04-18 16:40:16 INFO  20200418164016349:2749 - End of deleting Prevalidation Label Auto Rejection Scheduled job
2020-04-18 17:10:09 INFO  20200418171009203:2741 - Process started for deleting Prevalidation Label Auto Rejection Scheduled job: v-acndev-sp10-20180611-v8-byyearretail
2020-04-18 17:10:09 INFO  20200418171009203:2749 - End of deleting Prevalidation Label Auto Rejection Scheduled job
2020-04-18 17:10:09 INFO  20200418171009203:2741 - Process started for deleting Prevalidation Label Auto Rejection Scheduled job: v-acndev-sp10-20180611-v8-defectfixes
2020-04-18 17:10:09 INFO  20200418171009203:2749 - End of deleting Prevalidation Label Auto Rejection Scheduled job
2020-04-18 17:10:09 INFO  20200418171009203:2741 - Process started for deleting Prevalidation Label Auto Rejection Scheduled job: v-acndev-sp10-20180611-v9-defectfixes
2020-04-18 17:10:09 INFO  20200418171009203:2749 - End of deleting Prevalidation Label Auto Rejection Scheduled job
2020-04-18 17:10:09 INFO  20200418171009203:2741 - Process started for deleting Prevalidation Label Auto Rejection Scheduled job: v-acndev-sp10-20180612-v1-defectfixes
2020-04-18 17:10:09 INFO  20200418171009203:2749 - End of deleting Prevalidation Label Auto Rejection Scheduled job
2020-04-18 18:43:05 INFO  20200418184305897:2741 - Process started for deleting Prevalidation Label Auto Rejection Scheduled job: v-acndev-sp10-20180611-v8-byyearretail
2020-04-18 18:43:05 INFO  20200418184305897:2749 - End of deleting Prevalidation Label Auto Rejection Scheduled job
2020-04-21 17:58:16 INFO  20200421175816714:2741 - Process started for deleting Prevalidation Label Auto Rejection Scheduled job: v-acndev-sp10-20180611-v8-byyearretail
2020-04-21 17:58:17 INFO  20200421175816714:2749 - End of deleting Prevalidation Label Auto Rejection Scheduled job
2020-04-21 18:06:04 INFO  20200421180604965:2741 - Process started for deleting Prevalidation Label Auto Rejection Scheduled job: v-acndev-sp10-20180611-v8-byyearretail
2020-04-21 18:06:04 INFO  20200421180604965:2749 - End of deleting Prevalidation Label Auto Rejection Scheduled job
2020-04-21 18:06:04 INFO  20200421180604965:2741 - Process started for deleting Prevalidation Label Auto Rejection Scheduled job: v-acndev-sp10-20180611-v8-defectfixes
2020-04-21 18:06:04 INFO  20200421180604965:2749 - End of deleting Prevalidation Label Auto Rejection Scheduled job
