2020-04-18 16:40:16 INFO  20200418164016605:2741 - Process started for deleting Prevalidation Label Auto Rejection Scheduled job: v-acndev-sp3-20180831-v9.3-sf3159-profiledependency
2020-04-18 16:40:16 INFO  20200418164016605:2749 - End of deleting Prevalidation Label Auto Rejection Scheduled job
2020-04-18 16:40:16 INFO  20200418164016605:2741 - Process started for deleting Prevalidation Label Auto Rejection Scheduled job: v-acndev-sp3-20180831-v9.4-sf3159-profiledependency
2020-04-18 16:40:16 INFO  20200418164016605:2749 - End of deleting Prevalidation Label Auto Rejection Scheduled job
2020-04-18 17:10:09 INFO  20200418171009464:2741 - Process started for deleting Prevalidation Label Auto Rejection Scheduled job: v-acndev-sp3-20180831-v9.3-sf3159-profiledependency
2020-04-18 17:10:09 INFO  20200418171009464:2749 - End of deleting Prevalidation Label Auto Rejection Scheduled job
2020-04-18 18:43:07 INFO  20200418184307008:2741 - Process started for deleting Prevalidation Label Auto Rejection Scheduled job: v-acndev-sp3-20180831-v9.3-sf3159-profiledependency
2020-04-18 18:43:07 INFO  20200418184307008:2749 - End of deleting Prevalidation Label Auto Rejection Scheduled job
2020-04-21 17:58:29 INFO  20200421175829502:2741 - Process started for deleting Prevalidation Label Auto Rejection Scheduled job: v-acndev-sp3-20180831-v9.3-sf3159-profiledependency
2020-04-21 17:58:29 INFO  20200421175829502:2749 - End of deleting Prevalidation Label Auto Rejection Scheduled job
