2020-04-18 16:40:16 INFO  20200418164016155:2741 - Process started for deleting Prevalidation Label Auto Rejection Scheduled job: v-acndev-20180623-sp11-v5-opportunityleaserenewaldefectfixes
2020-04-18 16:40:16 INFO  20200418164016155:2749 - End of deleting Prevalidation Label Auto Rejection Scheduled job
2020-04-18 17:10:09 INFO  20200418171009110:2741 - Process started for deleting Prevalidation Label Auto Rejection Scheduled job: v-acndev-20180623-sp11-v5-opportunityleaserenewaldefectfixes
2020-04-18 17:10:09 INFO  20200418171009110:2749 - End of deleting Prevalidation Label Auto Rejection Scheduled job
2020-04-18 18:43:05 INFO  20200418184305805:2741 - Process started for deleting Prevalidation Label Auto Rejection Scheduled job: v-acndev-20180623-sp11-v5-opportunityleaserenewaldefectfixes
2020-04-18 18:43:05 INFO  20200418184305805:2749 - End of deleting Prevalidation Label Auto Rejection Scheduled job
2020-04-18 18:43:05 INFO  20200418184305805:2741 - Process started for deleting Prevalidation Label Auto Rejection Scheduled job: [eba-322 vr]
2020-04-18 18:43:05 INFO  20200418184305805:2749 - End of deleting Prevalidation Label Auto Rejection Scheduled job
2020-04-21 17:44:59 INFO  20200421174459673:2741 - Process started for deleting Prevalidation Label Auto Rejection Scheduled job: v-acndev-20180623-sp11-v5-opportunityleaserenewaldefectfixes
2020-04-21 17:44:59 INFO  20200421174459673:2749 - End of deleting Prevalidation Label Auto Rejection Scheduled job
2020-04-21 17:58:15 INFO  20200421175815924:2741 - Process started for deleting Prevalidation Label Auto Rejection Scheduled job: v-acndev-20180623-sp11-v5-opportunityleaserenewaldefectfixes
2020-04-21 17:58:15 INFO  20200421175815924:2749 - End of deleting Prevalidation Label Auto Rejection Scheduled job
