2020-04-18 17:10:09 INFO  20200418171009100:2741 - Process started for deleting Prevalidation Label Auto Rejection Scheduled job: v-acndev-20180622-sp11-v22-profilesandpermissionsets
2020-04-18 17:10:09 INFO  20200418171009100:2749 - End of deleting Prevalidation Label Auto Rejection Scheduled job
2020-04-18 17:10:09 INFO  20200418171009100:2741 - Process started for deleting Prevalidation Label Auto Rejection Scheduled job: v-acndev-20180622-sp11-v23-profilesandpermissionsets
2020-04-18 17:10:09 INFO  20200418171009100:2749 - End of deleting Prevalidation Label Auto Rejection Scheduled job
2020-04-18 18:43:05 INFO  20200418184305791:2741 - Process started for deleting Prevalidation Label Auto Rejection Scheduled job: v-acndev-20180622-sp11-v22-profilesandpermissionsets
2020-04-18 18:43:05 INFO  20200418184305791:2749 - End of deleting Prevalidation Label Auto Rejection Scheduled job
2020-04-18 18:43:05 INFO  20200418184305791:2741 - Process started for deleting Prevalidation Label Auto Rejection Scheduled job: [eba-319-brndopplineitemsearchlayout.oliobject]
2020-04-18 18:43:05 INFO  20200418184305791:2749 - End of deleting Prevalidation Label Auto Rejection Scheduled job
2020-04-21 17:44:59 INFO  20200421174459027:2741 - Process started for deleting Prevalidation Label Auto Rejection Scheduled job: v-acndev-20180622-sp11-v22-profilesandpermissionsets
2020-04-21 17:44:59 INFO  20200421174459027:2749 - End of deleting Prevalidation Label Auto Rejection Scheduled job
