2020-04-18 17:10:09 INFO  20200418171009337:2741 - Process started for deleting Prevalidation Label Auto Rejection Scheduled job: v-acndev-sp15-20180819-v7-sf3067-suitewrapper
2020-04-18 17:10:09 INFO  20200418171009337:2749 - End of deleting Prevalidation Label Auto Rejection Scheduled job
2020-04-18 17:10:09 INFO  20200418171009337:2741 - Process started for deleting Prevalidation Label Auto Rejection Scheduled job: v-acndev-sp15-20180819-v8-sf3066-deploymentfixes
2020-04-18 17:10:09 INFO  20200418171009337:2749 - End of deleting Prevalidation Label Auto Rejection Scheduled job
2020-04-18 17:10:09 INFO  20200418171009337:2741 - Process started for deleting Prevalidation Label Auto Rejection Scheduled job: v-acndev-sp15-20180819-v8-sf3066-operationalroledefectfixes
2020-04-18 17:10:09 INFO  20200418171009337:2749 - End of deleting Prevalidation Label Auto Rejection Scheduled job
2020-04-21 17:58:24 INFO  20200421175824423:2741 - Process started for deleting Prevalidation Label Auto Rejection Scheduled job: v-acndev-sp15-20180819-v7-sf3067-suitewrapper
2020-04-21 17:58:24 INFO  20200421175824423:2749 - End of deleting Prevalidation Label Auto Rejection Scheduled job
