2020-04-18 16:40:16 INFO  20200418164016183:2741 - Process started for deleting Prevalidation Label Auto Rejection Scheduled job: v-acndev-20180703-sp11-v2-integrationchanges
2020-04-18 16:40:16 INFO  20200418164016183:2749 - End of deleting Prevalidation Label Auto Rejection Scheduled job
2020-04-18 17:10:09 INFO  20200418171009126:2741 - Process started for deleting Prevalidation Label Auto Rejection Scheduled job: v-acndev-20180703-sp11-v2-integrationchanges
2020-04-18 17:10:09 INFO  20200418171009126:2749 - End of deleting Prevalidation Label Auto Rejection Scheduled job
2020-04-18 17:10:09 INFO  20200418171009126:2741 - Process started for deleting Prevalidation Label Auto Rejection Scheduled job: v-acndev-20180703-sp11-v3-integrationchanges
2020-04-18 17:10:09 INFO  20200418171009126:2749 - End of deleting Prevalidation Label Auto Rejection Scheduled job
2020-04-18 17:10:09 INFO  20200418171009126:2741 - Process started for deleting Prevalidation Label Auto Rejection Scheduled job: v-acndev-20180703-sp11-v4-integrationchanges
2020-04-18 17:10:09 INFO  20200418171009126:2749 - End of deleting Prevalidation Label Auto Rejection Scheduled job
2020-04-18 18:43:05 INFO  20200418184305824:2741 - Process started for deleting Prevalidation Label Auto Rejection Scheduled job: v-acndev-20180703-sp11-v2-integrationchanges
2020-04-18 18:43:05 INFO  20200418184305824:2749 - End of deleting Prevalidation Label Auto Rejection Scheduled job
2020-04-21 17:45:00 INFO  20200421174500015:2741 - Process started for deleting Prevalidation Label Auto Rejection Scheduled job: v-acndev-20180703-sp11-v2-integrationchanges
2020-04-21 17:45:00 INFO  20200421174500015:2749 - End of deleting Prevalidation Label Auto Rejection Scheduled job
2020-04-21 17:58:16 INFO  20200421175816001:2741 - Process started for deleting Prevalidation Label Auto Rejection Scheduled job: v-acndev-20180703-sp11-v2-integrationchanges
2020-04-21 17:58:16 INFO  20200421175816001:2749 - End of deleting Prevalidation Label Auto Rejection Scheduled job
2020-04-21 18:06:04 INFO  20200421180604837:2741 - Process started for deleting Prevalidation Label Auto Rejection Scheduled job: v-acndev-20180703-sp11-v2-integrationchanges
2020-04-21 18:06:04 INFO  20200421180604837:2749 - End of deleting Prevalidation Label Auto Rejection Scheduled job
2020-04-21 18:06:04 INFO  20200421180604837:2741 - Process started for deleting Prevalidation Label Auto Rejection Scheduled job: v-acndev-20180703-sp11-v3-integrationchanges
2020-04-21 18:06:04 INFO  20200421180604837:2749 - End of deleting Prevalidation Label Auto Rejection Scheduled job
2020-04-21 18:06:04 INFO  20200421180604837:2741 - Process started for deleting Prevalidation Label Auto Rejection Scheduled job: v-acndev-20180703-sp11-v4-integrationchanges
2020-04-21 18:06:04 INFO  20200421180604837:2749 - End of deleting Prevalidation Label Auto Rejection Scheduled job
