2020-04-18 16:40:16 INFO  20200418164016548:2741 - Process started for deleting Prevalidation Label Auto Rejection Scheduled job: v-acndev-sp16-20180904-v2-sf3828-suitemanager
2020-04-18 16:40:16 INFO  20200418164016548:2749 - End of deleting Prevalidation Label Auto Rejection Scheduled job
2020-04-18 17:10:09 INFO  20200418171009404:2741 - Process started for deleting Prevalidation Label Auto Rejection Scheduled job: v-acndev-sp16-20180904-v2-sf3828-suitemanager
2020-04-18 17:10:09 INFO  20200418171009404:2749 - End of deleting Prevalidation Label Auto Rejection Scheduled job
2020-04-18 17:10:09 INFO  20200418171009404:2741 - Process started for deleting Prevalidation Label Auto Rejection Scheduled job: v-acndev-sp16-20180904-v3-qacoredefectfixes
2020-04-18 17:10:09 INFO  20200418171009404:2749 - End of deleting Prevalidation Label Auto Rejection Scheduled job
2020-04-21 17:58:25 INFO  20200421175825819:2741 - Process started for deleting Prevalidation Label Auto Rejection Scheduled job: v-acndev-sp16-20180904-v2-sf3828-suitemanager
2020-04-21 17:58:25 INFO  20200421175825819:2749 - End of deleting Prevalidation Label Auto Rejection Scheduled job
