2020-04-18 16:40:16 INFO  20200418164016612:2741 - Process started for deleting Prevalidation Label Auto Rejection Scheduled job: v-acndev-sp3-20180904-v1-portaldeploymnetfailures
2020-04-18 16:40:16 INFO  20200418164016612:2749 - End of deleting Prevalidation Label Auto Rejection Scheduled job
2020-04-18 16:40:16 INFO  20200418164016612:2741 - Process started for deleting Prevalidation Label Auto Rejection Scheduled job: v-acndev-sp3-20180904-v1.1-portaldeploymnetfailures
2020-04-18 16:40:16 INFO  20200418164016612:2749 - End of deleting Prevalidation Label Auto Rejection Scheduled job
2020-04-18 17:10:09 INFO  20200418171009472:2741 - Process started for deleting Prevalidation Label Auto Rejection Scheduled job: v-acndev-sp3-20180904-v1-portaldeploymnetfailures
2020-04-18 17:10:09 INFO  20200418171009472:2749 - End of deleting Prevalidation Label Auto Rejection Scheduled job
2020-04-18 18:43:07 INFO  20200418184307021:2741 - Process started for deleting Prevalidation Label Auto Rejection Scheduled job: v-acndev-sp3-20180904-v1-portaldeploymnetfailures
2020-04-18 18:43:07 INFO  20200418184307021:2749 - End of deleting Prevalidation Label Auto Rejection Scheduled job
2020-04-21 17:58:29 INFO  20200421175829795:2741 - Process started for deleting Prevalidation Label Auto Rejection Scheduled job: v-acndev-sp3-20180904-v1-portaldeploymnetfailures
2020-04-21 17:58:29 INFO  20200421175829795:2749 - End of deleting Prevalidation Label Auto Rejection Scheduled job
