2020-04-18 16:40:16 INFO  20200418164016141:2741 - Process started for deleting Prevalidation Label Auto Rejection Scheduled job: v-acndev-20180622-sp11-v17-profilesandpermissionsets
2020-04-18 16:40:16 INFO  20200418164016141:2749 - End of deleting Prevalidation Label Auto Rejection Scheduled job
2020-04-21 17:44:58 INFO  20200421174458640:2741 - Process started for deleting Prevalidation Label Auto Rejection Scheduled job: v-acndev-20180622-sp11-v17-profilesandpermissionsets
2020-04-21 17:44:58 INFO  20200421174458640:2749 - End of deleting Prevalidation Label Auto Rejection Scheduled job
2020-04-21 17:44:58 INFO  20200421174458640:2741 - Process started for deleting Prevalidation Label Auto Rejection Scheduled job: [mny-663 - updated missing apex classes]
2020-04-21 17:44:58 INFO  20200421174458640:2749 - End of deleting Prevalidation Label Auto Rejection Scheduled job
2020-04-21 17:58:15 INFO  20200421175815914:2741 - Process started for deleting Prevalidation Label Auto Rejection Scheduled job: v-acndev-20180622-sp11-v17-profilesandpermissionsets
2020-04-21 17:58:15 INFO  20200421175815914:2749 - End of deleting Prevalidation Label Auto Rejection Scheduled job
2020-04-21 17:58:15 INFO  20200421175815914:2741 - Process started for deleting Prevalidation Label Auto Rejection Scheduled job: v-acndev-20180622-sp11-v18-profilesandpermissionsets
2020-04-21 17:58:15 INFO  20200421175815914:2749 - End of deleting Prevalidation Label Auto Rejection Scheduled job
