2020-04-18 16:40:16 INFO  20200418164016299:2741 - Process started for deleting Prevalidation Label Auto Rejection Scheduled job: v-acndev-integration-20180607-v8
2020-04-18 16:40:16 INFO  20200418164016299:2749 - End of deleting Prevalidation Label Auto Rejection Scheduled job
2020-04-18 16:40:16 INFO  20200418164016299:2741 - Process started for deleting Prevalidation Label Auto Rejection Scheduled job: v-acndev-integration_field_datatype_update-20180611-v1
2020-04-18 16:40:16 INFO  20200418164016299:2749 - End of deleting Prevalidation Label Auto Rejection Scheduled job
2020-04-18 17:10:09 INFO  20200418171009152:2741 - Process started for deleting Prevalidation Label Auto Rejection Scheduled job: v-acndev-integration-20180607-v8
2020-04-18 17:10:09 INFO  20200418171009152:2749 - End of deleting Prevalidation Label Auto Rejection Scheduled job
2020-04-20 16:32:54 INFO  20200420163254177:2741 - Process started for deleting Prevalidation Label Auto Rejection Scheduled job: v-acndev-integration-20180607-v8
2020-04-20 16:32:54 INFO  20200420163254177:2749 - End of deleting Prevalidation Label Auto Rejection Scheduled job
2020-04-21 17:58:16 INFO  20200421175816072:2741 - Process started for deleting Prevalidation Label Auto Rejection Scheduled job: v-acndev-integration-20180607-v8
2020-04-21 17:58:16 INFO  20200421175816072:2749 - End of deleting Prevalidation Label Auto Rejection Scheduled job
