2020-04-20 16:32:54 INFO  20200420163254585:2741 - Process started for deleting Prevalidation Label Auto Rejection Scheduled job: v-acndev-sp2-20180820-v3.2-sf3050-homequicklinksfixes
2020-04-20 16:32:54 INFO  20200420163254585:2749 - End of deleting Prevalidation Label Auto Rejection Scheduled job
2020-04-21 17:58:27 INFO  20200421175827184:2741 - Process started for deleting Prevalidation Label Auto Rejection Scheduled job: v-acndev-sp2-20180820-v3.2-sf3050-homequicklinksfixes
2020-04-21 17:58:27 INFO  20200421175827184:2749 - End of deleting Prevalidation Label Auto Rejection Scheduled job
