2020-04-18 16:40:16 INFO  20200418164016619:2741 - Process started for deleting Prevalidation Label Auto Rejection Scheduled job: v-evdev-sp1-20180905-v1-marketingcloudconnector
2020-04-18 16:40:16 INFO  20200418164016619:2749 - End of deleting Prevalidation Label Auto Rejection Scheduled job
2020-04-18 17:10:09 INFO  20200418171009480:2741 - Process started for deleting Prevalidation Label Auto Rejection Scheduled job: v-evdev-sp1-20180905-v1-marketingcloudconnector
2020-04-18 17:10:09 INFO  20200418171009480:2749 - End of deleting Prevalidation Label Auto Rejection Scheduled job
2020-04-18 17:10:09 INFO  20200418171009480:2741 - Process started for deleting Prevalidation Label Auto Rejection Scheduled job: v-evdev-sp1-20180905-v2-marketingcloudconnector
2020-04-18 17:10:09 INFO  20200418171009480:2749 - End of deleting Prevalidation Label Auto Rejection Scheduled job
2020-04-18 18:43:07 INFO  20200418184307035:2741 - Process started for deleting Prevalidation Label Auto Rejection Scheduled job: v-evdev-sp1-20180905-v1-marketingcloudconnector
2020-04-18 18:43:07 INFO  20200418184307035:2749 - End of deleting Prevalidation Label Auto Rejection Scheduled job
2020-04-21 17:58:29 INFO  20200421175829870:2741 - Process started for deleting Prevalidation Label Auto Rejection Scheduled job: v-evdev-sp1-20180905-v1-marketingcloudconnector
2020-04-21 17:58:29 INFO  20200421175829870:2749 - End of deleting Prevalidation Label Auto Rejection Scheduled job
