2020-05-11 21:23:39 INFO  20200511212339374:35 - Loading CIJob schedules for orgnamenisum.com
2020-05-11 21:23:39 INFO  20200511212339374:35 - Loading CIJob schedules for orgnameautorabit.com-QVhNaW
2020-05-11 21:23:39 INFO  20200511212339374:35 - Loading CIJob schedules for orgnameautorabit.com-PmkSJi
