2020-03-04 15:05:55 INFO  20200304150555336:35 - Loading CIJob schedules for orgnamenisum.com
2020-03-04 15:05:55 INFO  20200304150555336:35 - Loading CIJob schedules for orgnameautorabit.com-PmkSJi
2020-03-04 15:53:02 INFO  20200304155302055:35 - Loading CIJob schedules for orgnamenisum.com
2020-03-04 15:53:02 INFO  20200304155302055:35 - Loading CIJob schedules for orgnameautorabit.com-PmkSJi
2020-03-04 16:03:51 INFO  20200304160351262:35 - Loading CIJob schedules for orgnamenisum.com
2020-03-04 16:03:51 INFO  20200304160351262:35 - Loading CIJob schedules for orgnameautorabit.com-PmkSJi
