2020-01-31 18:08:39 INFO  20200131180839160:35 - Loading CIJob schedules for orgnamenisum.com
2020-01-31 18:08:39 INFO  20200131180839160:35 - Loading CIJob schedules for orgnameautorabit.com-PmkSJi
2020-01-31 18:12:20 INFO  20200131181219165:35 - Loading CIJob schedules for orgnamenisum.com
2020-01-31 18:12:20 INFO  20200131181219165:35 - Loading CIJob schedules for orgnameautorabit.com-PmkSJi
2020-01-31 18:22:47 INFO  20200131182247104:35 - Loading CIJob schedules for orgnamenisum.com
2020-01-31 18:22:47 INFO  20200131182247104:35 - Loading CIJob schedules for orgnameautorabit.com-PmkSJi
2020-01-31 20:50:53 INFO  20200131205051678:35 - Loading CIJob schedules for orgnamenisum.com
2020-01-31 20:50:53 INFO  20200131205051678:35 - Loading CIJob schedules for orgnameautorabit.com-PmkSJi
2020-01-31 20:51:57 INFO  20200131205157274:35 - Loading CIJob schedules for orgnamenisum.com
2020-01-31 20:51:57 INFO  20200131205157274:35 - Loading CIJob schedules for orgnameautorabit.com-PmkSJi
2020-01-31 20:55:16 INFO  20200131205516393:35 - Loading CIJob schedules for orgnamenisum.com
2020-01-31 20:55:16 INFO  20200131205516393:35 - Loading CIJob schedules for orgnameautorabit.com-PmkSJi
2020-01-31 20:59:46 INFO  20200131205946098:35 - Loading CIJob schedules for orgnamenisum.com
2020-01-31 20:59:47 INFO  20200131205946098:35 - Loading CIJob schedules for orgnameautorabit.com-PmkSJi
2020-01-31 22:27:02 INFO  20200131222659190:35 - Loading CIJob schedules for orgnamenisum.com
2020-01-31 22:27:02 INFO  20200131222659190:35 - Loading CIJob schedules for orgnameautorabit.com-PmkSJi
