2020.03.09.15.17.26--Updated build properties.
2020.03.09.15.17.26--Starting the Build Process
2020.03.09.15.17.26--AR-Debug:: orgname : autorabit.com-PmkSJi projectname : 22021Test1 buildnumber : 1 buildforced : true agentname : ArAgent status : Inprogress
2020.03.09.15.17.26--AR-Debug:: update build status : Success
2020.03.09.15.17.26--Step1 : Checking for modifications to continue the build.
2020.03.09.15.17.26--::::::In getUserCredential ::
2020.03.09.15.17.26--Org Name: autorabit.com-PmkSJi, Project Name: 22021Test1,getUserCredentials initated to AgentService.
2020.03.09.15.17.26--Org Name: autorabit.com-PmkSJi, Project Name: 22021Test1, getUserCredentials completed.
2020.03.09.15.17.26--SCM URL : https://bitbucket.org/rajashekarj/myrepo2.git
2020.03.09.15.17.26--Taking new checkout.
2020.03.09.15.17.26--Cloning the target branch.
2020.03.09.15.17.26--AR-Debug:: OrgName : autorabit.com-PmkSJi Executing custom API
2020.03.09.15.17.26--Executing custom API
2020.03.09.15.17.33--orgName : autorabit.com-PmkSJi Executing custom API
2020.03.09.15.17.35--Checkout completed.
2020.03.09.15.17.35--Step1 : Modifications exist, Proceeding for next steps...
2020.03.09.15.17.35--Step2 : Cleaning the directories and creating.
2020.03.09.15.17.35--Step2 : Directories creation completed proceeding for next steps...
2020.03.09.15.17.35--Step3 : Checkout / Data retrieval process started.
2020.03.09.15.17.35--Project checkout path : D:\filesystem\193\agent\projects\autorabit.com-PmkSJi_22021Test1
2020.03.09.15.17.35--Fetching all changed files.
2020.03.09.15.17.35--SCM URL : https://bitbucket.org/rajashekarj/myrepo2.git
2020.03.09.15.17.35--::generateChangeList - scm.getLog:: StartTimeMon Mar 09 20:47:35 IST 2020
2020.03.09.15.17.35--Same remote url found. Updating working copy.
2020.03.09.15.17.35--AR-Debug:: OrgName : autorabit.com-PmkSJi Executing custom API
2020.03.09.15.17.35--Executing custom API
2020.03.09.15.17.37--From Revision : 539fed7 To Revision : f7c7e16
2020.03.09.15.17.37--Validating revision : 539fed7 in the branch  : branch1
2020.03.09.15.17.37--From Revision : 539fed7 found in the branch  : branch1
2020.03.09.15.17.37--AR-Debug:: Total time taken for revision validate in sec: 0
2020.03.09.15.17.37--From Revision :539fed7 validated and proceeding to get logs
2020.03.09.15.17.37--AR-Debug::  isSame: false
2020.03.09.15.17.37--AR-Debug::  fromRev: 539fed7
2020.03.09.15.17.37--AR-Debug::  gitshaLength: 7
2020.03.09.15.17.37--
 Generated log entries and finished all threads - 
2020.03.09.15.17.37--AR-Debug::  allRevisions: [f7c7e16, 539fed7]
2020.03.09.15.17.37--AR-Debug::  allRevisions size: 2
2020.03.09.15.17.37--AR-Debug::  logsMap size: 2
2020.03.09.15.17.37--AR-Debug::  logsMap revisions: [f7c7e16, 539fed7]
2020.03.09.15.17.37--generateChangeList - scm.getLog:: EndTime : Mon Mar 09 20:47:37 IST 2020
2020.03.09.15.17.37--Total scm.getLog time in sec: 2
2020.03.09.15.17.37--logEntries size is 2
2020.03.09.15.17.37--logEntries size is 1
2020.03.09.15.17.37--SCM log generated for processing changes.
2020.03.09.15.17.37--Writing scmlog to file.
2020.03.09.15.17.37--Changelist generated.
2020.03.09.15.17.37--prepareDestructive is : false
2020.03.09.15.17.37--AR-Debug:: revisionf7c7e16
2020.03.09.15.17.37--AR-Debug:: FileName: objects/Field_Trip__Field_Analysis__c.object Action: A
2020.03.09.15.17.37--AR-Debug:: FileName: package.xml Action: M
2020.03.09.15.17.37--AR-Debug:: FileName: objects/CustomMetadata2__mdt.object Action: M
2020.03.09.15.17.37--AR-Debug:: FileName: objects/CustomMetadata1__mdt.object Action: M
2020.03.09.15.17.37--AR-Debug:: FileName: objects/Deploy_Cus_metadata__mdt.object Action: M
2020.03.09.15.17.37--AR-Debug:: FileName: objects/Field_Trip__Logistics__c.object Action: A
2020.03.09.15.17.37--AR-Debug:: FileName: objects/CustomMetadata3__mdt.object Action: M
2020.03.09.15.17.37--AR-Debug:: FileName: objects/Field_Trip__Object_Analysis__c.object Action: A
2020.03.09.15.17.37--AR-Debug:: FileName: objects/CustomMetadata4__mdt.object Action: M
2020.03.09.15.17.37--AR-Debug:: FileName: objects/Field_Trip__Field_Analytic_Config__c.object Action: A
2020.03.09.15.17.37--AR-Debug:: FileName: objects/Hippa__c.object Action: A
2020.03.09.15.17.37--Process Start Time : Mon Mar 09 20:47:37 IST 2020
2020.03.09.15.17.37--Copying files to custom deploy
2020.03.09.15.17.37--AR-Debug:: package filename: objects/Field_Trip__Field_Analysis__c.object
2020.03.09.15.17.37--AR-Debug:: package cpFile: D:\filesystem\193\agent\projects\autorabit.com-PmkSJi_22021Test1\objects\Field_Trip__Field_Analysis__c.object
2020.03.09.15.17.37--AR-Debug:: package filename: package.xml
2020.03.09.15.17.37--AR-Debug:: package cpFile: D:\filesystem\193\agent\projects\autorabit.com-PmkSJi_22021Test1\package.xml
2020.03.09.15.17.37--AR-Debug:: package filename: objects/CustomMetadata2__mdt.object
2020.03.09.15.17.37--AR-Debug:: package cpFile: D:\filesystem\193\agent\projects\autorabit.com-PmkSJi_22021Test1\objects\CustomMetadata2__mdt.object
2020.03.09.15.17.37--AR-Debug:: package filename: objects/CustomMetadata1__mdt.object
2020.03.09.15.17.37--AR-Debug:: package cpFile: D:\filesystem\193\agent\projects\autorabit.com-PmkSJi_22021Test1\objects\CustomMetadata1__mdt.object
2020.03.09.15.17.37--AR-Debug:: package filename: objects/Deploy_Cus_metadata__mdt.object
2020.03.09.15.17.37--AR-Debug:: package cpFile: D:\filesystem\193\agent\projects\autorabit.com-PmkSJi_22021Test1\objects\Deploy_Cus_metadata__mdt.object
2020.03.09.15.17.37--AR-Debug:: package filename: objects/Field_Trip__Logistics__c.object
2020.03.09.15.17.37--AR-Debug:: package cpFile: D:\filesystem\193\agent\projects\autorabit.com-PmkSJi_22021Test1\objects\Field_Trip__Logistics__c.object
2020.03.09.15.17.38--AR-Debug:: package filename: objects/CustomMetadata3__mdt.object
2020.03.09.15.17.38--AR-Debug:: package cpFile: D:\filesystem\193\agent\projects\autorabit.com-PmkSJi_22021Test1\objects\CustomMetadata3__mdt.object
2020.03.09.15.17.38--AR-Debug:: package filename: objects/Field_Trip__Object_Analysis__c.object
2020.03.09.15.17.38--AR-Debug:: package cpFile: D:\filesystem\193\agent\projects\autorabit.com-PmkSJi_22021Test1\objects\Field_Trip__Object_Analysis__c.object
2020.03.09.15.17.38--AR-Debug:: package filename: objects/CustomMetadata4__mdt.object
2020.03.09.15.17.38--AR-Debug:: package cpFile: D:\filesystem\193\agent\projects\autorabit.com-PmkSJi_22021Test1\objects\CustomMetadata4__mdt.object
2020.03.09.15.17.38--AR-Debug:: package filename: objects/Field_Trip__Field_Analytic_Config__c.object
2020.03.09.15.17.38--AR-Debug:: package cpFile: D:\filesystem\193\agent\projects\autorabit.com-PmkSJi_22021Test1\objects\Field_Trip__Field_Analytic_Config__c.object
2020.03.09.15.17.38--AR-Debug:: package filename: objects/Hippa__c.object
2020.03.09.15.17.38--AR-Debug:: package cpFile: D:\filesystem\193\agent\projects\autorabit.com-PmkSJi_22021Test1\objects\Hippa__c.object
2020.03.09.15.17.38--Changed files count : 11
2020.03.09.15.17.38--::::::::ValidateDeployablemetadataSchemaCalled::::::::::-With REVISION
2020.03.09.15.17.38--In validateDeployableMetaDataSchema:::::::startTime::Mon Mar 09 20:47:38 IST 2020 directoryPath::D:\filesystem\193\agent\projects\autorabit.com-PmkSJi_22021Test1 lastCall::false
2020.03.09.15.17.38--In validateDeployableMetaDataSchema:::::::startTime::Mon Mar 09 20:47:38 IST 2020 directoryPath::D:\filesystem\193\agent\projects\autorabit.com-PmkSJi_22021Test1\customDeploy lastCall::true
2020.03.09.15.17.38--Diff found between package.xml and package.xml at line number : 504
2020.03.09.15.17.38--AR-Debug:: Source line is :         <members>MinusZero__c.MZ_Name__c</members>
2020.03.09.15.17.38--AR-Debug:: Target line is :         <members>Field_Trip__Field_Analysis__c.Field_Trip__Label__c</members>
2020.03.09.15.17.38--
Finished all threads
2020.03.09.15.17.38--Total Build Time : 1352
2020.03.09.15.17.38--Prepared package manifest.
2020.03.09.15.17.38--Package xml file path : D:\filesystem\193\agent\projects\autorabit.com-PmkSJi_22021Test1\customDeploy\package.xml
2020.03.09.15.17.38--Preparing the dynamic package.xml file.
2020.03.09.15.17.39--Saved package manifest.
2020.03.09.15.17.39--Validating the empty metadata files exist or not.
2020.03.09.15.17.39--AR-Debug:: Parsing package file. Package file path : D:\filesystem\193\agent\projects\autorabit.com-PmkSJi_22021Test1\customDeploy\package.xml
2020.03.09.15.17.39--Preparing Metadata members map.
2020.03.09.15.17.39--Prepared Metadata members map.
2020.03.09.15.17.39--Preparing the dynamic package.xml file.
2020.03.09.15.17.39--Validated the empty metadata files exist or not.
2020.03.09.15.17.39--Step3 : Checkout / Data retrieval completed proceeding for next steps...
2020.03.09.15.17.39--Step4 : Pre-Package steps started.
2020.03.09.15.17.39--Profiles refactoring started.
2020.03.09.15.17.39--AR-Debug:: Parsing package file. Package file path : D:\filesystem\193\agent\projects\autorabit.com-PmkSJi_22021Test1\customDeploy\package.xml
2020.03.09.15.17.39--Preparing Metadata members map.
2020.03.09.15.17.39--Prepared Metadata members map.
2020.03.09.15.17.39--Profiles refactoring completed.
2020.03.09.15.17.39--AR-Debug:: <font color='orange'>request parameters received as empty/null for update namespace</font>
2020.03.09.15.17.39--RSS fields update started.
2020.03.09.15.17.39--RSS fields update completed.
2020.03.09.15.17.39--AR-Debug:: no configuration to empty -meta files.
2020.03.09.15.17.39--Step4 : Pre-Package steps completed proceeding for next steps...
2020.03.09.15.17.39--Step5 : Package steps started
2020.03.09.15.17.39--Packaging completed successfully.
2020.03.09.15.17.39--SCM URL : https://bitbucket.org/rajashekarj/myrepo2.git
2020.03.09.15.17.39--Checkout completed.
2020.03.09.15.17.39--Step5 : Package steps completed proceeding for next steps...
2020.03.09.15.17.39--Step6 : Post package steps started.
2020.03.09.15.17.39--AR-Debug::  Static code analysis was not chosen
2020.03.09.15.17.39--Step6 : Post package steps completed
2020.03.09.15.17.39--AR-Debug:: orgname : autorabit.com-PmkSJi projectname : 22021Test1 buildnumber : 1 buildforced : true agentname : ArAgent status : Completed
2020-03-09 20:47:39 INFO  com-PmkSJi_22021Test1_1:839 - autorabit.com-PmkSJi_22021Test1 Post build steps started.
2020-03-09 20:47:39 INFO  com-PmkSJi_22021Test1_1:1410 - Metadata changes present for project :autorabit.com-PmkSJi_22021Test1_1
2020-03-09 20:47:39 INFO  com-PmkSJi_22021Test1_1:1019 - <br /> BUILD SUCCESSFUL
2020-03-09 20:47:39 INFO  com-PmkSJi_22021Test1_1:1020 - Total time: 14 Seconds
2020-03-09 20:47:39 INFO  com-PmkSJi_22021Test1_1:1021 - Build Completed
2020-03-09 20:47:39 INFO  com-PmkSJi_22021Test1_1:885 - AR-Debug::  Changes are available
2020-03-09 20:47:39 INFO  com-PmkSJi_22021Test1_1:895 - Triggering Deployment Agent from force build with org nameautorabit.com-PmkSJiBuildProject name :22021Test1current Build number :1
2020-03-09 20:47:39 INFO  com-PmkSJi_22021Test1_1:216 - AR-Debug::  Build process completed. Preparing deployment properties.
2020-03-09 20:47:39 INFO  com-PmkSJi_22021Test1_1:344 - AR-Debug::  sfpackage : null
2020-03-09 20:47:39 INFO  com-PmkSJi_22021Test1_1:345 - AR-Debug::  servertype : Dev
2020-03-09 20:47:39 INFO  com-PmkSJi_22021Test1_1:346 - AR-Debug::  label : RJ_SF_AR_BB
2020-03-09 20:47:39 INFO  com-PmkSJi_22021Test1_1:387 - AR-Debug::  Invoking deployment service for autorabit.com-PmkSJi_22021Test1_1
2020-03-09 20:47:39 INFO  com-PmkSJi_22021Test1_1:388 - AR-Debug::  Invoking deployment with CIJobInfo CIJobInfo [orgName=autorabit.com-PmkSJi, projectName=22021Test1, deployRevision=null, lastsuccessfulbuild=1, lastsuccessfuldeployment=null, buildNumber=1, fromRevision=539fed7, toRevision=f7c7e16, triggeredBy=rajashekar.j1@autorabit.com, title=b1, isBuildForced=true, isDeploy=true, isTest=false, isBackUp=false, isPMD=false, pmdType=null, comment=null, timeOfBuild=2020-03-09 15:17:26, projectType=SalesForce, buildAgentName=ArAgent, buildLogId=null, buildStatus=Completed, deployAgentName=null, isValidate=false, sourceSFOrg=null, repoName=BBrepo2, branchName=branch1, sourceFolder=null, deployedSFOrg=RJ_SF_AR_BB, deployedTime=null, deployStatus=null, deployID=null, runCodeCoverage=null, sourceCodeCoverage=0.0, destCodeCoverage=0.0, testStatus=null, totalTests=null, totalFailures=null, totalSuccess=null, totalNotRun=null, backupStatus=null, backupTime=null, revertStatus=null, buildID=null, almCommitLabels=null, almType=null, status=Completed, testTypes=null, browsers=null, from=versioncontrol, autoCommit=false, dateTimeId=20200309151726, vlocity=false, cancelDeploy=null, quickdeployStatus=null, quickDeployId=null, destructiveType=null, validateRollBack=false, testlevel=null, postAct=null, overAllStatus=Inprogress, isEnableSearchSubstitute=false, searchSubstituteRules=null, accelqProjectCode=null, accelqProjectName=null, accelqJobId=null, accelqJobName=null, accelqProcessId=null, accelqProcessstatus=null, preventDeployment=false]
2020-03-09 20:47:39 ERROR com-PmkSJi_22021Test1_1:398 - AR-Debug:: sending request to poolName : Default agentName : ArAgent and agentURL : http://localhost:5000/
2020-03-09 20:47:39 INFO  com-PmkSJi_22021Test1_1:143 - AR-Debug::  agent url is http://localhost:5000/
2020.03.09.15.17.39--BUILD_DEPLOY_SEPERATOR
2020.03.09.15.17.39--AR-Debug:: Deployment request for  DestSfId::00D2v000001fQimEAE initiating deployment
2020.03.09.15.17.39--Trigger Deployment service invoked!!! for project: 22021Test1 and buildNumber: 1
2020.03.09.15.17.39--Rabit regression properties file updated successfully
2020.03.09.15.17.39--isTest::false::isInstall::true::isValidateDeployment::false
2020.03.09.15.17.39--AR-Debug:: Project Type is: SalesForce
2020.03.09.15.17.39--AR-Debug:: Saved SuccessFully: cijobsettings.properties
2020.03.09.15.17.40--AR-Debug:: 22021Test1 : 1
2020-03-09 20:47:40 INFO  com-PmkSJi_22021Test1_1:147 - Deployment Status::Deployment invoked successfully
2020-03-09 20:47:40 INFO  com-PmkSJi_22021Test1_1:918 - AR-Debug::  Invoking Metadata updater ..
2020-03-09 20:47:40 INFO  com-PmkSJi_22021Test1_1:86 - AR-Debug:: Submitting key is 20200309204740095_autorabit.com-PmkSJi_22021Test1_1_metadataupdate
2020-03-09 20:47:40 INFO  com-PmkSJi_22021Test1_1:89 - AR-Debug:: Task does not exist in the queue. Putting new task into queue.20200309204740095_autorabit.com-PmkSJi_22021Test1_1_metadataupdate
2020-03-09 20:47:40 INFO  com-PmkSJi_22021Test1_1:90 - Task does not exist in the queue. Putting new task into queue.
2020-03-09 20:47:40 INFO  com-PmkSJi_22021Test1_1:119 - Submitting new task to execute method.
2020.03.09.15.17.40--AR-Debug:: deployment status is inprogressInprogress
2020.03.09.15.17.40--AR-Debug:: processDeployAgentActiveJob : Inprogress
2020.03.09.15.17.40--AR-Debug:: update build status : Success
2020.03.09.15.17.40--AR-Debug:: Agent Side : Total time taken to complete build process: 14 Seconds
2020.03.09.15.17.40--AR-Debug:: update deploy status : Success
2020.03.09.15.17.40--================Deployment process started.=========================
2020.03.09.15.17.40--Preparing zip File with metadata API supported format start.
2020.03.09.15.17.40--AR-Debug:: Parsing package file. Package file path : D:\filesystem\193\agent\sfoper\autorabit.com-PmkSJi_22021Test1\unpackaged\package.xml
2020.03.09.15.17.40--Preparing Metadata members map.
2020.03.09.15.17.40--Prepared Metadata members map.
2020.03.09.15.17.40--Preparing zip File with Metadata API supported format completed successfully.
2020.03.09.15.17.40--Deployment process started using Metadata API.22021Test1
2020.03.09.15.17.40--Preparing the deployment options stated.
2020.03.09.15.17.40--configured testLevel: NoTestRun
2020.03.09.15.17.40--deployment options preparation completed.
2020.03.09.15.17.40--AR-Debug:: Generating access token from refresh token for salesforce org...
2020.03.09.15.17.41--Response Statusline:HTTP/1.1 200 OK
2020.03.09.15.17.42--AR-Debug:: AsyncResultID::0Af2v00000oLmA1CAK
2020.03.09.15.17.42--AR-Debug:: AsyncResultState::Queued
2020.03.09.15.17.42--<font color='blue'>Deployment has been initiated with Async Id::0Af2v00000oLmA1CAK</font>
2020.03.09.15.17.42--AR-Debug:: DeployID : 0Af2v00000oLmA1CAK
2020.03.09.15.17.42--AR-Debug:: deployment status is inprogressInprogress
2020.03.09.15.17.42--AR-Debug:: processDeployAgentActiveJob : Inprogress
2020.03.09.15.17.42--AR-Debug:: update deploy status : Success
2020.03.09.15.17.48--<font color='green'>Component successes count : 4</font>
2020.03.09.15.17.48--<font color='red'>Component failures count : 4</font>
2020.03.09.15.17.48--<font color='red'>All Component Failures:</font>
2020.03.09.15.17.48--1.unpackaged/objects/Field_Trip__Field_Analysis__c.object -- Error: Cannot create a new component with the namespace: Field_Trip.  Only components in the same namespace as the organization can be created through the API (line 0, column 0)
2.unpackaged/objects/Field_Trip__Object_Analysis__c.object -- Error: Cannot create a new component with the namespace: Field_Trip.  Only components in the same namespace as the organization can be created through the API (line 0, column 0)
3.unpackaged/objects/Field_Trip__Field_Analytic_Config__c.object -- Error: Cannot create a new component with the namespace: Field_Trip.  Only components in the same namespace as the organization can be created through the API (line 0, column 0)
4.unpackaged/objects/Field_Trip__Logistics__c.object -- Error: Cannot create a new component with the namespace: Field_Trip.  Only components in the same namespace as the organization can be created through the API (line 0, column 0)

2020.03.09.15.17.48--<font color='red'>*********** DEPLOYMENT FAILED ***********</font>
2020.03.09.15.17.48--AR-Debug:: DeployID : 0Af2v00000oLmA1CAK
2020.03.09.15.17.48--AR-Debug:: processDeployAgentActiveJob : Failed
2020.03.09.15.17.48--AR-Debug:: processDeployAgentActiveJob : false
2020.03.09.15.17.48--AR-Debug:: Issue Sandbox Properties, seems tests/forcetests were not configured
2020.03.09.15.17.48--AR-Debug:: processDeployAgentActiveJob : Failed
2020.03.09.15.17.49--AR-Debug:: update deploy status : Success
2020.03.09.15.17.49--AR-Debug:: Deployment Completed With status: Failed
2020.03.09.15.17.49--AR-Debug:: Deployement process completed for Project 22021Test1 with deploymentId: 0Af2v00000oLmA1CAK===============
2020.03.09.15.17.49--Total time :9 Seconds
